measurement data/Scope_P14Pro_Startup_PWM_input.csv

ProID,Info,,time,Value,
GenTime,2009-09-01 06:18:50,,0.0,4.14,
Record Length,3500 Points,,8.0E-6,4.14,
Sample Interval,8.0E-6 s,,1.6E-5,4.18,
Trigger Time,1.022 s,,2.4E-5,4.18,
Source,CH2,,3.2E-5,4.14,
Vertical Units,(V)/grid,,4.0E-5,4.14,
Vertical Scale,1.0,,4.8E-5,4.18,
Vertical Offset,0,,5.6E-5,4.14,
Horizontal Units,s/grid,,6.4E-5,4.14,
Horizontal Scale,0.002,,7.2E-5,4.14,
Probe Atten,10.0,,8.0E-5,4.14,
,,,8.8E-5,4.06,
,,,9.6E-5,4.14,
,,,1.04E-4,4.14,
,,,1.12E-4,4.14,
,,,1.2E-4,4.14,
,,,1.28E-4,4.18,
,,,1.36E-4,4.14,
,,,1.44E-4,4.14,
,,,1.52E-4,4.14,
,,,1.6E-4,4.14,
,,,1.68E-4,4.14,
,,,1.76E-4,4.14,
,,,1.84E-4,4.18,
,,,1.92E-4,4.14,
,,,2.0E-4,4.14,
,,,2.08E-4,4.14,
,,,2.16E-4,4.14,
,,,2.24E-4,4.14,
,,,2.32E-4,4.14,
,,,2.4E-4,4.14,
,,,2.48E-4,4.14,
,,,2.56E-4,4.18,
,,,2.64E-4,4.18,
,,,2.72E-4,4.14,
,,,2.8E-4,4.14,
,,,2.88E-4,4.18,
,,,2.96E-4,4.14,
,,,3.04E-4,4.14,
,,,3.12E-4,4.14,
,,,3.2E-4,4.14,
,,,3.28E-4,4.14,
,,,3.36E-4,4.14,
,,,3.44E-4,4.14,
,,,3.52E-4,4.14,
,,,3.6E-4,4.14,
,,,3.68E-4,4.14,
,,,3.76E-4,4.18,
,,,3.84E-4,4.1,
,,,3.92E-4,4.14,
,,,4.0E-4,4.1,
,,,4.08E-4,4.14,
,,,4.16E-4,4.14,
,,,4.24E-4,4.14,
,,,4.32E-4,4.18,
,,,4.4E-4,4.18,
,,,4.48E-4,4.18,
,,,4.56E-4,4.1,
,,,4.64E-4,4.1,
,,,4.7199999E-4,4.22,
,,,4.8E-4,4.14,
,,,4.88E-4,4.14,
,,,4.96E-4,4.14,
,,,5.04E-4,4.14,
,,,5.12E-4,4.14,
,,,5.2E-4,4.14,
,,,5.28E-4,4.18,
,,,5.36E-4,4.14,
,,,5.44E-4,4.14,
,,,5.52E-4,4.14,
,,,5.6E-4,4.14,
,,,5.68E-4,4.18,
,,,5.76E-4,4.14,
,,,5.84E-4,4.18,
,,,5.92E-4,4.14,
,,,5.9999997E-4,4.14,
,,,6.08E-4,4.14,
,,,6.16E-4,4.14,
,,,6.24E-4,4.14,
,,,6.32E-4,4.14,
,,,6.4E-4,4.14,
,,,6.48E-4,4.14,
,,,6.56E-4,4.06,
,,,6.64E-4,4.14,
,,,6.72E-4,4.14,
,,,6.8E-4,4.14,
,,,6.88E-4,4.14,
,,,6.96E-4,4.14,
,,,7.04E-4,4.14,
,,,7.12E-4,4.14,
,,,7.2E-4,4.14,
,,,7.28E-4,4.14,
,,,7.36E-4,4.14,
,,,7.44E-4,4.14,
,,,7.52E-4,4.14,
,,,7.6E-4,4.14,
,,,7.68E-4,4.14,
,,,7.76E-4,4.14,
,,,7.84E-4,4.14,
,,,7.92E-4,4.14,
,,,8.0E-4,4.14,
,,,8.08E-4,4.14,
,,,8.16E-4,4.14,
,,,8.24E-4,4.14,
,,,8.32E-4,4.18,
,,,8.4E-4,4.14,
,,,8.48E-4,4.14,
,,,8.56E-4,4.14,
,,,8.64E-4,4.14,
,,,8.72E-4,4.18,
,,,8.8E-4,4.14,
,,,8.88E-4,4.14,
,,,8.96E-4,4.14,
,,,9.04E-4,4.18,
,,,9.12E-4,4.14,
,,,9.2E-4,4.14,
,,,9.28E-4,4.18,
,,,9.36E-4,4.18,
,,,9.4399997E-4,4.14,
,,,9.52E-4,4.14,
,,,9.6E-4,4.14,
,,,9.68E-4,4.14,
,,,9.76E-4,4.14,
,,,9.84E-4,4.14,
,,,9.92E-4,4.14,
,,,0.001,4.14,
,,,0.001008,4.14,
,,,0.001016,4.14,
,,,0.001024,4.18,
,,,0.001032,4.18,
,,,0.00104,4.14,
,,,0.001048,4.18,
,,,0.001056,4.14,
,,,0.001064,4.18,
,,,0.001072,4.14,
,,,0.00108,4.18,
,,,0.001088,4.18,
,,,0.001096,4.18,
,,,0.001104,4.22,
,,,0.001112,4.06,
,,,0.00112,4.18,
,,,0.001128,3.98,
,,,0.001136,4.18,
,,,0.001144,4.2999997,
,,,0.001152,4.1,
,,,0.00116,4.14,
,,,0.001168,4.14,
,,,0.001176,4.14,
,,,0.001184,4.14,
,,,0.001192,4.14,
,,,0.0011999999,4.14,
,,,0.001208,4.14,
,,,0.001216,4.14,
,,,0.001224,4.18,
,,,0.001232,4.14,
,,,0.00124,4.14,
,,,0.001248,4.14,
,,,0.001256,4.18,
,,,0.001264,4.14,
,,,0.001272,4.14,
,,,0.00128,4.14,
,,,0.001288,4.14,
,,,0.001296,4.14,
,,,0.001304,4.14,
,,,0.001312,4.14,
,,,0.00132,4.14,
,,,0.001328,4.14,
,,,0.001336,4.14,
,,,0.001344,4.14,
,,,0.001352,4.14,
,,,0.00136,4.14,
,,,0.0013679999,4.14,
,,,0.001376,4.18,
,,,0.001384,4.14,
,,,0.001392,4.14,
,,,0.0014,4.14,
,,,0.001408,4.14,
,,,0.001416,4.14,
,,,0.001424,4.14,
,,,0.001432,4.14,
,,,0.00144,4.18,
,,,0.001448,4.14,
,,,0.001456,4.14,
,,,0.001464,4.14,
,,,0.001472,4.06,
,,,0.00148,4.14,
,,,0.001488,4.14,
,,,0.001496,4.14,
,,,0.001504,4.14,
,,,0.001512,4.1,
,,,0.00152,4.14,
,,,0.001528,4.14,
,,,0.001536,4.14,
,,,0.001544,4.14,
,,,0.001552,4.14,
,,,0.00156,4.14,
,,,0.001568,4.14,
,,,0.001576,4.14,
,,,0.001584,4.18,
,,,0.001592,4.14,
,,,0.0016,4.14,
,,,0.001608,4.14,
,,,0.001616,4.14,
,,,0.001624,4.14,
,,,0.001632,4.14,
,,,0.00164,4.14,
,,,0.001648,4.14,
,,,0.001656,4.14,
,,,0.001664,4.14,
,,,0.001672,4.14,
,,,0.00168,4.14,
,,,0.001688,4.14,
,,,0.001696,4.14,
,,,0.001704,4.14,
,,,0.001712,4.18,
,,,0.00172,4.18,
,,,0.001728,4.14,
,,,0.001736,4.18,
,,,0.001744,4.14,
,,,0.001752,4.18,
,,,0.00176,4.06,
,,,0.001768,4.14,
,,,0.001776,4.02,
,,,0.001784,4.14,
,,,0.001792,4.1,
,,,0.0018,4.18,
,,,0.001808,4.18,
,,,0.001816,4.22,
,,,0.001824,3.98,
,,,0.001832,4.14,
,,,0.00184,4.14,
,,,0.001848,4.14,
,,,0.001856,4.14,
,,,0.001864,4.14,
,,,0.001872,4.14,
,,,0.00188,4.14,
,,,0.0018879999,4.14,
,,,0.001896,4.14,
,,,0.001904,4.14,
,,,0.001912,4.18,
,,,0.00192,4.14,
,,,0.001928,4.14,
,,,0.001936,4.18,
,,,0.001944,4.14,
,,,0.001952,4.14,
,,,0.00196,4.14,
,,,0.001968,4.14,
,,,0.001976,4.14,
,,,0.001984,4.14,
,,,0.001992,4.14,
,,,0.002,4.14,
,,,0.002008,4.14,
,,,0.002016,4.14,
,,,0.002024,4.14,
,,,0.002032,4.14,
,,,0.00204,4.02,
,,,0.002048,4.14,
,,,0.002056,4.14,
,,,0.002064,4.14,
,,,0.002072,4.14,
,,,0.00208,4.14,
,,,0.002088,4.14,
,,,0.002096,4.14,
,,,0.002104,4.14,
,,,0.002112,4.14,
,,,0.00212,4.14,
,,,0.002128,4.14,
,,,0.002136,4.14,
,,,0.002144,4.14,
,,,0.002152,4.14,
,,,0.00216,4.14,
,,,0.002168,4.14,
,,,0.002176,4.14,
,,,0.002184,4.18,
,,,0.002192,4.14,
,,,0.0022,4.14,
,,,0.002208,4.14,
,,,0.002216,4.14,
,,,0.002224,4.14,
,,,0.002232,4.14,
,,,0.00224,4.14,
,,,0.002248,4.14,
,,,0.002256,4.18,
,,,0.002264,4.14,
,,,0.002272,4.14,
,,,0.00228,4.14,
,,,0.002288,4.1,
,,,0.002296,4.18,
,,,0.002304,4.14,
,,,0.002312,4.14,
,,,0.00232,4.14,
,,,0.002328,4.14,
,,,0.002336,4.14,
,,,0.002344,4.14,
,,,0.002352,4.14,
,,,0.00236,4.18,
,,,0.002368,4.14,
,,,0.002376,4.14,
,,,0.002384,4.14,
,,,0.002392,4.14,
,,,0.0023999999,4.18,
,,,0.002408,4.1,
,,,0.002416,4.18,
,,,0.002424,4.1,
,,,0.002432,4.14,
,,,0.00244,4.18,
,,,0.002448,4.1,
,,,0.002456,4.22,
,,,0.002464,4.18,
,,,0.002472,4.22,
,,,0.00248,4.18,
,,,0.002488,4.1,
,,,0.002496,4.22,
,,,0.002504,4.14,
,,,0.002512,4.18,
,,,0.00252,4.14,
,,,0.002528,4.1,
,,,0.002536,4.14,
,,,0.002544,4.14,
,,,0.002552,4.14,
,,,0.00256,4.14,
,,,0.002568,4.14,
,,,0.002576,4.14,
,,,0.002584,4.14,
,,,0.002592,4.14,
,,,0.0026,4.14,
,,,0.002608,4.02,
,,,0.002616,4.14,
,,,0.002624,4.18,
,,,0.002632,4.14,
,,,0.00264,4.14,
,,,0.002648,4.18,
,,,0.002656,4.14,
,,,0.002664,4.14,
,,,0.002672,4.14,
,,,0.00268,4.14,
,,,0.002688,4.14,
,,,0.002696,4.18,
,,,0.002704,4.14,
,,,0.002712,4.14,
,,,0.00272,4.14,
,,,0.002728,4.14,
,,,0.0027359999,4.14,
,,,0.002744,4.14,
,,,0.002752,4.18,
,,,0.00276,4.14,
,,,0.002768,4.14,
,,,0.002776,4.14,
,,,0.002784,4.14,
,,,0.002792,4.14,
,,,0.0028,4.18,
,,,0.002808,4.14,
,,,0.002816,4.14,
,,,0.002824,4.14,
,,,0.002832,4.14,
,,,0.00284,4.14,
,,,0.002848,4.14,
,,,0.002856,4.1,
,,,0.002864,4.14,
,,,0.002872,4.14,
,,,0.00288,4.14,
,,,0.002888,4.14,
,,,0.002896,4.06,
,,,0.002904,4.14,
,,,0.002912,4.14,
,,,0.0029199999,4.14,
,,,0.002928,4.14,
,,,0.002936,4.14,
,,,0.002944,4.14,
,,,0.002952,4.14,
,,,0.00296,4.14,
,,,0.002968,4.14,
,,,0.002976,4.18,
,,,0.002984,4.14,
,,,0.002992,4.14,
,,,0.003,4.14,
,,,0.003008,4.14,
,,,0.003016,4.14,
,,,0.003024,4.14,
,,,0.003032,4.14,
,,,0.00304,4.14,
,,,0.003048,4.14,
,,,0.003056,4.14,
,,,0.003064,4.18,
,,,0.003072,4.14,
,,,0.00308,4.14,
,,,0.003088,4.18,
,,,0.003096,4.14,
,,,0.003104,4.18,
,,,0.003112,4.14,
,,,0.00312,4.18,
,,,0.003128,4.14,
,,,0.003136,4.18,
,,,0.003144,4.1,
,,,0.003152,4.22,
,,,0.00316,4.18,
,,,0.003168,4.18,
,,,0.003176,4.22,
,,,0.003184,4.18,
,,,0.003192,4.14,
,,,0.0032,4.14,
,,,0.003208,4.14,
,,,0.003216,4.18,
,,,0.003224,4.14,
,,,0.003232,4.14,
,,,0.00324,4.14,
,,,0.003248,4.14,
,,,0.0032559999,4.14,
,,,0.003264,4.14,
,,,0.003272,4.14,
,,,0.00328,4.14,
,,,0.003288,4.14,
,,,0.003296,4.18,
,,,0.003304,4.14,
,,,0.003312,4.14,
,,,0.00332,4.14,
,,,0.003328,4.14,
,,,0.003336,4.14,
,,,0.003344,4.14,
,,,0.003352,4.18,
,,,0.00336,4.14,
,,,0.003368,4.14,
,,,0.003376,4.14,
,,,0.003384,4.14,
,,,0.003392,4.14,
,,,0.0034,4.14,
,,,0.003408,4.14,
,,,0.003416,4.14,
,,,0.003424,4.1,
,,,0.003432,4.14,
,,,0.00344,4.14,
,,,0.003448,4.14,
,,,0.003456,4.18,
,,,0.003464,4.14,
,,,0.003472,4.14,
,,,0.00348,4.14,
,,,0.003488,4.14,
,,,0.003496,4.14,
,,,0.003504,4.14,
,,,0.003512,4.14,
,,,0.00352,4.14,
,,,0.003528,4.14,
,,,0.003536,4.14,
,,,0.003544,4.14,
,,,0.003552,4.14,
,,,0.00356,4.18,
,,,0.003568,4.14,
,,,0.003576,4.14,
,,,0.003584,4.14,
,,,0.0035919999,4.14,
,,,0.0036,4.18,
,,,0.003608,4.14,
,,,0.003616,4.14,
,,,0.003624,4.14,
,,,0.003632,4.14,
,,,0.00364,4.14,
,,,0.003648,4.14,
,,,0.003656,4.18,
,,,0.003664,4.14,
,,,0.003672,4.14,
,,,0.00368,4.14,
,,,0.003688,4.14,
,,,0.003696,4.14,
,,,0.003704,4.14,
,,,0.003712,4.14,
,,,0.00372,4.14,
,,,0.003728,4.14,
,,,0.003736,4.14,
,,,0.003744,4.06,
,,,0.003752,4.14,
,,,0.00376,4.14,
,,,0.003768,4.14,
,,,0.0037759999,4.14,
,,,0.003784,4.06,
,,,0.003792,4.1,
,,,0.0038,4.06,
,,,0.003808,4.1,
,,,0.003816,4.1,
,,,0.003824,4.14,
,,,0.003832,3.98,
,,,0.00384,4.06,
,,,0.003848,4.2599998,
,,,0.003856,4.18,
,,,0.003864,4.14,
,,,0.003872,4.14,
,,,0.00388,4.14,
,,,0.003888,4.14,
,,,0.003896,4.14,
,,,0.003904,4.14,
,,,0.003912,4.14,
,,,0.00392,4.18,
,,,0.003928,4.14,
,,,0.003936,4.14,
,,,0.0039439998,4.14,
,,,0.003952,4.14,
,,,0.00396,4.14,
,,,0.003968,4.14,
,,,0.003976,4.14,
,,,0.003984,4.14,
,,,0.003992,4.22,
,,,0.004,4.14,
,,,0.004008,4.14,
,,,0.004016,4.14,
,,,0.004024,4.14,
,,,0.004032,4.06,
,,,0.00404,4.14,
,,,0.004048,4.18,
,,,0.004056,4.14,
,,,0.004064,4.14,
,,,0.004072,4.14,
,,,0.00408,4.14,
,,,0.004088,4.14,
,,,0.004096,4.14,
,,,0.004104,4.14,
,,,0.004112,4.14,
,,,0.00412,4.14,
,,,0.004128,4.14,
,,,0.004136,4.14,
,,,0.004144,4.14,
,,,0.004152,4.14,
,,,0.00416,4.14,
,,,0.004168,4.14,
,,,0.004176,4.14,
,,,0.004184,4.14,
,,,0.004192,4.14,
,,,0.0042,4.14,
,,,0.004208,4.14,
,,,0.004216,4.14,
,,,0.004224,4.14,
,,,0.004232,4.14,
,,,0.00424,4.1,
,,,0.004248,4.14,
,,,0.004256,4.14,
,,,0.004264,4.14,
,,,0.004272,4.14,
,,,0.00428,4.14,
,,,0.004288,4.14,
,,,0.004296,4.14,
,,,0.004304,4.14,
,,,0.004312,4.22,
,,,0.00432,4.14,
,,,0.004328,4.14,
,,,0.004336,4.14,
,,,0.004344,4.14,
,,,0.004352,4.14,
,,,0.00436,4.14,
,,,0.004368,4.14,
,,,0.004376,4.14,
,,,0.004384,4.14,
,,,0.004392,4.18,
,,,0.0044,4.14,
,,,0.004408,4.14,
,,,0.004416,4.14,
,,,0.004424,4.14,
,,,0.004432,4.14,
,,,0.00444,4.14,
,,,0.004448,4.1,
,,,0.004456,4.18,
,,,0.004464,4.18,
,,,0.004472,4.14,
,,,0.00448,4.22,
,,,0.004488,4.18,
,,,0.004496,4.18,
,,,0.004504,4.1,
,,,0.004512,4.14,
,,,0.00452,4.22,
,,,0.004528,4.14,
,,,0.004536,4.14,
,,,0.004544,4.14,
,,,0.004552,4.14,
,,,0.00456,4.22,
,,,0.004568,4.14,
,,,0.004576,4.14,
,,,0.004584,4.14,
,,,0.004592,4.14,
,,,0.0046,4.22,
,,,0.004608,4.14,
,,,0.0046159998,4.14,
,,,0.004624,4.14,
,,,0.004632,4.14,
,,,0.00464,4.14,
,,,0.004648,4.14,
,,,0.004656,4.14,
,,,0.004664,4.14,
,,,0.004672,4.14,
,,,0.00468,4.14,
,,,0.004688,4.14,
,,,0.004696,4.14,
,,,0.004704,4.14,
,,,0.004712,4.14,
,,,0.00472,4.14,
,,,0.004728,4.18,
,,,0.004736,4.14,
,,,0.004744,4.14,
,,,0.004752,4.14,
,,,0.00476,4.14,
,,,0.004768,4.14,
,,,0.004776,4.14,
,,,0.004784,4.14,
,,,0.004792,4.14,
,,,0.0047999998,4.14,
,,,0.004808,4.06,
,,,0.004816,4.14,
,,,0.004824,4.14,
,,,0.004832,4.14,
,,,0.00484,4.14,
,,,0.004848,4.18,
,,,0.004856,4.18,
,,,0.004864,4.14,
,,,0.004872,4.18,
,,,0.00488,4.18,
,,,0.004888,4.14,
,,,0.004896,4.14,
,,,0.004904,4.14,
,,,0.004912,4.14,
,,,0.00492,4.14,
,,,0.004928,4.14,
,,,0.004936,4.14,
,,,0.004944,4.14,
,,,0.004952,4.14,
,,,0.00496,4.14,
,,,0.004968,4.14,
,,,0.004976,4.14,
,,,0.0049839998,4.18,
,,,0.004992,4.14,
,,,0.005,4.14,
,,,0.005008,4.14,
,,,0.005016,4.14,
,,,0.005024,4.14,
,,,0.005032,4.18,
,,,0.00504,4.14,
,,,0.005048,4.14,
,,,0.005056,4.14,
,,,0.005064,4.14,
,,,0.005072,4.14,
,,,0.00508,4.14,
,,,0.005088,4.14,
,,,0.005096,4.14,
,,,0.005104,4.14,
,,,0.005112,4.18,
,,,0.00512,4.14,
,,,0.005128,4.18,
,,,0.005136,4.14,
,,,0.005144,4.22,
,,,0.005152,4.18,
,,,0.00516,4.18,
,,,0.005168,4.18,
,,,0.005176,4.02,
,,,0.005184,4.18,
,,,0.005192,4.02,
,,,0.0052,4.22,
,,,0.005208,4.14,
,,,0.005216,4.14,
,,,0.005224,4.14,
,,,0.005232,4.14,
,,,0.00524,4.14,
,,,0.005248,4.14,
,,,0.005256,4.18,
,,,0.005264,4.14,
,,,0.005272,4.14,
,,,0.00528,4.14,
,,,0.005288,4.14,
,,,0.005296,4.14,
,,,0.005304,4.14,
,,,0.005312,4.14,
,,,0.00532,4.14,
,,,0.005328,4.14,
,,,0.005336,4.14,
,,,0.005344,4.14,
,,,0.005352,4.18,
,,,0.00536,4.18,
,,,0.005368,4.14,
,,,0.005376,4.1,
,,,0.005384,4.14,
,,,0.005392,4.14,
,,,0.0054,4.14,
,,,0.005408,4.14,
,,,0.005416,4.22,
,,,0.005424,4.14,
,,,0.005432,4.14,
,,,0.00544,4.14,
,,,0.005448,4.14,
,,,0.005456,4.14,
,,,0.005464,4.14,
,,,0.0054719998,4.14,
,,,0.00548,4.14,
,,,0.005488,4.14,
,,,0.005496,4.14,
,,,0.005504,4.14,
,,,0.005512,4.14,
,,,0.00552,4.14,
,,,0.005528,4.14,
,,,0.005536,4.14,
,,,0.005544,4.14,
,,,0.005552,4.14,
,,,0.00556,4.14,
,,,0.005568,4.14,
,,,0.005576,4.14,
,,,0.005584,4.14,
,,,0.005592,4.14,
,,,0.0056,4.14,
,,,0.005608,4.14,
,,,0.005616,4.14,
,,,0.005624,4.14,
,,,0.005632,4.14,
,,,0.00564,4.1,
,,,0.005648,4.14,
,,,0.0056559998,4.14,
,,,0.005664,4.14,
,,,0.005672,4.14,
,,,0.00568,4.14,
,,,0.005688,4.14,
,,,0.005696,4.06,
,,,0.005704,4.14,
,,,0.005712,4.18,
,,,0.00572,4.14,
,,,0.005728,4.14,
,,,0.005736,4.1,
,,,0.005744,4.14,
,,,0.005752,4.14,
,,,0.00576,4.14,
,,,0.005768,4.14,
,,,0.005776,4.14,
,,,0.005784,4.14,
,,,0.005792,4.14,
,,,0.0058,4.14,
,,,0.005808,4.1,
,,,0.005816,4.14,
,,,0.005824,4.1,
,,,0.005832,4.14,
,,,0.0058399998,4.1,
,,,0.005848,4.22,
,,,0.005856,4.22,
,,,0.005864,4.14,
,,,0.005872,4.22,
,,,0.00588,4.14,
,,,0.005888,4.14,
,,,0.005896,4.14,
,,,0.005904,4.14,
,,,0.005912,4.14,
,,,0.00592,4.14,
,,,0.005928,4.14,
,,,0.005936,4.14,
,,,0.005944,4.18,
,,,0.005952,4.14,
,,,0.00596,4.14,
,,,0.005968,4.14,
,,,0.005976,4.14,
,,,0.005984,4.06,
,,,0.005992,4.14,
,,,0.006,4.18,
,,,0.006008,4.14,
,,,0.006016,4.14,
,,,0.006024,4.14,
,,,0.006032,4.18,
,,,0.00604,4.14,
,,,0.006048,4.14,
,,,0.006056,4.14,
,,,0.006064,4.14,
,,,0.006072,4.14,
,,,0.00608,4.14,
,,,0.006088,4.18,
,,,0.006096,4.14,
,,,0.006104,4.14,
,,,0.006112,4.14,
,,,0.00612,4.14,
,,,0.006128,4.14,
,,,0.006136,4.18,
,,,0.006144,4.14,
,,,0.006152,4.14,
,,,0.00616,4.18,
,,,0.006168,4.18,
,,,0.006176,4.14,
,,,0.006184,4.14,
,,,0.006192,4.1,
,,,0.0062,4.14,
,,,0.006208,4.14,
,,,0.006216,4.14,
,,,0.006224,4.14,
,,,0.006232,4.14,
,,,0.00624,4.14,
,,,0.006248,4.14,
,,,0.006256,4.14,
,,,0.006264,4.06,
,,,0.006272,4.14,
,,,0.00628,4.14,
,,,0.006288,4.14,
,,,0.006296,4.14,
,,,0.006304,4.14,
,,,0.006312,4.14,
,,,0.00632,4.14,
,,,0.0063279998,4.14,
,,,0.006336,4.14,
,,,0.006344,4.18,
,,,0.006352,4.14,
,,,0.00636,4.14,
,,,0.006368,4.14,
,,,0.006376,4.14,
,,,0.006384,4.18,
,,,0.006392,4.14,
,,,0.0064,4.14,
,,,0.006408,4.14,
,,,0.006416,4.14,
,,,0.006424,4.14,
,,,0.006432,4.14,
,,,0.00644,4.14,
,,,0.006448,4.14,
,,,0.006456,4.14,
,,,0.006464,4.14,
,,,0.006472,4.14,
,,,0.00648,4.14,
,,,0.006488,4.18,
,,,0.006496,4.18,
,,,0.006504,4.22,
,,,0.0065119998,4.14,
,,,0.00652,4.18,
,,,0.006528,4.18,
,,,0.006536,4.18,
,,,0.006544,4.22,
,,,0.006552,4.22,
,,,0.00656,4.14,
,,,0.006568,4.14,
,,,0.006576,4.14,
,,,0.006584,4.18,
,,,0.006592,4.14,
,,,0.0066,4.14,
,,,0.006608,4.14,
,,,0.006616,4.14,
,,,0.006624,4.14,
,,,0.006632,4.14,
,,,0.00664,4.18,
,,,0.006648,4.14,
,,,0.006656,4.14,
,,,0.006664,4.14,
,,,0.006672,4.14,
,,,0.00668,4.14,
,,,0.006688,4.14,
,,,0.0066959998,4.14,
,,,0.006704,4.14,
,,,0.006712,4.14,
,,,0.00672,4.14,
,,,0.006728,4.14,
,,,0.006736,4.14,
,,,0.006744,4.14,
,,,0.006752,4.14,
,,,0.00676,4.1,
,,,0.006768,4.14,
,,,0.006776,4.14,
,,,0.006784,4.14,
,,,0.006792,4.14,
,,,0.0068,4.14,
,,,0.006808,4.18,
,,,0.006816,4.14,
,,,0.006824,4.14,
,,,0.006832,4.02,
,,,0.00684,4.14,
,,,0.006848,4.14,
,,,0.006856,4.14,
,,,0.006864,4.18,
,,,0.006872,4.14,
,,,0.00688,4.14,
,,,0.006888,4.18,
,,,0.006896,4.14,
,,,0.006904,4.14,
,,,0.006912,4.18,
,,,0.00692,4.14,
,,,0.006928,4.14,
,,,0.006936,4.14,
,,,0.006944,4.14,
,,,0.006952,4.14,
,,,0.00696,4.14,
,,,0.006968,4.14,
,,,0.006976,4.14,
,,,0.006984,4.18,
,,,0.006992,4.14,
,,,0.0069999998,4.14,
,,,0.007008,4.14,
,,,0.007016,4.14,
,,,0.007024,4.14,
,,,0.007032,4.14,
,,,0.00704,4.14,
,,,0.007048,4.18,
,,,0.007056,4.14,
,,,0.007064,4.14,
,,,0.007072,4.14,
,,,0.00708,4.14,
,,,0.007088,4.14,
,,,0.007096,4.14,
,,,0.007104,4.18,
,,,0.007112,4.14,
,,,0.00712,4.22,
,,,0.007128,4.14,
,,,0.007136,4.18,
,,,0.007144,4.14,
,,,0.007152,4.18,
,,,0.00716,4.14,
,,,0.007168,4.18,
,,,0.007176,4.06,
,,,0.0071839998,4.14,
,,,0.007192,4.18,
,,,0.0072,4.22,
,,,0.007208,4.18,
,,,0.007216,4.1,
,,,0.007224,4.22,
,,,0.007232,4.14,
,,,0.00724,4.14,
,,,0.007248,4.14,
,,,0.007256,4.14,
,,,0.007264,4.14,
,,,0.007272,4.14,
,,,0.00728,4.14,
,,,0.007288,4.14,
,,,0.007296,4.14,
,,,0.007304,4.14,
,,,0.007312,4.14,
,,,0.00732,4.14,
,,,0.007328,4.18,
,,,0.007336,4.14,
,,,0.007344,4.14,
,,,0.007352,4.14,
,,,0.00736,4.14,
,,,0.0073679998,4.18,
,,,0.007376,4.14,
,,,0.007384,4.14,
,,,0.007392,4.18,
,,,0.0074,4.18,
,,,0.007408,4.14,
,,,0.007416,4.14,
,,,0.007424,4.14,
,,,0.007432,4.14,
,,,0.00744,4.14,
,,,0.007448,4.14,
,,,0.007456,4.14,
,,,0.007464,4.14,
,,,0.007472,4.14,
,,,0.00748,4.18,
,,,0.007488,4.14,
,,,0.007496,4.14,
,,,0.007504,4.14,
,,,0.007512,4.14,
,,,0.00752,4.14,
,,,0.007528,4.14,
,,,0.007536,4.18,
,,,0.007544,4.14,
,,,0.0075519998,4.14,
,,,0.00756,4.14,
,,,0.007568,4.18,
,,,0.007576,4.14,
,,,0.007584,4.14,
,,,0.007592,4.14,
,,,0.0076,4.14,
,,,0.007608,4.14,
,,,0.007616,4.18,
,,,0.007624,4.18,
,,,0.007632,4.14,
,,,0.00764,4.14,
,,,0.007648,4.18,
,,,0.007656,4.14,
,,,0.007664,4.18,
,,,0.007672,4.14,
,,,0.00768,4.18,
,,,0.007688,4.14,
,,,0.007696,4.14,
,,,0.007704,4.14,
,,,0.007712,4.14,
,,,0.00772,4.18,
,,,0.007728,4.14,
,,,0.0077359998,4.14,
,,,0.007744,4.1,
,,,0.007752,4.14,
,,,0.00776,4.18,
,,,0.007768,4.14,
,,,0.007776,4.14,
,,,0.007784,4.14,
,,,0.007792,4.14,
,,,0.0078,4.14,
,,,0.007808,4.14,
,,,0.007816,4.14,
,,,0.007824,4.1,
,,,0.007832,4.1,
,,,0.00784,4.14,
,,,0.007848,4.02,
,,,0.007856,4.14,
,,,0.007864,4.14,
,,,0.007872,4.14,
,,,0.00788,3.98,
,,,0.0078879995,4.14,
,,,0.007896,4.2599998,
,,,0.007904,4.14,
,,,0.007912,4.14,
,,,0.00792,4.1,
,,,0.007928,4.14,
,,,0.007936,4.18,
,,,0.007944,4.14,
,,,0.007952,4.14,
,,,0.00796,4.14,
,,,0.007968,4.14,
,,,0.007976,4.18,
,,,0.007984,4.14,
,,,0.007992,4.14,
,,,0.008,4.14,
,,,0.008008,4.14,
,,,0.008016,4.14,
,,,0.008024,4.14,
,,,0.008032,4.14,
,,,0.00804,4.1,
,,,0.008048,4.14,
,,,0.008056,4.18,
,,,0.008064,4.14,
,,,0.008072,4.18,
,,,0.00808,4.1,
,,,0.008088,4.14,
,,,0.008096,4.14,
,,,0.008104,4.18,
,,,0.008112,4.18,
,,,0.00812,4.14,
,,,0.008128,4.14,
,,,0.008136,4.14,
,,,0.008144,4.14,
,,,0.008152,4.18,
,,,0.00816,4.18,
,,,0.008168,4.14,
,,,0.008176,4.14,
,,,0.008184,4.14,
,,,0.008192,4.18,
,,,0.0082,4.14,
,,,0.008208,4.14,
,,,0.008216,4.14,
,,,0.008224,4.14,
,,,0.008232,4.14,
,,,0.00824,4.14,
,,,0.008248,4.14,
,,,0.008256,4.06,
,,,0.008264,4.14,
,,,0.008272,4.14,
,,,0.00828,4.14,
,,,0.008288,4.18,
,,,0.008296,4.14,
,,,0.008304,4.14,
,,,0.008312,4.1,
,,,0.00832,4.14,
,,,0.008328,4.18,
,,,0.008336,4.14,
,,,0.008344,4.14,
,,,0.008352,4.1,
,,,0.00836,4.14,
,,,0.008368,4.14,
,,,0.0083759995,4.14,
,,,0.008384,4.14,
,,,0.008392,4.14,
,,,0.0084,4.14,
,,,0.008408,4.18,
,,,0.008416,4.14,
,,,0.008424,4.14,
,,,0.008432,4.14,
,,,0.00844,4.14,
,,,0.008448,4.14,
,,,0.008456,4.14,
,,,0.008464,4.18,
,,,0.008472,4.14,
,,,0.00848,4.1,
,,,0.008488,4.14,
,,,0.008496,4.14,
,,,0.008504,4.14,
,,,0.008512,4.22,
,,,0.00852,4.18,
,,,0.008528,4.18,
,,,0.008536,4.22,
,,,0.008544,4.2999997,
,,,0.008552,3.9399998,
,,,0.00856,4.22,
,,,0.008568,4.14,
,,,0.008576,4.14,
,,,0.008584,4.18,
,,,0.008592,4.14,
,,,0.0086,4.14,
,,,0.008608,4.1,
,,,0.008616,4.14,
,,,0.008624,4.18,
,,,0.008632,4.14,
,,,0.00864,4.14,
,,,0.008648,4.14,
,,,0.008656,4.14,
,,,0.008664,4.14,
,,,0.008672,4.14,
,,,0.00868,4.18,
,,,0.008688,4.14,
,,,0.008696,4.14,
,,,0.008704,4.1,
,,,0.008712,4.14,
,,,0.00872,4.18,
,,,0.008728,4.14,
,,,0.008736,4.14,
,,,0.0087439995,4.1,
,,,0.008752,4.14,
,,,0.00876,4.14,
,,,0.008768,4.14,
,,,0.008776,4.14,
,,,0.008784,4.14,
,,,0.008792,4.14,
,,,0.0088,4.14,
,,,0.008808,4.14,
,,,0.008816,4.14,
,,,0.008824,4.14,
,,,0.008832,4.14,
,,,0.00884,4.14,
,,,0.008848,4.14,
,,,0.008856,4.18,
,,,0.008864,4.14,
,,,0.008872,4.14,
,,,0.00888,4.14,
,,,0.008888,4.14,
,,,0.008896,4.18,
,,,0.008904,4.14,
