measurements/Scope_P14Pro_Startup_PWM_input.csv

ProID,Info,,time,Value,
GenTime,2009-08-31 20:12:19,,0.0,4.02,
Record Length,100000 Points,,2.8E-5,4.02,
Sample Interval,2.7999999999999996E-5 s,,5.6E-5,4.06,
Trigger Time,2.18 s,,8.4E-5,4.02,
Source,CH2,,1.12E-4,4.02,
Vertical Units,(V)/grid,,1.4E-4,4.02,
Vertical Scale,1.0,,1.68E-4,4.02,
Vertical Offset,0,,1.9600001E-4,4.02,
Horizontal Units,s/grid,,2.24E-4,4.02,
Horizontal Scale,0.2,,2.52E-4,4.02,
Probe Atten,10.0,,2.8E-4,3.98,
,,,3.0800002E-4,3.98,
,,,3.36E-4,4.02,
,,,3.64E-4,4.02,
,,,3.9200002E-4,3.8999999,
,,,4.2E-4,4.02,
,,,4.48E-4,4.02,
,,,4.7600002E-4,4.02,
,,,5.04E-4,4.02,
,,,5.3200003E-4,4.06,
,,,5.6E-4,4.06,
,,,5.88E-4,3.98,
,,,6.1600003E-4,4.02,
,,,6.44E-4,4.06,
,,,6.72E-4,4.06,
,,,7.0000003E-4,4.18,
,,,7.28E-4,4.02,
,,,7.56E-4,3.98,
,,,7.8400003E-4,4.02,
,,,8.12E-4,4.02,
,,,8.4E-4,4.02,
,,,8.6800003E-4,4.06,
,,,8.96E-4,4.06,
,,,9.24E-4,4.02,
,,,9.5200003E-4,4.06,
,,,9.8E-4,4.02,
,,,0.001008,4.02,
,,,0.001036,4.02,
,,,0.0010640001,4.02,
,,,0.001092,4.06,
,,,0.00112,4.06,
,,,0.001148,4.02,
,,,0.001176,4.06,
,,,0.001204,4.02,
,,,0.0012320001,4.02,
,,,0.00126,4.02,
,,,0.001288,4.06,
,,,0.001316,4.02,
,,,0.001344,3.86,
,,,0.001372,4.02,
,,,0.0014000001,4.02,
,,,0.001428,4.06,
,,,0.001456,4.02,
,,,0.001484,4.02,
,,,0.001512,4.02,
,,,0.00154,4.02,
,,,0.0015680001,4.06,
,,,0.001596,4.14,
,,,0.001624,4.02,
,,,0.001652,3.9399998,
,,,0.00168,4.02,
,,,0.001708,3.98,
,,,0.0017360001,4.02,
,,,0.001764,4.02,
,,,0.001792,4.06,
,,,0.00182,4.02,
,,,0.001848,4.02,
,,,0.0018760001,4.02,
,,,0.0019040001,4.06,
,,,0.001932,4.02,
,,,0.00196,4.02,
,,,0.001988,4.02,
,,,0.002016,4.02,
,,,0.002044,4.02,
,,,0.002072,4.06,
,,,0.0021,4.02,
,,,0.0021280001,4.02,
,,,0.0021560001,4.02,
,,,0.002184,4.06,
,,,0.002212,4.02,
,,,0.00224,4.06,
,,,0.002268,4.02,
,,,0.002296,4.02,
,,,0.002324,4.06,
,,,0.002352,4.02,
,,,0.00238,4.02,
,,,0.002408,4.06,
,,,0.002436,4.02,
,,,0.0024640001,4.02,
,,,0.002492,4.1,
,,,0.00252,4.06,
,,,0.002548,4.02,
,,,0.002576,4.02,
,,,0.002604,4.02,
,,,0.002632,4.02,
,,,0.00266,4.06,
,,,0.002688,4.02,
,,,0.002716,4.02,
,,,0.002744,4.02,
,,,0.0027720002,4.02,
,,,0.0028000001,4.06,
,,,0.002828,4.02,
,,,0.002856,4.02,
,,,0.002884,4.02,
,,,0.002912,3.9399998,
,,,0.00294,4.02,
,,,0.002968,4.02,
,,,0.002996,4.02,
,,,0.003024,4.02,
,,,0.003052,4.02,
,,,0.00308,4.02,
,,,0.0031080001,4.06,
,,,0.0031360001,4.02,
,,,0.003164,4.06,
,,,0.003192,4.02,
,,,0.00322,4.02,
,,,0.003248,4.02,
,,,0.003276,4.02,
,,,0.003304,4.02,
,,,0.003332,4.06,
,,,0.00336,4.02,
,,,0.003388,3.98,
,,,0.003416,3.9399998,
,,,0.0034440001,4.02,
,,,0.0034720001,4.02,
,,,0.0035,4.02,
,,,0.003528,4.02,
,,,0.003556,4.02,
,,,0.003584,4.02,
,,,0.003612,4.06,
,,,0.00364,4.06,
,,,0.003668,4.06,
,,,0.003696,4.02,
,,,0.003724,4.06,
,,,0.0037520002,4.06,
,,,0.0037800001,4.06,
,,,0.0038080001,4.06,
,,,0.003836,4.06,
,,,0.003864,4.2599998,
,,,0.003892,4.02,
,,,0.00392,4.02,
,,,0.0039480003,4.06,
,,,0.003976,4.02,
,,,0.004004,4.06,
,,,0.004032,4.02,
,,,0.00406,4.02,
,,,0.004088,4.06,
,,,0.004116,4.02,
,,,0.004144,4.06,
,,,0.004172,4.02,
,,,0.0042,4.02,
,,,0.004228,4.02,
,,,0.0042560003,4.06,
,,,0.004284,3.9399998,
,,,0.0043120002,4.02,
,,,0.00434,4.02,
,,,0.004368,4.02,
,,,0.004396,4.02,
,,,0.004424,4.02,
,,,0.004452,3.86,
,,,0.00448,4.02,
,,,0.004508,4.02,
,,,0.004536,4.06,
,,,0.0045640003,4.06,
,,,0.004592,4.02,
,,,0.0046200003,4.02,
,,,0.004648,4.06,
,,,0.004676,4.02,
,,,0.004704,4.02,
,,,0.004732,4.06,
,,,0.00476,4.02,
,,,0.004788,4.06,
,,,0.004816,4.02,
,,,0.004844,4.06,
,,,0.004872,4.06,
,,,0.0049,4.02,
,,,0.0049280003,4.02,
,,,0.004956,4.02,
,,,0.004984,4.02,
,,,0.005012,4.02,
,,,0.00504,4.02,
,,,0.005068,4.02,
,,,0.005096,4.06,
,,,0.005124,4.1,
,,,0.005152,4.02,
,,,0.00518,4.02,
,,,0.005208,4.02,
,,,0.0052360003,4.02,
,,,0.005264,4.02,
,,,0.0052920002,4.02,
,,,0.00532,4.06,
,,,0.005348,4.02,
,,,0.005376,4.06,
,,,0.005404,4.06,
,,,0.005432,4.06,
,,,0.00546,4.02,
,,,0.005488,3.9399998,
,,,0.005516,4.02,
,,,0.0055440003,4.02,
,,,0.005572,4.02,
,,,0.0056000003,4.06,
,,,0.005628,4.02,
,,,0.005656,4.1,
,,,0.005684,4.02,
,,,0.005712,4.06,
,,,0.00574,4.06,
,,,0.005768,4.02,
,,,0.005796,4.02,
,,,0.005824,4.06,
,,,0.005852,4.02,
,,,0.00588,4.02,
,,,0.0059080003,4.02,
,,,0.005936,4.02,
,,,0.0059640002,4.02,
,,,0.005992,4.06,
,,,0.00602,4.02,
,,,0.006048,4.06,
,,,0.006076,3.98,
,,,0.006104,4.02,
,,,0.006132,4.06,
,,,0.00616,4.02,
,,,0.006188,4.02,
,,,0.0062160003,4.02,
,,,0.006244,4.02,
,,,0.0062720003,4.02,
,,,0.0063,4.06,
,,,0.006328,4.02,
,,,0.006356,4.06,
,,,0.006384,4.02,
,,,0.006412,4.06,
,,,0.00644,4.06,
,,,0.006468,4.02,
,,,0.006496,4.14,
,,,0.0065240003,4.06,
,,,0.006552,3.86,
,,,0.0065800003,4.02,
,,,0.006608,4.02,
,,,0.0066360002,4.02,
,,,0.006664,4.02,
,,,0.006692,4.06,
,,,0.00672,4.02,
,,,0.006748,4.02,
,,,0.006776,4.06,
,,,0.006804,4.06,
,,,0.006832,4.02,
,,,0.00686,4.02,
,,,0.0068880003,3.98,
,,,0.006916,3.98,
,,,0.0069440003,4.06,
,,,0.006972,4.1,
,,,0.007,4.02,
,,,0.007028,4.02,
,,,0.007056,4.02,
,,,0.007084,4.02,
,,,0.007112,4.02,
,,,0.00714,4.02,
,,,0.007168,4.02,
,,,0.0071960003,4.06,
,,,0.007224,4.02,
,,,0.0072520003,4.06,
,,,0.00728,4.02,
,,,0.0073080002,4.02,
,,,0.007336,3.98,
,,,0.007364,4.02,
,,,0.007392,4.06,
,,,0.00742,4.02,
,,,0.007448,4.06,
,,,0.007476,4.06,
,,,0.0075040003,4.02,
,,,0.007532,4.02,
,,,0.0075600003,4.02,
,,,0.007588,4.06,
,,,0.0076160002,4.02,
,,,0.007644,4.06,
,,,0.007672,4.06,
,,,0.0077,4.02,
,,,0.007728,4.02,
,,,0.007756,4.06,
,,,0.007784,4.02,
,,,0.007812,3.98,
,,,0.00784,4.02,
,,,0.007868,4.1,
,,,0.0078960005,4.02,
,,,0.007924,3.98,
,,,0.007952,4.02,
,,,0.00798,4.06,
,,,0.008008,4.06,
,,,0.008036,4.02,
,,,0.008064,4.02,
,,,0.008092,4.02,
,,,0.00812,4.06,
,,,0.008148001,4.02,
,,,0.008176,4.06,
,,,0.008204,4.06,
,,,0.008232,4.02,
,,,0.0082600005,4.02,
,,,0.008288,4.06,
,,,0.008316,4.06,
,,,0.008344,4.06,
,,,0.008372,4.02,
,,,0.0084,4.02,
,,,0.008428,4.06,
,,,0.008456,4.06,
,,,0.008484,4.02,
,,,0.008512001,4.02,
,,,0.00854,4.06,
,,,0.008568,4.06,
,,,0.008596,4.02,
,,,0.0086240005,4.02,
,,,0.008652,4.02,
,,,0.00868,4.02,
,,,0.008708,3.8999999,
,,,0.008736,4.06,
,,,0.008764,4.1,
,,,0.008792,4.02,
,,,0.00882,4.06,
,,,0.008848,4.02,
,,,0.0088760005,4.02,
,,,0.008904,4.02,
,,,0.008932,4.06,
,,,0.00896,4.14,
,,,0.008988,4.02,
,,,0.009016,4.06,
,,,0.009044,4.06,
,,,0.009072,4.06,
,,,0.0091,4.06,
,,,0.009128001,4.14,
,,,0.009156,4.06,
,,,0.009184,4.02,
,,,0.009212,4.02,
,,,0.0092400005,4.06,
,,,0.009268,4.02,
,,,0.009296,4.02,
,,,0.009324,4.06,
,,,0.009352,4.02,
,,,0.00938,4.02,
,,,0.009408,4.02,
,,,0.009436,4.06,
,,,0.009464,4.02,
,,,0.009492001,4.02,
,,,0.00952,4.02,
,,,0.009548,4.06,
,,,0.009576,4.06,
,,,0.0096040005,4.14,
,,,0.009632,4.06,
,,,0.00966,4.18,
,,,0.009688,4.02,
,,,0.009716,4.06,
,,,0.009744,4.06,
,,,0.009772,4.06,
,,,0.0098,4.02,
,,,0.009828,4.02,
,,,0.009856001,4.06,
,,,0.009884,4.02,
,,,0.009912,4.06,
,,,0.00994,4.06,
,,,0.009968,4.02,
,,,0.009996,3.9399998,
,,,0.010024,4.06,
,,,0.010052,4.02,
,,,0.01008,3.98,
,,,0.010108001,4.02,
,,,0.010136,4.06,
,,,0.010164,4.02,
,,,0.010192,4.06,
,,,0.0102200005,4.06,
,,,0.010248,4.06,
,,,0.010276,4.06,
,,,0.010304,4.02,
,,,0.010332,4.02,
,,,0.01036,4.02,
,,,0.010388,4.06,
,,,0.010416,4.02,
,,,0.010444,4.06,
,,,0.010472001,4.02,
,,,0.0105,4.22,
,,,0.010528,4.06,
,,,0.010556,4.1,
,,,0.0105840005,4.02,
,,,0.010612,4.02,
,,,0.01064,4.06,
,,,0.010668,4.02,
,,,0.010696,4.02,
,,,0.010724,4.02,
,,,0.010752,4.06,
,,,0.01078,4.02,
,,,0.010808,4.06,
,,,0.010836001,4.06,
,,,0.010864,4.02,
,,,0.010892,4.02,
,,,0.01092,4.06,
,,,0.0109480005,4.1,
,,,0.010976,4.1,
,,,0.011004,4.02,
,,,0.011032,4.02,
,,,0.01106,4.06,
,,,0.011088001,4.06,
,,,0.011116,4.06,
,,,0.011144,4.02,
,,,0.011172,4.06,
,,,0.0112000005,4.02,
,,,0.011228,4.02,
,,,0.011256,4.02,
,,,0.011284,4.02,
,,,0.011312,3.98,
,,,0.01134,3.98,
,,,0.011368,4.02,
,,,0.011396,4.06,
,,,0.011424,4.02,
,,,0.011452001,4.02,
,,,0.01148,4.06,
,,,0.011508,4.02,
,,,0.011536,4.06,
,,,0.0115640005,4.02,
,,,0.011592,4.06,
,,,0.01162,4.02,
,,,0.011648,4.02,
,,,0.011676,4.02,
,,,0.011704,4.02,
,,,0.011732,4.06,
,,,0.01176,4.06,
,,,0.011788,4.02,
,,,0.011816001,4.02,
,,,0.011844,4.02,
,,,0.011872,4.06,
,,,0.0119,4.06,
,,,0.0119280005,4.02,
,,,0.011956,4.02,
,,,0.011984,3.98,
,,,0.012012,4.02,
,,,0.01204,4.02,
,,,0.012068001,4.02,
,,,0.012096,4.02,
,,,0.012124,4.02,
,,,0.012152,4.02,
,,,0.012180001,4.06,
,,,0.012208,4.06,
,,,0.012236,4.02,
,,,0.012264,4.02,
,,,0.012292,4.1,
,,,0.01232,4.02,
,,,0.012348,4.06,
,,,0.012376,4.06,
,,,0.012404,4.06,
,,,0.012432001,4.02,
,,,0.01246,4.02,
,,,0.012488,4.02,
,,,0.012516,4.02,
,,,0.0125440005,4.02,
,,,0.012572,4.02,
,,,0.0126,4.02,
,,,0.012628,4.06,
,,,0.012656,4.02,
,,,0.012684,4.02,
,,,0.012712,3.9399998,
,,,0.01274,4.02,
,,,0.012768,4.06,
,,,0.012796001,4.02,
,,,0.012824,4.02,
,,,0.012852,4.02,
,,,0.01288,4.06,
,,,0.0129080005,4.02,
,,,0.012936,4.02,
,,,0.012964,4.02,
,,,0.012992,4.06,
,,,0.01302,4.06,
,,,0.013048001,4.02,
,,,0.013076,4.06,
,,,0.013104,4.06,
,,,0.013132,4.06,
,,,0.013160001,4.02,
,,,0.013188,4.06,
,,,0.013216,4.02,
,,,0.013244,4.06,
,,,0.0132720005,4.06,
,,,0.0133,4.02,
,,,0.013328,4.02,
,,,0.013356,4.02,
,,,0.013384,4.02,
,,,0.013412001,4.06,
,,,0.01344,4.06,
,,,0.013468,4.02,
,,,0.013496,4.02,
,,,0.0135240005,4.02,
,,,0.013552,4.1,
,,,0.01358,4.06,
,,,0.013608,3.98,
,,,0.013636,4.02,
,,,0.013664,4.18,
,,,0.013692,4.06,
,,,0.01372,4.06,
,,,0.013748,4.02,
,,,0.013776001,4.02,
,,,0.013804,4.02,
,,,0.013832,4.06,
,,,0.01386,4.02,
,,,0.0138880005,4.02,
,,,0.013916,4.02,
,,,0.013944,4.06,
,,,0.013972,4.02,
,,,0.014,4.02,
,,,0.014028001,4.06,
,,,0.014056,3.9399998,
,,,0.014084,3.9399998,
,,,0.014112,4.02,
,,,0.014140001,3.98,
,,,0.014168,4.02,
,,,0.014196,4.02,
,,,0.014224,4.06,
,,,0.0142520005,4.06,
,,,0.01428,4.06,
,,,0.014308,4.02,
,,,0.014336,4.02,
,,,0.014364,4.02,
,,,0.014392001,4.02,
,,,0.01442,3.98,
,,,0.014448,4.02,
,,,0.014476,4.02,
,,,0.014504001,4.06,
,,,0.014532,4.02,
,,,0.01456,4.06,
,,,0.014588,4.02,
,,,0.0146160005,4.02,
,,,0.014644,4.06,
,,,0.014672,4.06,
,,,0.0147,4.02,
,,,0.014728,4.02,
,,,0.014756001,4.02,
,,,0.014784,4.02,
,,,0.014812,4.02,
,,,0.01484,4.06,
,,,0.0148680005,4.02,
,,,0.014896,4.02,
,,,0.014924,4.1,
,,,0.014952,4.02,
,,,0.01498,4.14,
,,,0.015008001,4.02,
,,,0.015036,4.02,
,,,0.015064,4.06,
,,,0.015092,4.18,
,,,0.015120001,4.06,
,,,0.015148,4.02,
,,,0.015176,4.02,
,,,0.015204,4.02,
,,,0.0152320005,4.02,
,,,0.01526,4.06,
,,,0.015288,4.02,
,,,0.015316,4.02,
,,,0.015344,3.98,
,,,0.015372001,4.06,
,,,0.0154,4.06,
,,,0.015428,4.02,
,,,0.015456,4.06,
,,,0.015484001,4.02,
,,,0.015512,4.06,
,,,0.01554,4.02,
,,,0.015568,4.06,
,,,0.0155960005,4.06,
,,,0.015624,4.06,
,,,0.015652,4.02,
,,,0.01568,4.02,
,,,0.015708,4.02,
,,,0.015736,4.02,
,,,0.015764,4.06,
,,,0.015792001,4.02,
,,,0.01582,3.98,
,,,0.015848,4.06,
,,,0.015876,4.02,
,,,0.015904,4.02,
,,,0.015932,4.02,
,,,0.01596,4.02,
,,,0.015988,4.02,
,,,0.016016,4.02,
,,,0.016044,4.02,
,,,0.016072,4.02,
,,,0.0161,4.02,
,,,0.016128,4.02,
,,,0.016156001,4.02,
,,,0.016184,4.06,
,,,0.016212,4.02,
,,,0.01624,4.06,
,,,0.016268,4.06,
,,,0.016296001,4.18,
,,,0.016324,4.02,
,,,0.016352,4.02,
,,,0.01638,4.02,
,,,0.016408,3.98,
,,,0.016436,4.02,
,,,0.016464,4.06,
,,,0.016492,4.02,
,,,0.016520001,4.02,
,,,0.016548,4.02,
,,,0.016576,4.02,
,,,0.016604,4.06,
,,,0.016632,4.02,
,,,0.016660001,4.02,
,,,0.016688,4.06,
,,,0.016716,3.9399998,
,,,0.016744,4.06,
,,,0.016772,4.1,
,,,0.0168,4.06,
,,,0.016828,4.06,
,,,0.016856,4.02,
,,,0.016884001,4.06,
,,,0.016912,4.02,
,,,0.01694,4.02,
,,,0.016968,4.06,
,,,0.016996,4.02,
,,,0.017024001,4.02,
,,,0.017052,4.02,
,,,0.01708,4.06,
,,,0.017108,4.02,
,,,0.017136,3.98,
,,,0.017164,4.06,
,,,0.017192,4.18,
,,,0.01722,4.02,
,,,0.017248001,4.06,
,,,0.017276,4.02,
,,,0.017304,4.06,
,,,0.017332,4.06,
,,,0.01736,4.02,
,,,0.017388001,4.06,
,,,0.017416,4.06,
,,,0.017444,4.02,
,,,0.017472,4.02,
,,,0.0175,4.02,
,,,0.017528,3.9399998,
,,,0.017556,4.06,
,,,0.017584,4.02,
,,,0.017612,4.06,
,,,0.01764,4.02,
,,,0.017668,4.06,
,,,0.017696,4.02,
,,,0.017724,4.02,
,,,0.017752001,4.06,
,,,0.01778,4.02,
,,,0.017808,4.02,
,,,0.017836,4.02,
,,,0.017864,4.02,
,,,0.017892,4.02,
,,,0.01792,4.02,
,,,0.017948,4.06,
,,,0.017976,4.02,
,,,0.018004,4.02,
,,,0.018032,4.02,
,,,0.01806,4.06,
,,,0.018088,3.82,
,,,0.018116001,4.02,
,,,0.018144,4.02,
,,,0.018172,4.02,
,,,0.0182,4.02,
,,,0.018228,4.06,
,,,0.018256001,4.06,
,,,0.018284,4.02,
,,,0.018312,4.06,
,,,0.01834,4.06,
,,,0.018368,4.02,
,,,0.018396,4.02,
,,,0.018424,4.06,
,,,0.018452,4.02,
,,,0.018480001,4.06,
,,,0.018508,3.8999999,
,,,0.018536,4.02,
,,,0.018564,3.98,
,,,0.018592,4.06,
,,,0.018620001,4.06,
,,,0.018648,4.02,
,,,0.018676,4.02,
,,,0.018704,4.06,
,,,0.018732,4.02,
,,,0.01876,4.02,
,,,0.018788,4.02,
,,,0.018816,4.02,
,,,0.018844001,4.02,
,,,0.018872,4.06,
,,,0.0189,4.02,
,,,0.018928,4.1,
,,,0.018956,4.06,
,,,0.018984001,4.02,
,,,0.019012,4.02,
,,,0.01904,4.02,
,,,0.019068,4.06,
,,,0.019096,4.02,
,,,0.019124,4.06,
,,,0.019152,4.06,
,,,0.01918,4.06,
,,,0.019208001,4.02,
,,,0.019236,4.06,
,,,0.019264,4.02,
,,,0.019292,4.02,
,,,0.01932,4.02,
,,,0.019348001,4.06,
,,,0.019376,4.06,
,,,0.019404,4.06,
,,,0.019432,4.02,
,,,0.01946,4.02,
,,,0.019488,4.02,
,,,0.019516,4.06,
,,,0.019544,4.02,
,,,0.019572001,4.02,
,,,0.0196,3.9399998,
,,,0.019628,4.02,
,,,0.019656,4.02,
,,,0.019684,4.02,
,,,0.019712001,4.02,
,,,0.01974,4.06,
,,,0.019768,4.02,
,,,0.019796,4.02,
,,,0.019824,4.1,
,,,0.019852,4.02,
,,,0.01988,3.8999999,
,,,0.019908,4.02,
,,,0.019936,4.02,
,,,0.019964,4.06,
,,,0.019992,4.02,
,,,0.02002,4.02,
,,,0.020048,4.02,
,,,0.020076001,4.02,
,,,0.020104,4.02,
,,,0.020132,4.02,
,,,0.02016,4.06,
,,,0.020188,4.02,
,,,0.020216001,4.02,
,,,0.020244,4.06,
,,,0.020272,4.02,
,,,0.0203,4.18,
,,,0.020328,4.02,
,,,0.020356,4.02,
,,,0.020384,4.02,
,,,0.020412,4.02,
,,,0.020440001,4.02,
,,,0.020468,4.02,
,,,0.020496,4.06,
,,,0.020524,4.02,
,,,0.020552,4.02,
,,,0.020580001,4.06,
,,,0.020608,4.02,
,,,0.020636,4.1,
,,,0.020664,4.06,
,,,0.020692,4.02,
,,,0.02072,4.14,
,,,0.020748,4.02,
,,,0.020776,4.18,
,,,0.020804001,4.02,
,,,0.020832,4.02,
,,,0.02086,4.02,
,,,0.020888,4.06,
,,,0.020916,4.06,
,,,0.020944001,4.06,
,,,0.020972,4.06,
,,,0.021,4.02,
,,,0.021028,4.06,
,,,0.021056,4.02,
,,,0.021084,4.02,
,,,0.021112,4.06,
,,,0.02114,3.9399998,
,,,0.021168001,4.02,
,,,0.021196,4.1,
,,,0.021224,4.02,
,,,0.021252,4.02,
,,,0.02128,4.06,
,,,0.021308001,4.02,
,,,0.021336,4.02,
,,,0.021364,4.02,
,,,0.021392,4.02,
,,,0.02142,4.06,
,,,0.021448,4.02,
,,,0.021476,4.02,
,,,0.021504,4.02,
,,,0.021532001,4.06,
,,,0.02156,4.02,
,,,0.021588,4.02,
,,,0.021616,4.02,
,,,0.021644,4.02,
,,,0.021672001,4.06,
,,,0.0217,4.06,
,,,0.021728,4.06,
,,,0.021756,4.06,
,,,0.021784,4.02,
,,,0.021812,4.02,
,,,0.02184,4.02,
,,,0.021868,4.06,
,,,0.021896001,4.06,
,,,0.021924,4.06,
,,,0.021952,4.06,
,,,0.02198,4.06,
,,,0.022008,4.06,
,,,0.022036001,3.98,
,,,0.022064,4.06,
,,,0.022092,4.14,
,,,0.02212,4.06,
,,,0.022148,4.02,
,,,0.022176001,4.06,
,,,0.022204,4.02,
,,,0.022232,4.06,
,,,0.02226,4.02,
,,,0.022288,4.02,
,,,0.022316,4.02,
,,,0.022344,4.02,
,,,0.022372,4.06,
,,,0.022400001,4.02,
,,,0.022428,4.02,
,,,0.022456,4.06,
,,,0.022484,4.06,
,,,0.022512,4.02,
,,,0.022540001,4.02,
,,,0.022568,4.06,
,,,0.022596,4.06,
,,,0.022624,4.02,
,,,0.022652,4.02,
,,,0.02268,4.02,
,,,0.022708,3.98,
,,,0.022736,4.02,
,,,0.022764001,4.02,
,,,0.022792,4.02,
,,,0.02282,4.02,
,,,0.022848,4.06,
,,,0.022876,4.02,
,,,0.022904001,4.06,
,,,0.022932,3.9399998,
,,,0.02296,4.06,
,,,0.022988,4.22,
,,,0.023016,4.02,
,,,0.023044,4.02,
,,,0.023072,4.02,
,,,0.0231,4.02,
,,,0.023128001,4.02,
,,,0.023156,4.02,
,,,0.023184,4.06,
,,,0.023212,4.02,
,,,0.02324,4.02,
,,,0.023268001,4.02,
,,,0.023296,4.02,
,,,0.023324,4.06,
,,,0.023352,4.1,
,,,0.02338,4.02,
,,,0.023408,4.02,
,,,0.023436,4.02,
,,,0.023464,4.02,
,,,0.023492001,4.06,
,,,0.02352,4.02,
,,,0.023548,4.06,
,,,0.023576,4.02,
,,,0.023604,4.02,
,,,0.023632001,4.02,
,,,0.02366,3.98,
,,,0.023688,4.02,
,,,0.023716,4.02,
,,,0.023744,4.06,
,,,0.023772,4.06,
,,,0.0238,4.02,
,,,0.023828,4.1,
,,,0.023856001,4.02,
,,,0.023884,4.14,
,,,0.023912,4.02,
,,,0.02394,4.02,
,,,0.023968,4.02,
,,,0.023996001,4.06,
,,,0.024024,4.06,
,,,0.024052,4.06,
,,,0.02408,4.02,
,,,0.024108,4.06,
,,,0.024136001,4.02,
,,,0.024164,4.02,
,,,0.024192,4.02,
,,,0.024220001,4.02,
,,,0.024248,4.06,
,,,0.024276,4.02,
,,,0.024304,4.1,
,,,0.024332,4.02,
,,,0.024360001,4.06,
,,,0.024388,4.02,
,,,0.024416,4.02,
,,,0.024444,4.02,
,,,0.024472,4.06,
,,,0.024500001,4.02,
,,,0.024528,4.06,
,,,0.024556,4.02,
,,,0.024584,4.06,
,,,0.024612,4.02,
,,,0.02464,4.02,
,,,0.024668,4.06,
,,,0.024696,4.02,
,,,0.024724001,4.14,
,,,0.024752,4.02,
,,,0.02478,4.14,
,,,0.024808,4.02,
,,,0.024836,4.06,
,,,0.024864001,4.06,
,,,0.024892,4.02,
,,,0.02492,4.02,
,,,0.024948,4.02,
,,,0.024976,4.02,
,,,0.025004,4.02,
,,,0.025032,4.06,
,,,0.02506,3.9399998,
,,,0.025088001,4.02,
,,,0.025116,4.02,
,,,0.025144,3.98,
,,,0.025172,4.06,
,,,0.0252,4.14,
,,,0.025228001,4.02,
,,,0.025256,4.06,
,,,0.025284,4.02,
,,,0.025312,4.06,
,,,0.02534,4.02,
,,,0.025368,4.06,
,,,0.025396,4.02,
,,,0.025424,4.02,
,,,0.025452001,4.02,
,,,0.02548,4.02,
,,,0.025508,4.02,
,,,0.025536,4.06,
,,,0.025564,3.98,
,,,0.025592001,4.06,
,,,0.02562,4.06,
,,,0.025648,4.02,
,,,0.025676,4.02,
,,,0.025704,4.06,
,,,0.025732,4.06,
,,,0.02576,4.06,
,,,0.025788,4.02,
,,,0.025816001,4.02,
,,,0.025844,4.02,
,,,0.025872,4.02,
,,,0.0259,4.06,
,,,0.025928,4.06,
,,,0.025956001,4.02,
,,,0.025984,4.02,
,,,0.026012,4.06,
,,,0.02604,3.98,
,,,0.026068,4.06,
,,,0.026096001,4.2999997,
,,,0.026124,4.06,
,,,0.026152,4.02,
,,,0.026180001,4.02,
,,,0.026208,4.06,
,,,0.026236,4.06,
,,,0.026264,4.02,
,,,0.026292,4.02,
,,,0.026320001,4.06,
,,,0.026348,4.02,
,,,0.026376,4.06,
,,,0.026404,4.06,
,,,0.026432,4.02,
,,,0.026460001,4.02,
,,,0.026488,4.06,
,,,0.026516,3.9399998,
,,,0.026544001,4.02,
,,,0.026572,4.06,
,,,0.0266,4.02,
,,,0.026628,4.02,
,,,0.026656,4.02,
,,,0.026684001,4.02,
,,,0.026712,4.06,
,,,0.02674,4.02,
,,,0.026768,4.06,
,,,0.026796,4.06,
,,,0.026824001,4.02,
,,,0.026852,4.02,
,,,0.02688,4.06,
,,,0.026908,4.02,
,,,0.026936,3.86,
,,,0.026964,4.02,
,,,0.026992,4.02,
,,,0.02702,4.02,
,,,0.027048001,3.98,
,,,0.027076,4.06,
,,,0.027104,4.02,
,,,0.027132,3.8999999,
,,,0.02716,4.02,
,,,0.027188001,4.06,
,,,0.027216,4.02,
,,,0.027244,4.02,
,,,0.027272,4.02,
,,,0.0273,4.02,
,,,0.027328,4.02,
,,,0.027356,4.1,
,,,0.027384,4.02,
,,,0.027412001,3.8999999,
,,,0.02744,4.02,
,,,0.027468,4.06,
,,,0.027496,4.02,
,,,0.027524,4.06,
,,,0.027552001,4.02,
,,,0.02758,4.02,
,,,0.027608,4.02,
,,,0.027636,4.06,
,,,0.027664,4.02,
,,,0.027692,4.06,
,,,0.02772,4.06,
,,,0.027748,4.02,
,,,0.027776001,4.06,
,,,0.027804,4.02,
,,,0.027832,4.1,
,,,0.02786,4.02,
,,,0.027888,4.02,
,,,0.027916001,4.02,
,,,0.027944,4.02,
,,,0.027972,4.02,
,,,0.028,4.06,
,,,0.028028,4.06,
,,,0.028056001,4.06,
,,,0.028084,3.9399998,
,,,0.028112,4.06,
,,,0.028140001,4.02,
,,,0.028168,4.06,
,,,0.028196,4.02,
,,,0.028224,4.02,
,,,0.028252,4.06,
,,,0.028280001,4.02,
,,,0.028308,3.82,
,,,0.028336,4.02,
,,,0.028364,4.02,
,,,0.028392,4.02,
,,,0.028420001,4.06,
,,,0.028448,4.06,
,,,0.028476,4.02,
,,,0.028504001,4.06,
,,,0.028532,4.02,
,,,0.02856,4.02,
,,,0.028588,4.06,
,,,0.028616,4.02,
,,,0.028644001,4.02,
,,,0.028672,4.06,
,,,0.0287,4.02,
,,,0.028728,4.14,
,,,0.028756,4.06,
,,,0.028784001,4.06,
,,,0.028812,4.06,
,,,0.02884,4.02,
,,,0.028868001,4.06,
,,,0.028896,4.02,
,,,0.028924,4.02,
,,,0.028952,4.06,
,,,0.02898,4.02,
,,,0.029008001,4.02,
,,,0.029036,4.06,
,,,0.029064,4.06,
,,,0.029092,4.02,
,,,0.02912,3.8999999,
,,,0.029148001,4.06,
,,,0.029176,4.06,
,,,0.029204,4.06,
,,,0.029232001,4.02,
,,,0.02926,4.02,
,,,0.029288,4.06,
,,,0.029316,4.02,
,,,0.029344,4.06,
,,,0.029372001,4.02,
,,,0.0294,4.02,
,,,0.029428,4.02,
,,,0.029456,4.06,
,,,0.029484,4.06,
,,,0.029512001,4.06,
,,,0.02954,4.02,
,,,0.029568,3.98,
,,,0.029596,4.02,
,,,0.029624,4.06,
,,,0.029652001,4.02,
,,,0.02968,4.02,
,,,0.029708,4.02,
,,,0.029736001,4.02,
,,,0.029764,4.02,
,,,0.029792,4.02,
,,,0.02982,4.02,
,,,0.029848,4.02,
,,,0.029876001,4.06,
,,,0.029904,4.02,
