measurements/Scope P14Pro_Stop_Current_1r57_shunt.csv

ProID,Info,,time,Value,
GenTime,2009-09-01 06:29:29,,0.0,4.14,
Record Length,100000 Points,,7.0E-7,4.18,
Sample Interval,7.0E-7 s,,1.4E-6,4.18,
Trigger Time,0.0 s,,2.1E-6,4.18,
Source,CH2,,2.8E-6,4.22,
Vertical Units,(V)/grid,,3.4999998E-6,4.22,
Vertical Scale,1.0,,4.2E-6,4.18,
Vertical Offset,0,,4.9E-6,4.02,
Horizontal Units,s/grid,,5.6E-6,4.22,
Horizontal Scale,0.005,,6.2999998E-6,4.22,
Probe Atten,10.0,,6.9999996E-6,4.22,
,,,7.6999995E-6,4.18,
,,,8.4E-6,4.22,
,,,9.1E-6,4.22,
,,,9.8E-6,4.18,
,,,1.05E-5,4.22,
,,,1.12E-5,4.18,
,,,1.19E-5,4.22,
,,,1.25999995E-5,4.22,
,,,1.3299999E-5,4.18,
,,,1.3999999E-5,4.22,
,,,1.47E-5,4.22,
,,,1.5399999E-5,4.2599998,
,,,1.6099999E-5,4.18,
,,,1.68E-5,4.18,
,,,1.75E-5,4.22,
,,,1.82E-5,4.18,
,,,1.89E-5,4.22,
,,,1.96E-5,4.22,
,,,2.03E-5,4.18,
,,,2.1E-5,4.22,
,,,2.17E-5,4.22,
,,,2.24E-5,4.22,
,,,2.31E-5,4.22,
,,,2.38E-5,4.18,
,,,2.45E-5,4.18,
,,,2.5199999E-5,4.22,
,,,2.5899999E-5,4.2599998,
,,,2.6599999E-5,4.22,
,,,2.7299999E-5,4.22,
,,,2.7999999E-5,4.22,
,,,2.87E-5,4.18,
,,,2.94E-5,4.2599998,
,,,3.01E-5,4.22,
,,,3.0799998E-5,4.22,
,,,3.15E-5,4.18,
,,,3.2199998E-5,4.22,
,,,3.29E-5,4.2599998,
,,,3.36E-5,4.22,
,,,3.43E-5,4.22,
,,,3.5E-5,4.14,
,,,3.57E-5,4.18,
,,,3.64E-5,4.22,
,,,3.71E-5,4.18,
,,,3.78E-5,4.18,
,,,3.85E-5,4.18,
,,,3.92E-5,4.22,
,,,3.99E-5,4.18,
,,,4.06E-5,4.18,
,,,4.1299998E-5,4.18,
,,,4.2E-5,4.18,
,,,4.2699998E-5,4.22,
,,,4.34E-5,4.22,
,,,4.4099997E-5,4.22,
,,,4.48E-5,4.22,
,,,4.55E-5,4.18,
,,,4.62E-5,4.18,
,,,4.69E-5,4.18,
,,,4.76E-5,4.18,
,,,4.83E-5,4.22,
,,,4.9E-5,4.22,
,,,4.97E-5,4.18,
,,,5.0399998E-5,4.22,
,,,5.11E-5,4.22,
,,,5.1799998E-5,4.2599998,
,,,5.25E-5,4.22,
,,,5.3199998E-5,4.18,
,,,5.39E-5,4.22,
,,,5.4599997E-5,4.22,
,,,5.53E-5,4.18,
,,,5.5999997E-5,4.18,
,,,5.67E-5,4.22,
,,,5.74E-5,4.18,
,,,5.81E-5,4.22,
,,,5.88E-5,4.22,
,,,5.95E-5,4.14,
,,,6.02E-5,4.18,
,,,6.0899998E-5,4.18,
,,,6.1599996E-5,4.18,
,,,6.23E-5,4.22,
,,,6.3E-5,4.22,
,,,6.37E-5,4.22,
,,,6.4399996E-5,4.22,
,,,6.51E-5,4.22,
,,,6.58E-5,4.22,
,,,6.65E-5,4.18,
,,,6.72E-5,4.18,
,,,6.79E-5,4.22,
,,,6.86E-5,4.22,
,,,6.93E-5,4.18,
,,,7.0E-5,4.14,
,,,7.07E-5,4.18,
,,,7.14E-5,4.22,
,,,7.2099996E-5,4.22,
,,,7.28E-5,4.22,
,,,7.35E-5,4.22,
,,,7.42E-5,4.18,
,,,7.4899996E-5,4.18,
,,,7.56E-5,4.18,
,,,7.63E-5,4.22,
,,,7.7E-5,4.22,
,,,7.7699995E-5,4.18,
,,,7.84E-5,4.22,
,,,7.91E-5,4.18,
,,,7.98E-5,4.18,
,,,8.05E-5,4.18,
,,,8.12E-5,4.18,
,,,8.19E-5,4.18,
,,,8.2599996E-5,4.22,
,,,8.33E-5,4.22,
,,,8.4E-5,4.22,
,,,8.47E-5,4.22,
,,,8.5399995E-5,4.22,
,,,8.61E-5,4.18,
,,,8.68E-5,4.22,
,,,8.75E-5,4.22,
,,,8.8199995E-5,4.1,
,,,8.89E-5,4.22,
,,,8.96E-5,4.22,
,,,9.03E-5,4.18,
,,,9.1E-5,4.2599998,
,,,9.17E-5,4.22,
,,,9.24E-5,4.22,
,,,9.3099996E-5,4.22,
,,,9.38E-5,4.2999997,
,,,9.45E-5,4.14,
,,,9.52E-5,4.18,
,,,9.5899995E-5,4.22,
,,,9.66E-5,4.18,
,,,9.73E-5,4.2999997,
,,,9.8E-5,4.18,
,,,9.8699995E-5,4.18,
,,,9.94E-5,4.18,
,,,1.001E-4,4.18,
,,,1.00799996E-4,4.18,
,,,1.015E-4,4.22,
,,,1.022E-4,4.22,
,,,1.029E-4,4.18,
,,,1.03599996E-4,4.22,
,,,1.043E-4,4.22,
,,,1.05E-4,4.22,
,,,1.057E-4,4.22,
,,,1.06399995E-4,4.22,
,,,1.071E-4,4.22,
,,,1.078E-4,4.2599998,
,,,1.085E-4,4.22,
,,,1.09199995E-4,4.18,
,,,1.099E-4,4.2599998,
,,,1.106E-4,4.38,
,,,1.11299996E-4,4.22,
,,,1.11999994E-4,4.22,
,,,1.127E-4,4.22,
,,,1.134E-4,4.22,
,,,1.14099996E-4,4.22,
,,,1.148E-4,4.22,
,,,1.155E-4,4.22,
,,,1.162E-4,4.22,
,,,1.16899995E-4,4.22,
,,,1.176E-4,4.22,
,,,1.183E-4,4.1,
,,,1.19E-4,4.18,
,,,1.19699995E-4,4.22,
,,,1.204E-4,4.18,
,,,1.211E-4,4.18,
,,,1.21799996E-4,4.22,
,,,1.225E-4,4.22,
,,,1.2319999E-4,4.18,
,,,1.239E-4,4.22,
,,,1.246E-4,4.22,
,,,1.253E-4,4.22,
,,,1.26E-4,4.06,
,,,1.267E-4,4.06,
,,,1.274E-4,4.14,
,,,1.281E-4,4.22,
,,,1.2879999E-4,4.18,
,,,1.295E-4,4.22,
,,,1.302E-4,4.22,
,,,1.3089999E-4,4.22,
,,,1.316E-4,4.22,
,,,1.323E-4,4.18,
,,,1.33E-4,4.22,
,,,1.337E-4,4.18,
,,,1.344E-4,4.2999997,
,,,1.351E-4,4.22,
,,,1.358E-4,4.18,
,,,1.3649999E-4,4.18,
,,,1.372E-4,4.22,
,,,1.379E-4,4.18,
,,,1.386E-4,4.18,
,,,1.393E-4,4.18,
,,,1.4E-4,4.18,
,,,1.407E-4,4.18,
,,,1.414E-4,4.18,
,,,1.4209999E-4,4.2999997,
,,,1.428E-4,4.38,
,,,1.435E-4,4.2599998,
,,,1.4419999E-4,4.22,
,,,1.449E-4,4.22,
,,,1.456E-4,4.22,
,,,1.463E-4,4.22,
,,,1.47E-4,4.18,
,,,1.477E-4,4.18,
,,,1.484E-4,4.18,
,,,1.491E-4,4.18,
,,,1.4979999E-4,4.22,
,,,1.505E-4,4.14,
,,,1.512E-4,4.2599998,
,,,1.5189999E-4,4.22,
,,,1.526E-4,4.22,
,,,1.533E-4,4.22,
,,,1.54E-4,4.22,
,,,1.547E-4,4.22,
,,,1.5539999E-4,4.22,
,,,1.561E-4,4.22,
,,,1.568E-4,4.22,
,,,1.5749999E-4,4.18,
,,,1.582E-4,4.18,
,,,1.589E-4,4.2999997,
,,,1.596E-4,4.1,
,,,1.603E-4,4.22,
,,,1.61E-4,4.14,
,,,1.617E-4,4.22,
,,,1.624E-4,4.22,
,,,1.6309999E-4,4.22,
,,,1.638E-4,4.22,
,,,1.645E-4,4.22,
,,,1.6519999E-4,4.22,
,,,1.659E-4,4.18,
,,,1.666E-4,4.18,
,,,1.673E-4,4.14,
,,,1.68E-4,4.22,
,,,1.687E-4,4.22,
,,,1.694E-4,4.22,
,,,1.701E-4,4.18,
,,,1.7079999E-4,4.22,
,,,1.715E-4,4.22,
,,,1.722E-4,4.18,
,,,1.7289999E-4,4.22,
,,,1.736E-4,4.22,
,,,1.743E-4,4.22,
,,,1.75E-4,4.06,
,,,1.757E-4,4.14,
,,,1.7639999E-4,4.22,
,,,1.771E-4,4.18,
,,,1.778E-4,4.18,
,,,1.7849999E-4,4.18,
,,,1.792E-4,4.18,
,,,1.799E-4,4.18,
,,,1.806E-4,4.22,
,,,1.813E-4,4.22,
,,,1.82E-4,4.22,
,,,1.827E-4,4.22,
,,,1.834E-4,4.22,
,,,1.8409999E-4,4.22,
,,,1.848E-4,4.22,
,,,1.855E-4,4.22,
,,,1.8619999E-4,4.18,
,,,1.869E-4,4.22,
,,,1.876E-4,4.18,
,,,1.883E-4,4.18,
,,,1.89E-4,4.2599998,
,,,1.8969999E-4,4.22,
,,,1.904E-4,4.22,
,,,1.911E-4,4.42,
,,,1.9179999E-4,4.2599998,
,,,1.925E-4,4.18,
,,,1.932E-4,4.22,
,,,1.9389999E-4,4.22,
,,,1.946E-4,4.22,
,,,1.953E-4,4.22,
,,,1.96E-4,4.22,
,,,1.967E-4,4.22,
,,,1.9739999E-4,4.18,
,,,1.981E-4,4.18,
,,,1.988E-4,4.22,
,,,1.9949999E-4,4.18,
,,,2.002E-4,4.22,
,,,2.009E-4,4.22,
,,,2.0159999E-4,4.22,
,,,2.023E-4,4.22,
,,,2.03E-4,4.22,
,,,2.037E-4,4.18,
,,,2.044E-4,4.22,
,,,2.0509999E-4,4.22,
,,,2.058E-4,4.18,
,,,2.065E-4,4.22,
,,,2.0719999E-4,4.02,
,,,2.079E-4,4.14,
,,,2.086E-4,4.22,
,,,2.093E-4,4.22,
,,,2.1E-4,4.22,
,,,2.1069999E-4,4.22,
,,,2.114E-4,4.22,
,,,2.121E-4,4.18,
,,,2.1279999E-4,4.1,
,,,2.135E-4,4.18,
,,,2.142E-4,4.22,
,,,2.1489999E-4,4.18,
,,,2.156E-4,4.18,
,,,2.163E-4,4.22,
,,,2.17E-4,4.18,
,,,2.177E-4,4.14,
,,,2.1839999E-4,4.18,
,,,2.191E-4,4.18,
,,,2.198E-4,4.18,
,,,2.2049999E-4,4.18,
,,,2.212E-4,4.22,
,,,2.219E-4,4.22,
,,,2.2259999E-4,4.22,
,,,2.233E-4,4.38,
,,,2.2399999E-4,4.2599998,
,,,2.247E-4,4.22,
,,,2.254E-4,4.22,
,,,2.2609999E-4,4.18,
,,,2.268E-4,4.22,
,,,2.275E-4,4.22,
,,,2.2819999E-4,4.22,
,,,2.289E-4,4.2599998,
,,,2.296E-4,4.22,
,,,2.303E-4,4.22,
,,,2.31E-4,4.14,
,,,2.3169999E-4,4.18,
,,,2.324E-4,4.18,
,,,2.331E-4,4.18,
,,,2.3379999E-4,4.18,
,,,2.345E-4,4.22,
,,,2.352E-4,4.22,
,,,2.3589999E-4,4.22,
,,,2.366E-4,4.22,
,,,2.373E-4,4.14,
,,,2.38E-4,4.18,
,,,2.387E-4,4.18,
,,,2.3939999E-4,4.2599998,
,,,2.401E-4,4.18,
,,,2.408E-4,4.22,
,,,2.4149999E-4,4.22,
,,,2.422E-4,4.18,
,,,2.429E-4,4.18,
,,,2.4359999E-4,4.22,
,,,2.443E-4,4.14,
,,,2.45E-4,4.22,
,,,2.457E-4,4.18,
,,,2.4639998E-4,4.18,
,,,2.471E-4,4.22,
,,,2.478E-4,4.2599998,
,,,2.485E-4,4.22,
,,,2.492E-4,4.22,
,,,2.4989998E-4,4.22,
,,,2.506E-4,4.18,
,,,2.513E-4,4.22,
,,,2.52E-4,4.18,
,,,2.527E-4,4.22,
,,,2.534E-4,4.18,
,,,2.5409998E-4,4.22,
,,,2.548E-4,4.22,
,,,2.555E-4,4.2599998,
,,,2.562E-4,4.14,
,,,2.569E-4,4.14,
,,,2.5759998E-4,4.18,
,,,2.583E-4,4.18,
,,,2.59E-4,4.22,
,,,2.597E-4,4.22,
,,,2.604E-4,4.18,
,,,2.611E-4,4.22,
,,,2.6179999E-4,4.22,
,,,2.625E-4,4.22,
,,,2.632E-4,4.22,
,,,2.639E-4,4.18,
,,,2.646E-4,4.2599998,
,,,2.6529998E-4,4.22,
,,,2.66E-4,4.18,
,,,2.667E-4,4.22,
,,,2.674E-4,4.22,
,,,2.681E-4,4.22,
,,,2.688E-4,4.22,
,,,2.695E-4,4.22,
,,,2.702E-4,4.22,
,,,2.709E-4,4.18,
,,,2.716E-4,4.18,
,,,2.723E-4,4.2599998,
,,,2.7299998E-4,4.22,
,,,2.737E-4,4.22,
,,,2.744E-4,4.22,
,,,2.751E-4,4.22,
,,,2.758E-4,4.18,
,,,2.7649998E-4,4.14,
,,,2.772E-4,4.18,
,,,2.779E-4,4.18,
,,,2.786E-4,4.18,
,,,2.793E-4,4.22,
,,,2.8E-4,4.02,
,,,2.8069998E-4,4.18,
,,,2.814E-4,4.18,
,,,2.821E-4,4.22,
,,,2.828E-4,4.22,
,,,2.835E-4,4.22,
,,,2.8419998E-4,4.22,
,,,2.849E-4,4.22,
,,,2.856E-4,4.3399997,
,,,2.863E-4,4.22,
,,,2.87E-4,4.22,
,,,2.877E-4,4.14,
,,,2.8839998E-4,4.18,
,,,2.891E-4,4.22,
,,,2.898E-4,4.18,
,,,2.905E-4,4.18,
,,,2.912E-4,4.18,
,,,2.9189998E-4,4.22,
,,,2.926E-4,4.18,
,,,2.933E-4,4.18,
,,,2.94E-4,4.18,
,,,2.947E-4,4.02,
,,,2.954E-4,4.18,
,,,2.9609998E-4,4.2599998,
,,,2.968E-4,4.18,
,,,2.975E-4,4.18,
,,,2.982E-4,4.22,
,,,2.989E-4,4.18,
,,,2.9959998E-4,4.22,
,,,3.003E-4,4.22,
,,,3.01E-4,4.22,
,,,3.017E-4,4.22,
,,,3.024E-4,4.22,
,,,3.031E-4,4.22,
,,,3.0379998E-4,4.14,
,,,3.045E-4,4.2599998,
,,,3.052E-4,4.22,
,,,3.059E-4,4.22,
,,,3.066E-4,4.22,
,,,3.0729998E-4,4.2599998,
,,,3.08E-4,4.2599998,
,,,3.087E-4,4.22,
,,,3.094E-4,4.18,
,,,3.101E-4,4.22,
,,,3.1079998E-4,4.22,
,,,3.1149999E-4,4.22,
,,,3.122E-4,4.2599998,
,,,3.129E-4,4.18,
,,,3.136E-4,4.22,
,,,3.143E-4,4.22,
,,,3.1499998E-4,4.22,
,,,3.157E-4,4.18,
,,,3.164E-4,4.18,
,,,3.171E-4,4.18,
,,,3.178E-4,4.18,
,,,3.1849998E-4,4.22,
,,,3.192E-4,4.22,
,,,3.199E-4,4.18,
,,,3.206E-4,4.2599998,
,,,3.213E-4,4.18,
,,,3.22E-4,4.22,
,,,3.2269998E-4,4.22,
,,,3.234E-4,4.22,
,,,3.241E-4,4.22,
,,,3.248E-4,4.22,
,,,3.255E-4,4.22,
,,,3.2619998E-4,4.2599998,
,,,3.269E-4,4.22,
,,,3.276E-4,4.22,
,,,3.283E-4,4.22,
,,,3.29E-4,4.22,
,,,3.297E-4,4.22,
,,,3.3039998E-4,4.22,
,,,3.311E-4,4.22,
,,,3.318E-4,4.18,
,,,3.325E-4,4.22,
,,,3.332E-4,4.22,
,,,3.3389998E-4,4.22,
,,,3.346E-4,4.18,
,,,3.353E-4,4.22,
,,,3.36E-4,4.18,
,,,3.367E-4,3.9399998,
,,,3.374E-4,4.14,
,,,3.3809998E-4,4.18,
,,,3.388E-4,4.18,
,,,3.395E-4,4.22,
,,,3.402E-4,4.22,
,,,3.409E-4,4.22,
,,,3.4159998E-4,4.22,
,,,3.423E-4,4.22,
,,,3.43E-4,4.18,
,,,3.437E-4,4.22,
,,,3.444E-4,4.2999997,
,,,3.4509998E-4,4.2599998,
,,,3.4579998E-4,4.22,
,,,3.465E-4,4.22,
,,,3.472E-4,4.22,
,,,3.479E-4,4.2599998,
,,,3.486E-4,4.22,
,,,3.4929998E-4,4.22,
,,,3.5E-4,4.22,
,,,3.507E-4,4.22,
,,,3.514E-4,4.18,
,,,3.521E-4,4.22,
,,,3.5279998E-4,4.2999997,
,,,3.5349999E-4,4.2599998,
,,,3.542E-4,4.22,
,,,3.549E-4,4.22,
,,,3.556E-4,4.18,
,,,3.563E-4,4.18,
,,,3.5699998E-4,4.06,
,,,3.577E-4,4.22,
,,,3.584E-4,4.14,
,,,3.591E-4,4.22,
,,,3.598E-4,4.22,
,,,3.6049998E-4,4.18,
,,,3.612E-4,4.14,
,,,3.619E-4,4.18,
,,,3.626E-4,4.22,
,,,3.633E-4,4.22,
,,,3.64E-4,4.18,
,,,3.6469998E-4,4.2599998,
,,,3.654E-4,4.22,
,,,3.661E-4,4.22,
,,,3.668E-4,4.22,
,,,3.675E-4,4.18,
,,,3.6819998E-4,4.22,
,,,3.689E-4,4.2999997,
,,,3.696E-4,4.2599998,
,,,3.703E-4,4.22,
,,,3.71E-4,4.22,
,,,3.717E-4,4.22,
,,,3.7239998E-4,4.22,
,,,3.731E-4,4.22,
,,,3.738E-4,4.18,
,,,3.745E-4,4.22,
,,,3.752E-4,4.18,
,,,3.7589998E-4,4.18,
,,,3.766E-4,4.14,
,,,3.773E-4,4.18,
,,,3.78E-4,4.22,
,,,3.787E-4,4.22,
,,,3.7939998E-4,4.22,
,,,3.8009998E-4,4.22,
,,,3.808E-4,4.22,
,,,3.815E-4,4.22,
,,,3.822E-4,4.22,
,,,3.829E-4,4.18,
,,,3.8359998E-4,4.22,
,,,3.843E-4,4.2599998,
,,,3.85E-4,4.18,
,,,3.857E-4,4.22,
,,,3.864E-4,4.22,
,,,3.8709998E-4,4.18,
,,,3.8779998E-4,4.22,
,,,3.885E-4,4.22,
,,,3.892E-4,4.22,
,,,3.899E-4,4.22,
,,,3.906E-4,4.22,
,,,3.9129998E-4,4.22,
,,,3.92E-4,4.22,
,,,3.927E-4,4.1,
,,,3.934E-4,4.2599998,
,,,3.941E-4,4.22,
,,,3.9479998E-4,4.22,
,,,3.9549998E-4,4.18,
,,,3.962E-4,4.18,
,,,3.969E-4,4.22,
,,,3.976E-4,4.22,
,,,3.983E-4,4.22,
,,,3.9899998E-4,4.22,
,,,3.997E-4,4.22,
,,,4.004E-4,4.22,
,,,4.011E-4,4.2599998,
,,,4.018E-4,4.22,
,,,4.0249998E-4,4.22,
,,,4.0319999E-4,4.18,
,,,4.039E-4,4.2599998,
,,,4.046E-4,4.22,
,,,4.053E-4,4.22,
,,,4.06E-4,4.22,
,,,4.0669998E-4,4.22,
,,,4.074E-4,4.18,
,,,4.081E-4,4.22,
,,,4.088E-4,4.22,
,,,4.095E-4,4.18,
,,,4.1019998E-4,4.06,
,,,4.109E-4,4.22,
,,,4.116E-4,4.22,
,,,4.123E-4,4.22,
,,,4.13E-4,4.22,
,,,4.1369998E-4,4.18,
,,,4.1439998E-4,4.18,
,,,4.151E-4,4.18,
,,,4.158E-4,4.18,
,,,4.165E-4,4.18,
,,,4.172E-4,4.14,
,,,4.1789998E-4,4.18,
,,,4.186E-4,4.22,
,,,4.193E-4,4.2999997,
,,,4.2E-4,4.22,
,,,4.207E-4,4.1,
,,,4.2139998E-4,4.22,
,,,4.2209998E-4,4.22,
,,,4.228E-4,4.22,
,,,4.235E-4,4.2599998,
,,,4.242E-4,4.2599998,
,,,4.249E-4,4.22,
,,,4.2559998E-4,4.3399997,
,,,4.263E-4,4.22,
,,,4.27E-4,4.18,
,,,4.277E-4,4.22,
,,,4.284E-4,4.22,
,,,4.2909998E-4,4.22,
,,,4.2979998E-4,4.22,
,,,4.305E-4,4.22,
,,,4.312E-4,4.22,
,,,4.319E-4,4.22,
,,,4.326E-4,4.22,
,,,4.3329998E-4,4.2599998,
,,,4.34E-4,4.2999997,
,,,4.347E-4,4.18,
,,,4.354E-4,4.22,
,,,4.361E-4,4.18,
,,,4.3679998E-4,4.18,
,,,4.3749998E-4,4.22,
,,,4.382E-4,4.22,
,,,4.389E-4,4.22,
,,,4.396E-4,4.22,
,,,4.403E-4,4.18,
,,,4.4099998E-4,4.18,
,,,4.417E-4,4.1,
,,,4.424E-4,4.22,
,,,4.431E-4,4.2599998,
,,,4.438E-4,4.2599998,
,,,4.4449998E-4,4.22,
,,,4.4519998E-4,4.22,
,,,4.459E-4,4.22,
,,,4.466E-4,4.18,
,,,4.473E-4,4.22,
,,,4.4799998E-4,4.22,
,,,4.4869998E-4,4.22,
,,,4.494E-4,4.18,
,,,4.501E-4,4.3399997,
,,,4.508E-4,4.2599998,
,,,4.515E-4,4.22,
,,,4.5219998E-4,4.22,
,,,4.5289999E-4,4.22,
,,,4.536E-4,4.22,
,,,4.543E-4,4.18,
,,,4.55E-4,4.18,
,,,4.5569998E-4,4.18,
,,,4.5639998E-4,4.22,
,,,4.571E-4,4.22,
,,,4.578E-4,4.2999997,
,,,4.585E-4,4.2599998,
,,,4.592E-4,4.22,
,,,4.5989998E-4,4.22,
,,,4.606E-4,4.22,
,,,4.613E-4,4.22,
,,,4.62E-4,4.22,
,,,4.627E-4,4.2599998,
,,,4.6339998E-4,4.22,
,,,4.6409998E-4,4.22,
,,,4.648E-4,4.22,
,,,4.655E-4,4.14,
,,,4.662E-4,4.02,
,,,4.669E-4,4.18,
,,,4.6759998E-4,4.22,
,,,4.683E-4,4.18,
,,,4.69E-4,4.22,
,,,4.697E-4,4.22,
,,,4.704E-4,4.22,
,,,4.7109998E-4,4.22,
,,,4.7179998E-4,4.22,
,,,4.725E-4,4.2599998,
,,,4.732E-4,4.18,
,,,4.739E-4,4.18,
,,,4.746E-4,4.22,
,,,4.7529998E-4,4.22,
,,,4.76E-4,4.18,
,,,4.767E-4,4.18,
,,,4.774E-4,4.22,
,,,4.781E-4,4.22,
,,,4.7879998E-4,4.18,
,,,4.7949998E-4,4.22,
,,,4.802E-4,4.22,
,,,4.809E-4,4.22,
,,,4.816E-4,4.22,
,,,4.823E-4,4.42,
,,,4.8299998E-4,4.42,
,,,4.837E-4,4.22,
,,,4.844E-4,4.22,
,,,4.851E-4,4.22,
,,,4.858E-4,4.22,
,,,4.8649998E-4,4.22,
,,,4.8719998E-4,4.22,
,,,4.879E-4,4.22,
,,,4.886E-4,4.22,
,,,4.893E-4,4.22,
,,,4.9E-4,4.18,
,,,4.907E-4,4.2599998,
,,,4.914E-4,4.22,
,,,4.9209996E-4,4.1,
,,,4.9279997E-4,4.22,
,,,4.935E-4,4.18,
,,,4.942E-4,4.18,
,,,4.949E-4,4.18,
,,,4.956E-4,4.22,
,,,4.963E-4,4.22,
,,,4.97E-4,4.18,
,,,4.977E-4,4.22,
,,,4.984E-4,4.1,
,,,4.991E-4,4.22,
,,,4.9979996E-4,4.22,
,,,5.0049997E-4,4.22,
,,,5.012E-4,4.22,
,,,5.019E-4,4.2599998,
,,,5.026E-4,4.22,
,,,5.033E-4,4.22,
,,,5.04E-4,4.18,
,,,5.047E-4,4.22,
,,,5.054E-4,4.22,
,,,5.061E-4,4.22,
,,,5.068E-4,4.22,
,,,5.0749996E-4,4.22,
,,,5.0819997E-4,4.18,
,,,5.089E-4,4.18,
,,,5.096E-4,4.22,
,,,5.103E-4,4.22,
,,,5.11E-4,4.22,
,,,5.117E-4,4.22,
,,,5.124E-4,4.22,
,,,5.131E-4,4.22,
,,,5.138E-4,4.14,
,,,5.145E-4,4.46,
,,,5.1519996E-4,4.22,
,,,5.1589997E-4,4.18,
,,,5.166E-4,4.18,
,,,5.173E-4,4.18,
,,,5.18E-4,4.22,
,,,5.187E-4,4.18,
,,,5.194E-4,4.22,
,,,5.201E-4,4.22,
,,,5.208E-4,4.22,
,,,5.215E-4,4.2599998,
,,,5.222E-4,4.3399997,
,,,5.2289997E-4,4.2599998,
,,,5.2359997E-4,4.22,
,,,5.243E-4,4.22,
,,,5.25E-4,4.22,
,,,5.257E-4,4.18,
,,,5.264E-4,4.18,
,,,5.271E-4,4.22,
,,,5.278E-4,4.18,
,,,5.285E-4,4.22,
,,,5.292E-4,4.18,
,,,5.299E-4,4.22,
,,,5.3059997E-4,4.38,
,,,5.313E-4,4.2999997,
,,,5.32E-4,4.22,
,,,5.327E-4,4.22,
,,,5.334E-4,4.18,
,,,5.341E-4,4.18,
,,,5.348E-4,4.18,
,,,5.355E-4,4.22,
,,,5.362E-4,4.18,
,,,5.369E-4,4.22,
,,,5.376E-4,4.22,
,,,5.3829997E-4,4.22,
,,,5.39E-4,4.22,
,,,5.397E-4,4.22,
,,,5.404E-4,4.22,
,,,5.411E-4,4.2599998,
,,,5.418E-4,4.2599998,
,,,5.425E-4,4.22,
,,,5.432E-4,4.22,
,,,5.439E-4,4.18,
,,,5.446E-4,4.18,
,,,5.4529996E-4,4.22,
,,,5.4599997E-4,4.22,
,,,5.467E-4,4.02,
,,,5.474E-4,4.14,
,,,5.481E-4,4.18,
,,,5.488E-4,4.22,
,,,5.495E-4,4.22,
,,,5.502E-4,4.22,
,,,5.509E-4,4.18,
,,,5.516E-4,4.22,
,,,5.523E-4,4.22,
,,,5.5299996E-4,4.18,
,,,5.5369997E-4,4.18,
,,,5.544E-4,4.3399997,
,,,5.551E-4,4.22,
,,,5.558E-4,4.22,
,,,5.565E-4,4.18,
,,,5.572E-4,4.22,
,,,5.579E-4,4.22,
,,,5.586E-4,4.22,
,,,5.593E-4,4.22,
,,,5.6E-4,4.22,
,,,5.6069996E-4,4.2599998,
,,,5.6139997E-4,4.2599998,
,,,5.621E-4,4.22,
,,,5.628E-4,4.2999997,
,,,5.635E-4,4.2999997,
,,,5.642E-4,4.22,
,,,5.649E-4,4.2599998,
,,,5.656E-4,4.18,
,,,5.663E-4,4.22,
,,,5.67E-4,4.22,
,,,5.677E-4,4.22,
,,,5.6839996E-4,4.22,
,,,5.6909997E-4,4.18,
,,,5.698E-4,4.22,
,,,5.705E-4,4.18,
,,,5.712E-4,4.14,
,,,5.719E-4,4.22,
,,,5.726E-4,4.18,
,,,5.733E-4,4.18,
,,,5.74E-4,4.18,
,,,5.747E-4,4.18,
,,,5.754E-4,4.22,
,,,5.7609996E-4,4.22,
,,,5.7679997E-4,4.22,
,,,5.775E-4,4.22,
,,,5.782E-4,4.22,
,,,5.789E-4,4.14,
,,,5.796E-4,4.14,
,,,5.803E-4,4.2599998,
,,,5.81E-4,4.22,
,,,5.817E-4,4.22,
,,,5.824E-4,4.22,
,,,5.831E-4,4.22,
,,,5.8379996E-4,4.18,
,,,5.8449997E-4,4.18,
,,,5.852E-4,4.22,
,,,5.859E-4,4.22,
,,,5.866E-4,4.18,
,,,5.873E-4,4.22,
,,,5.88E-4,4.22,
,,,5.887E-4,4.22,
,,,5.894E-4,4.18,
,,,5.901E-4,4.22,
,,,5.908E-4,4.22,
,,,5.9149996E-4,4.22,
,,,5.9219997E-4,4.22,
,,,5.929E-4,4.18,
,,,5.936E-4,4.18,
,,,5.943E-4,4.18,
,,,5.95E-4,4.3399997,
,,,5.957E-4,4.18,
,,,5.964E-4,4.22,
,,,5.971E-4,4.22,
,,,5.978E-4,4.22,
,,,5.985E-4,4.22,
,,,5.9919996E-4,4.22,
,,,5.9989997E-4,4.2599998,
,,,6.006E-4,4.22,
,,,6.013E-4,4.22,
,,,6.02E-4,4.22,
,,,6.027E-4,4.22,
,,,6.034E-4,4.3399997,
,,,6.041E-4,4.18,
,,,6.048E-4,4.18,
,,,6.055E-4,4.18,
,,,6.062E-4,4.22,
,,,6.0689996E-4,4.22,
,,,6.0759997E-4,4.1,
,,,6.083E-4,4.22,
,,,6.09E-4,4.22,
,,,6.097E-4,4.22,
,,,6.104E-4,4.22,
,,,6.111E-4,4.6,
,,,6.118E-4,4.22,
,,,6.125E-4,4.18,
,,,6.132E-4,4.18,
,,,6.1389996E-4,4.18,
,,,6.1459997E-4,4.18,
,,,6.1529997E-4,4.22,
,,,6.16E-4,4.22,
,,,6.167E-4,4.2999997,
,,,6.174E-4,4.22,
,,,6.181E-4,4.14,
,,,6.188E-4,4.22,
,,,6.195E-4,4.14,
,,,6.202E-4,4.2599998,
,,,6.209E-4,4.22,
,,,6.2159996E-4,4.22,
,,,6.2229997E-4,4.22,
,,,6.2299997E-4,4.18,
,,,6.237E-4,4.22,
,,,6.244E-4,4.22,
,,,6.251E-4,4.22,
,,,6.258E-4,4.18,
,,,6.265E-4,4.22,
,,,6.272E-4,4.14,
,,,6.279E-4,4.06,
,,,6.286E-4,4.22,
,,,6.2929996E-4,4.22,
,,,6.2999997E-4,4.22,
,,,6.307E-4,4.22,
,,,6.314E-4,4.22,
,,,6.321E-4,4.18,
,,,6.328E-4,4.18,
,,,6.335E-4,4.22,
,,,6.342E-4,4.22,
,,,6.349E-4,4.22,
,,,6.356E-4,4.22,
,,,6.363E-4,4.22,
,,,6.3699996E-4,4.22,
,,,6.3769997E-4,4.22,
,,,6.384E-4,4.22,
,,,6.391E-4,4.2599998,
,,,6.398E-4,4.22,
,,,6.405E-4,4.22,
,,,6.412E-4,4.22,
,,,6.419E-4,4.22,
,,,6.426E-4,4.22,
,,,6.433E-4,4.2999997,
,,,6.44E-4,4.22,
,,,6.4469996E-4,4.22,
,,,6.4539997E-4,4.22,
,,,6.461E-4,4.18,
,,,6.468E-4,4.22,
,,,6.475E-4,4.22,
,,,6.482E-4,4.18,
,,,6.489E-4,4.22,
,,,6.496E-4,4.22,
,,,6.503E-4,4.22,
,,,6.51E-4,4.22,
,,,6.517E-4,4.18,
,,,6.5239996E-4,4.18,
,,,6.5309997E-4,4.18,
,,,6.538E-4,4.22,
,,,6.545E-4,4.22,
,,,6.552E-4,4.22,
,,,6.559E-4,4.22,
,,,6.566E-4,4.22,
,,,6.573E-4,4.22,
,,,6.58E-4,4.22,
,,,6.587E-4,4.22,
,,,6.594E-4,4.22,
,,,6.6009996E-4,4.22,
,,,6.6079997E-4,4.18,
,,,6.615E-4,4.22,
,,,6.622E-4,4.18,
,,,6.629E-4,4.22,
,,,6.636E-4,4.18,
,,,6.643E-4,4.22,
,,,6.65E-4,4.22,
,,,6.657E-4,4.22,
,,,6.664E-4,4.22,
,,,6.671E-4,4.22,
,,,6.6779996E-4,4.22,
,,,6.6849997E-4,4.22,
,,,6.692E-4,4.18,
,,,6.699E-4,4.18,
,,,6.706E-4,4.18,
,,,6.713E-4,4.14,
,,,6.72E-4,4.22,
,,,6.727E-4,4.22,
,,,6.734E-4,4.22,
,,,6.741E-4,4.22,
,,,6.748E-4,4.22,
,,,6.7549996E-4,4.22,
,,,6.7619997E-4,4.14,
,,,6.769E-4,4.22,
,,,6.776E-4,4.22,
,,,6.783E-4,4.2599998,
,,,6.79E-4,4.2599998,
,,,6.797E-4,4.22,
,,,6.804E-4,4.14,
,,,6.811E-4,4.22,
,,,6.818E-4,4.18,
,,,6.8249996E-4,4.22,
,,,6.8319996E-4,4.22,
,,,6.8389997E-4,4.18,
,,,6.846E-4,4.18,
,,,6.853E-4,4.18,
,,,6.86E-4,4.22,
,,,6.867E-4,4.18,
,,,6.874E-4,4.22,
,,,6.881E-4,4.22,
,,,6.888E-4,4.22,
,,,6.895E-4,4.3399997,
,,,6.9019996E-4,4.22,
,,,6.9089996E-4,4.18,
,,,6.9159997E-4,4.18,
,,,6.923E-4,4.14,
,,,6.93E-4,4.18,
,,,6.937E-4,4.22,
,,,6.944E-4,4.22,
,,,6.951E-4,4.22,
,,,6.958E-4,4.22,
,,,6.965E-4,4.22,
,,,6.972E-4,4.22,
,,,6.9789996E-4,4.2599998,
,,,6.9859996E-4,4.2599998,
,,,6.9929997E-4,4.2599998,
,,,7.0E-4,4.06,
,,,7.007E-4,4.22,
,,,7.014E-4,4.22,
,,,7.021E-4,4.18,
,,,7.028E-4,4.22,
,,,7.035E-4,4.22,
,,,7.042E-4,4.18,
,,,7.049E-4,4.22,
,,,7.0559996E-4,4.22,
,,,7.0629996E-4,4.18,
,,,7.0699997E-4,4.22,
,,,7.077E-4,4.22,
,,,7.084E-4,3.8999999,
,,,7.091E-4,4.14,
,,,7.098E-4,4.18,
,,,7.105E-4,4.18,
,,,7.112E-4,4.18,
,,,7.119E-4,4.18,
,,,7.126E-4,4.22,
,,,7.1329996E-4,4.18,
,,,7.1399997E-4,4.22,
,,,7.1469997E-4,4.22,
,,,7.154E-4,4.22,
,,,7.161E-4,4.18,
,,,7.168E-4,4.22,
,,,7.175E-4,4.2599998,
,,,7.182E-4,4.2599998,
,,,7.189E-4,4.22,
,,,7.196E-4,4.22,
,,,7.203E-4,4.22,
,,,7.2099996E-4,4.22,
,,,7.2169997E-4,4.22,
