measurements/Scope_P14Pro_Startup_Current_1r57_shunt.csv

ProID,Info,,time,Value,
GenTime,2009-08-31 20:14:41,,0.0,-0.024,
Record Length,100000 Points,,2.8E-5,-0.024,
Sample Interval,2.7999999999999996E-5 s,,5.6E-5,-0.024,
Trigger Time,2.18 s,,8.4E-5,-0.024,
Source,CH1,,1.12E-4,-0.024,
Vertical Units,(V)/grid,,1.4E-4,-0.024,
Vertical Scale,0.2,,1.68E-4,-0.024,
Vertical Offset,61,,1.9600001E-4,-0.024,
Horizontal Units,s/grid,,2.24E-4,-0.024,
Horizontal Scale,0.2,,2.52E-4,-0.024,
Probe Atten,10.0,,2.8E-4,0.008,
,,,3.0800002E-4,-0.024,
,,,3.36E-4,-0.024,
,,,3.64E-4,-0.024,
,,,3.9200002E-4,-0.040000003,
,,,4.2E-4,-0.024,
,,,4.48E-4,-0.024,
,,,4.7600002E-4,-0.024,
,,,5.04E-4,-0.024,
,,,5.3200003E-4,-0.024,
,,,5.6E-4,-0.024,
,,,5.88E-4,-0.024,
,,,6.1600003E-4,-0.024,
,,,6.44E-4,-0.016,
,,,6.72E-4,-0.016,
,,,7.0000003E-4,-0.016,
,,,7.28E-4,-0.024,
,,,7.56E-4,-0.032,
,,,7.8400003E-4,-0.024,
,,,8.12E-4,-0.024,
,,,8.4E-4,-0.024,
,,,8.6800003E-4,-0.024,
,,,8.96E-4,-0.024,
,,,9.24E-4,-0.024,
,,,9.5200003E-4,-0.024,
,,,9.8E-4,-0.024,
,,,0.001008,-0.024,
,,,0.001036,-0.024,
,,,0.0010640001,-0.024,
,,,0.001092,-0.024,
,,,0.00112,-0.016,
,,,0.001148,-0.024,
,,,0.001176,-0.016,
,,,0.001204,-0.024,
,,,0.0012320001,-0.024,
,,,0.00126,-0.024,
,,,0.001288,-0.024,
,,,0.001316,-0.024,
,,,0.001344,-0.032,
,,,0.001372,-0.024,
,,,0.0014000001,-0.024,
,,,0.001428,-0.024,
,,,0.001456,-0.024,
,,,0.001484,-0.024,
,,,0.001512,-0.024,
,,,0.00154,-0.024,
,,,0.0015680001,-0.024,
,,,0.001596,-0.016,
,,,0.001624,-0.024,
,,,0.001652,-0.032,
,,,0.00168,-0.024,
,,,0.001708,-0.032,
,,,0.0017360001,-0.024,
,,,0.001764,-0.024,
,,,0.001792,-0.024,
,,,0.00182,-0.024,
,,,0.001848,-0.024,
,,,0.0018760001,-0.024,
,,,0.0019040001,-0.024,
,,,0.001932,-0.024,
,,,0.00196,-0.024,
,,,0.001988,-0.024,
,,,0.002016,-0.024,
,,,0.002044,-0.024,
,,,0.002072,-0.056,
,,,0.0021,-0.024,
,,,0.0021280001,-0.024,
,,,0.0021560001,-0.024,
,,,0.002184,-0.024,
,,,0.002212,-0.024,
,,,0.00224,-0.024,
,,,0.002268,-0.024,
,,,0.002296,-0.024,
,,,0.002324,-0.024,
,,,0.002352,-0.024,
,,,0.00238,-0.040000003,
,,,0.002408,-0.024,
,,,0.002436,-0.024,
,,,0.0024640001,-0.024,
,,,0.002492,-0.008,
,,,0.00252,-0.024,
,,,0.002548,-0.016,
,,,0.002576,-0.024,
,,,0.002604,-0.024,
,,,0.002632,-0.024,
,,,0.00266,-0.024,
,,,0.002688,-0.024,
,,,0.002716,-0.024,
,,,0.002744,-0.032,
,,,0.0027720002,-0.024,
,,,0.0028000001,-0.024,
,,,0.002828,-0.024,
,,,0.002856,-0.024,
,,,0.002884,-0.024,
,,,0.002912,-0.032,
,,,0.00294,-0.024,
,,,0.002968,-0.032,
,,,0.002996,-0.024,
,,,0.003024,-0.024,
,,,0.003052,-0.024,
,,,0.00308,-0.024,
,,,0.0031080001,-0.024,
,,,0.0031360001,-0.024,
,,,0.003164,-0.024,
,,,0.003192,-0.024,
,,,0.00322,-0.024,
,,,0.003248,-0.024,
,,,0.003276,-0.024,
,,,0.003304,-0.024,
,,,0.003332,-0.024,
,,,0.00336,-0.024,
,,,0.003388,-0.032,
,,,0.003416,-0.024,
,,,0.0034440001,-0.024,
,,,0.0034720001,-0.024,
,,,0.0035,-0.024,
,,,0.003528,-0.024,
,,,0.003556,-0.024,
,,,0.003584,-0.024,
,,,0.003612,-0.024,
,,,0.00364,-0.024,
,,,0.003668,-0.024,
,,,0.003696,-0.024,
,,,0.003724,-0.024,
,,,0.0037520002,-0.016,
,,,0.0037800001,-0.016,
,,,0.0038080001,-0.024,
,,,0.003836,-0.016,
,,,0.003864,0.0,
,,,0.003892,-0.024,
,,,0.00392,-0.024,
,,,0.0039480003,-0.024,
,,,0.003976,-0.024,
,,,0.004004,-0.024,
,,,0.004032,-0.024,
,,,0.00406,-0.024,
,,,0.004088,-0.024,
,,,0.004116,-0.024,
,,,0.004144,-0.024,
,,,0.004172,-0.024,
,,,0.0042,-0.024,
,,,0.004228,-0.024,
,,,0.0042560003,-0.024,
,,,0.004284,0.008,
,,,0.0043120002,-0.024,
,,,0.00434,-0.024,
,,,0.004368,-0.024,
,,,0.004396,-0.024,
,,,0.004424,-0.024,
,,,0.004452,-0.032,
,,,0.00448,-0.024,
,,,0.004508,-0.024,
,,,0.004536,-0.024,
,,,0.0045640003,-0.024,
,,,0.004592,-0.024,
,,,0.0046200003,-0.024,
,,,0.004648,-0.024,
,,,0.004676,-0.024,
,,,0.004704,-0.032,
,,,0.004732,-0.016,
,,,0.00476,-0.016,
,,,0.004788,-0.024,
,,,0.004816,-0.024,
,,,0.004844,-0.024,
,,,0.004872,-0.024,
,,,0.0049,-0.024,
,,,0.0049280003,-0.024,
,,,0.004956,-0.024,
,,,0.004984,-0.024,
,,,0.005012,-0.024,
,,,0.00504,-0.024,
,,,0.005068,-0.024,
,,,0.005096,-0.024,
,,,0.005124,-0.016,
,,,0.005152,-0.024,
,,,0.00518,-0.016,
,,,0.005208,-0.024,
,,,0.0052360003,-0.024,
,,,0.005264,-0.024,
,,,0.0052920002,-0.024,
,,,0.00532,-0.024,
,,,0.005348,-0.024,
,,,0.005376,-0.024,
,,,0.005404,-0.024,
,,,0.005432,-0.024,
,,,0.00546,-0.024,
,,,0.005488,-0.040000003,
,,,0.005516,-0.024,
,,,0.0055440003,-0.024,
,,,0.005572,-0.024,
,,,0.0056000003,-0.016,
,,,0.005628,-0.024,
,,,0.005656,-0.008,
,,,0.005684,-0.024,
,,,0.005712,-0.024,
,,,0.00574,-0.024,
,,,0.005768,-0.016,
,,,0.005796,-0.024,
,,,0.005824,-0.024,
,,,0.005852,-0.016,
,,,0.00588,-0.024,
,,,0.0059080003,-0.024,
,,,0.005936,-0.024,
,,,0.0059640002,-0.024,
,,,0.005992,-0.024,
,,,0.00602,-0.024,
,,,0.006048,-0.024,
,,,0.006076,-0.032,
,,,0.006104,-0.024,
,,,0.006132,-0.024,
,,,0.00616,-0.024,
,,,0.006188,-0.024,
,,,0.0062160003,-0.024,
,,,0.006244,-0.024,
,,,0.0062720003,-0.024,
,,,0.0063,-0.024,
,,,0.006328,-0.024,
,,,0.006356,-0.024,
,,,0.006384,-0.024,
,,,0.006412,-0.024,
,,,0.00644,-0.016,
,,,0.006468,-0.024,
,,,0.006496,-0.048,
,,,0.0065240003,-0.032,
,,,0.006552,-0.040000003,
,,,0.0065800003,-0.016,
,,,0.006608,-0.024,
,,,0.0066360002,-0.016,
,,,0.006664,-0.024,
,,,0.006692,-0.016,
,,,0.00672,-0.024,
,,,0.006748,-0.024,
,,,0.006776,-0.024,
,,,0.006804,-0.016,
,,,0.006832,-0.024,
,,,0.00686,-0.024,
,,,0.0068880003,-0.016,
,,,0.006916,-0.024,
,,,0.0069440003,-0.024,
,,,0.006972,-0.008,
,,,0.007,-0.024,
,,,0.007028,-0.024,
,,,0.007056,-0.024,
,,,0.007084,-0.024,
,,,0.007112,-0.024,
,,,0.00714,-0.024,
,,,0.007168,-0.016,
,,,0.0071960003,-0.024,
,,,0.007224,-0.024,
,,,0.0072520003,-0.024,
,,,0.00728,-0.016,
,,,0.0073080002,-0.024,
,,,0.007336,-0.024,
,,,0.007364,-0.024,
,,,0.007392,-0.016,
,,,0.00742,-0.024,
,,,0.007448,-0.024,
,,,0.007476,-0.024,
,,,0.0075040003,-0.024,
,,,0.007532,-0.024,
,,,0.0075600003,-0.032,
,,,0.007588,-0.024,
,,,0.0076160002,-0.024,
,,,0.007644,-0.024,
,,,0.007672,-0.024,
,,,0.0077,-0.024,
,,,0.007728,-0.024,
,,,0.007756,-0.016,
,,,0.007784,-0.024,
,,,0.007812,-0.024,
,,,0.00784,-0.016,
,,,0.007868,-0.024,
,,,0.0078960005,-0.024,
,,,0.007924,-0.040000003,
,,,0.007952,-0.024,
,,,0.00798,-0.024,
,,,0.008008,-0.024,
,,,0.008036,-0.016,
,,,0.008064,-0.024,
,,,0.008092,-0.024,
,,,0.00812,-0.024,
,,,0.008148001,-0.024,
,,,0.008176,-0.016,
,,,0.008204,-0.024,
,,,0.008232,-0.024,
,,,0.0082600005,-0.024,
,,,0.008288,0.016,
,,,0.008316,-0.024,
,,,0.008344,-0.024,
,,,0.008372,-0.024,
,,,0.0084,-0.024,
,,,0.008428,-0.024,
,,,0.008456,-0.024,
,,,0.008484,-0.024,
,,,0.008512001,-0.024,
,,,0.00854,-0.024,
,,,0.008568,-0.024,
,,,0.008596,-0.032,
,,,0.0086240005,-0.024,
,,,0.008652,-0.016,
,,,0.00868,-0.024,
,,,0.008708,-0.040000003,
,,,0.008736,-0.016,
,,,0.008764,-0.032,
,,,0.008792,-0.024,
,,,0.00882,-0.016,
,,,0.008848,-0.024,
,,,0.0088760005,-0.024,
,,,0.008904,-0.024,
,,,0.008932,-0.024,
,,,0.00896,0.016,
,,,0.008988,-0.024,
,,,0.009016,-0.024,
,,,0.009044,-0.024,
,,,0.009072,-0.024,
,,,0.0091,-0.016,
,,,0.009128001,-0.008,
,,,0.009156,-0.024,
,,,0.009184,-0.056,
,,,0.009212,-0.024,
,,,0.0092400005,-0.024,
,,,0.009268,-0.024,
,,,0.009296,-0.024,
,,,0.009324,-0.024,
,,,0.009352,-0.024,
,,,0.00938,-0.024,
,,,0.009408,-0.024,
,,,0.009436,-0.024,
,,,0.009464,-0.024,
,,,0.009492001,-0.024,
,,,0.00952,-0.024,
,,,0.009548,-0.016,
,,,0.009576,-0.024,
,,,0.0096040005,-0.016,
,,,0.009632,-0.024,
,,,0.00966,-0.016,
,,,0.009688,-0.024,
,,,0.009716,-0.024,
,,,0.009744,-0.024,
,,,0.009772,-0.024,
,,,0.0098,-0.024,
,,,0.009828,-0.024,
,,,0.009856001,-0.024,
,,,0.009884,-0.024,
,,,0.009912,-0.024,
,,,0.00994,-0.024,
,,,0.009968,-0.024,
,,,0.009996,-0.024,
,,,0.010024,-0.024,
,,,0.010052,-0.024,
,,,0.01008,-0.024,
,,,0.010108001,-0.024,
,,,0.010136,-0.016,
,,,0.010164,-0.024,
,,,0.010192,-0.024,
,,,0.0102200005,-0.024,
,,,0.010248,-0.024,
,,,0.010276,-0.024,
,,,0.010304,-0.024,
,,,0.010332,-0.024,
,,,0.01036,-0.024,
,,,0.010388,-0.024,
,,,0.010416,-0.024,
,,,0.010444,-0.024,
,,,0.010472001,-0.024,
,,,0.0105,0.044000003,
,,,0.010528,-0.024,
,,,0.010556,0.0,
,,,0.0105840005,-0.024,
,,,0.010612,-0.024,
,,,0.01064,-0.024,
,,,0.010668,-0.024,
,,,0.010696,-0.024,
,,,0.010724,-0.024,
,,,0.010752,-0.024,
,,,0.01078,-0.024,
,,,0.010808,-0.024,
,,,0.010836001,-0.024,
,,,0.010864,-0.024,
,,,0.010892,-0.024,
,,,0.01092,-0.016,
,,,0.0109480005,-0.032,
,,,0.010976,-0.024,
,,,0.011004,-0.024,
,,,0.011032,-0.040000003,
,,,0.01106,-0.024,
,,,0.011088001,-0.024,
,,,0.011116,-0.024,
,,,0.011144,-0.024,
,,,0.011172,-0.024,
,,,0.0112000005,-0.024,
,,,0.011228,-0.024,
,,,0.011256,-0.024,
,,,0.011284,-0.024,
,,,0.011312,-0.008,
,,,0.01134,-0.032,
,,,0.011368,-0.024,
,,,0.011396,-0.016,
,,,0.011424,-0.016,
,,,0.011452001,-0.024,
,,,0.01148,-0.024,
,,,0.011508,-0.024,
,,,0.011536,-0.016,
,,,0.0115640005,-0.024,
,,,0.011592,-0.016,
,,,0.01162,-0.024,
,,,0.011648,-0.024,
,,,0.011676,-0.024,
,,,0.011704,-0.024,
,,,0.011732,-0.024,
,,,0.01176,-0.024,
,,,0.011788,-0.024,
,,,0.011816001,-0.024,
,,,0.011844,-0.024,
,,,0.011872,-0.016,
,,,0.0119,-0.024,
,,,0.0119280005,-0.024,
,,,0.011956,-0.024,
,,,0.011984,-0.040000003,
,,,0.012012,-0.024,
,,,0.01204,-0.024,
,,,0.012068001,-0.024,
,,,0.012096,-0.024,
,,,0.012124,-0.024,
,,,0.012152,-0.024,
,,,0.012180001,-0.016,
,,,0.012208,-0.024,
,,,0.012236,-0.024,
,,,0.012264,-0.016,
,,,0.012292,0.052,
,,,0.01232,-0.024,
,,,0.012348,-0.024,
,,,0.012376,-0.024,
,,,0.012404,-0.024,
,,,0.012432001,-0.024,
,,,0.01246,-0.024,
,,,0.012488,-0.024,
,,,0.012516,-0.024,
,,,0.0125440005,-0.024,
,,,0.012572,-0.024,
,,,0.0126,-0.024,
,,,0.012628,-0.024,
,,,0.012656,-0.024,
,,,0.012684,-0.024,
,,,0.012712,-0.032,
,,,0.01274,-0.024,
,,,0.012768,-0.008,
,,,0.012796001,-0.024,
,,,0.012824,-0.024,
,,,0.012852,-0.024,
,,,0.01288,-0.024,
,,,0.0129080005,-0.024,
,,,0.012936,-0.024,
,,,0.012964,-0.024,
,,,0.012992,-0.024,
,,,0.01302,-0.024,
,,,0.013048001,-0.024,
,,,0.013076,-0.024,
,,,0.013104,-0.024,
,,,0.013132,-0.024,
,,,0.013160001,-0.024,
,,,0.013188,-0.064,
,,,0.013216,-0.024,
,,,0.013244,-0.024,
,,,0.0132720005,-0.024,
,,,0.0133,-0.024,
,,,0.013328,-0.024,
,,,0.013356,-0.024,
,,,0.013384,-0.016,
,,,0.013412001,-0.024,
,,,0.01344,-0.024,
,,,0.013468,-0.024,
,,,0.013496,-0.024,
,,,0.0135240005,-0.024,
,,,0.013552,-0.016,
,,,0.01358,-0.024,
,,,0.013608,-0.032,
,,,0.013636,-0.024,
,,,0.013664,0.0,
,,,0.013692,-0.024,
,,,0.01372,-0.024,
,,,0.013748,-0.024,
,,,0.013776001,-0.024,
,,,0.013804,-0.024,
,,,0.013832,-0.024,
,,,0.01386,-0.024,
,,,0.0138880005,-0.024,
,,,0.013916,-0.024,
,,,0.013944,-0.024,
,,,0.013972,-0.024,
,,,0.014,-0.024,
,,,0.014028001,-0.016,
,,,0.014056,-0.024,
,,,0.014084,0.008,
,,,0.014112,-0.024,
,,,0.014140001,-0.056,
,,,0.014168,-0.024,
,,,0.014196,-0.024,
,,,0.014224,-0.024,
,,,0.0142520005,-0.016,
,,,0.01428,-0.024,
,,,0.014308,-0.024,
,,,0.014336,-0.024,
,,,0.014364,-0.024,
,,,0.014392001,-0.024,
,,,0.01442,-0.016,
,,,0.014448,-0.024,
,,,0.014476,-0.024,
,,,0.014504001,0.0,
,,,0.014532,-0.024,
,,,0.01456,-0.024,
,,,0.014588,-0.024,
,,,0.0146160005,-0.024,
,,,0.014644,-0.024,
,,,0.014672,-0.016,
,,,0.0147,-0.024,
,,,0.014728,-0.024,
,,,0.014756001,-0.024,
,,,0.014784,-0.024,
,,,0.014812,-0.024,
,,,0.01484,-0.024,
,,,0.0148680005,-0.024,
,,,0.014896,-0.024,
,,,0.014924,-0.008,
,,,0.014952,-0.024,
,,,0.01498,-0.024,
,,,0.015008001,-0.024,
,,,0.015036,-0.024,
,,,0.015064,-0.024,
,,,0.015092,-0.016,
,,,0.015120001,-0.024,
,,,0.015148,-0.024,
,,,0.015176,-0.024,
,,,0.015204,-0.024,
,,,0.0152320005,-0.024,
,,,0.01526,-0.024,
,,,0.015288,-0.024,
,,,0.015316,-0.024,
,,,0.015344,-0.032,
,,,0.015372001,-0.024,
,,,0.0154,-0.016,
,,,0.015428,-0.024,
,,,0.015456,-0.024,
,,,0.015484001,-0.024,
,,,0.015512,-0.016,
,,,0.01554,-0.024,
,,,0.015568,-0.024,
,,,0.0155960005,-0.024,
,,,0.015624,-0.024,
,,,0.015652,-0.024,
,,,0.01568,-0.024,
,,,0.015708,-0.024,
,,,0.015736,-0.024,
,,,0.015764,-0.024,
,,,0.015792001,-0.024,
,,,0.01582,-0.024,
,,,0.015848,-0.024,
,,,0.015876,-0.024,
,,,0.015904,-0.024,
,,,0.015932,-0.024,
,,,0.01596,-0.024,
,,,0.015988,-0.024,
,,,0.016016,-0.024,
,,,0.016044,-0.024,
,,,0.016072,-0.024,
,,,0.0161,-0.024,
,,,0.016128,-0.016,
,,,0.016156001,-0.024,
,,,0.016184,-0.016,
,,,0.016212,-0.024,
,,,0.01624,-0.024,
,,,0.016268,-0.024,
,,,0.016296001,-0.040000003,
,,,0.016324,-0.016,
,,,0.016352,-0.024,
,,,0.01638,-0.024,
,,,0.016408,-0.024,
,,,0.016436,-0.024,
,,,0.016464,-0.024,
,,,0.016492,-0.024,
,,,0.016520001,-0.024,
,,,0.016548,-0.024,
,,,0.016576,-0.024,
,,,0.016604,-0.024,
,,,0.016632,-0.024,
,,,0.016660001,-0.024,
,,,0.016688,-0.024,
,,,0.016716,-0.024,
,,,0.016744,-0.024,
,,,0.016772,-0.016,
,,,0.0168,-0.024,
,,,0.016828,-0.024,
,,,0.016856,-0.024,
,,,0.016884001,-0.024,
,,,0.016912,-0.024,
,,,0.01694,-0.024,
,,,0.016968,-0.024,
,,,0.016996,-0.024,
,,,0.017024001,-0.024,
,,,0.017052,-0.016,
,,,0.01708,-0.024,
,,,0.017108,-0.016,
,,,0.017136,-0.032,
,,,0.017164,-0.016,
,,,0.017192,0.0,
,,,0.01722,-0.024,
,,,0.017248001,-0.024,
,,,0.017276,-0.024,
,,,0.017304,-0.024,
,,,0.017332,-0.024,
,,,0.01736,-0.024,
,,,0.017388001,-0.024,
,,,0.017416,-0.024,
,,,0.017444,-0.032,
,,,0.017472,-0.024,
,,,0.0175,-0.024,
,,,0.017528,-0.032,
,,,0.017556,-0.024,
,,,0.017584,-0.024,
,,,0.017612,-0.024,
,,,0.01764,-0.024,
,,,0.017668,0.008,
,,,0.017696,-0.024,
,,,0.017724,-0.024,
,,,0.017752001,-0.024,
,,,0.01778,-0.024,
,,,0.017808,-0.032,
,,,0.017836,-0.024,
,,,0.017864,-0.024,
,,,0.017892,-0.024,
,,,0.01792,-0.024,
,,,0.017948,-0.024,
,,,0.017976,-0.016,
,,,0.018004,-0.024,
,,,0.018032,-0.024,
,,,0.01806,-0.024,
,,,0.018088,-0.024,
,,,0.018116001,-0.016,
,,,0.018144,-0.024,
,,,0.018172,-0.024,
,,,0.0182,-0.016,
,,,0.018228,-0.024,
,,,0.018256001,-0.024,
,,,0.018284,-0.024,
,,,0.018312,-0.024,
,,,0.01834,-0.024,
,,,0.018368,-0.024,
,,,0.018396,-0.024,
,,,0.018424,-0.024,
,,,0.018452,-0.024,
,,,0.018480001,-0.024,
,,,0.018508,0.024,
,,,0.018536,-0.024,
,,,0.018564,-0.040000003,
,,,0.018592,-0.024,
,,,0.018620001,-0.024,
,,,0.018648,-0.024,
,,,0.018676,-0.024,
,,,0.018704,-0.024,
,,,0.018732,-0.024,
,,,0.01876,-0.024,
,,,0.018788,-0.024,
,,,0.018816,-0.024,
,,,0.018844001,-0.032,
,,,0.018872,-0.016,
,,,0.0189,-0.024,
,,,0.018928,-0.024,
,,,0.018956,-0.016,
,,,0.018984001,-0.024,
,,,0.019012,-0.024,
,,,0.01904,-0.024,
,,,0.019068,-0.024,
,,,0.019096,-0.024,
,,,0.019124,-0.024,
,,,0.019152,-0.024,
,,,0.01918,-0.016,
,,,0.019208001,-0.024,
,,,0.019236,-0.016,
,,,0.019264,-0.024,
,,,0.019292,-0.024,
,,,0.01932,-0.024,
,,,0.019348001,-0.016,
,,,0.019376,-0.024,
,,,0.019404,-0.008,
,,,0.019432,-0.024,
,,,0.01946,-0.024,
,,,0.019488,-0.024,
,,,0.019516,-0.016,
,,,0.019544,-0.024,
,,,0.019572001,-0.024,
,,,0.0196,-0.032,
,,,0.019628,-0.024,
,,,0.019656,-0.016,
,,,0.019684,-0.024,
,,,0.019712001,-0.024,
,,,0.01974,-0.024,
,,,0.019768,-0.024,
,,,0.019796,-0.024,
,,,0.019824,-0.016,
,,,0.019852,-0.016,
,,,0.01988,-0.024,
,,,0.019908,-0.024,
,,,0.019936,-0.024,
,,,0.019964,-0.024,
,,,0.019992,-0.024,
,,,0.02002,-0.024,
,,,0.020048,-0.024,
,,,0.020076001,-0.024,
,,,0.020104,-0.024,
,,,0.020132,-0.024,
,,,0.02016,-0.024,
,,,0.020188,-0.024,
,,,0.020216001,-0.024,
,,,0.020244,-0.024,
,,,0.020272,-0.024,
,,,0.0203,-0.008,
,,,0.020328,-0.024,
,,,0.020356,-0.024,
,,,0.020384,-0.024,
,,,0.020412,-0.024,
,,,0.020440001,-0.024,
,,,0.020468,-0.024,
,,,0.020496,-0.024,
,,,0.020524,-0.024,
,,,0.020552,-0.040000003,
,,,0.020580001,-0.024,
,,,0.020608,-0.016,
,,,0.020636,-0.008,
,,,0.020664,-0.016,
,,,0.020692,-0.024,
,,,0.02072,-0.032,
,,,0.020748,-0.024,
,,,0.020776,0.0,
,,,0.020804001,-0.024,
,,,0.020832,-0.016,
,,,0.02086,-0.024,
,,,0.020888,-0.024,
,,,0.020916,-0.016,
,,,0.020944001,-0.024,
,,,0.020972,-0.024,
,,,0.021,-0.024,
,,,0.021028,-0.016,
,,,0.021056,-0.024,
,,,0.021084,-0.024,
,,,0.021112,-0.024,
,,,0.02114,-0.032,
,,,0.021168001,-0.024,
,,,0.021196,-0.016,
,,,0.021224,-0.024,
,,,0.021252,-0.024,
,,,0.02128,-0.024,
,,,0.021308001,-0.024,
,,,0.021336,-0.024,
,,,0.021364,-0.024,
,,,0.021392,-0.024,
,,,0.02142,-0.024,
,,,0.021448,-0.024,
,,,0.021476,-0.024,
,,,0.021504,-0.024,
,,,0.021532001,-0.024,
,,,0.02156,-0.024,
,,,0.021588,-0.016,
,,,0.021616,-0.024,
,,,0.021644,-0.016,
,,,0.021672001,-0.016,
,,,0.0217,-0.024,
,,,0.021728,-0.024,
,,,0.021756,-0.024,
,,,0.021784,-0.024,
,,,0.021812,-0.024,
,,,0.02184,-0.016,
,,,0.021868,-0.024,
,,,0.021896001,-0.024,
,,,0.021924,-0.024,
,,,0.021952,-0.016,
,,,0.02198,-0.024,
,,,0.022008,-0.024,
,,,0.022036001,-0.024,
,,,0.022064,-0.024,
,,,0.022092,-0.008,
,,,0.02212,-0.024,
,,,0.022148,-0.024,
,,,0.022176001,-0.024,
,,,0.022204,-0.024,
,,,0.022232,-0.024,
,,,0.02226,-0.024,
,,,0.022288,-0.024,
,,,0.022316,-0.024,
,,,0.022344,-0.024,
,,,0.022372,-0.024,
,,,0.022400001,-0.024,
,,,0.022428,-0.024,
,,,0.022456,-0.016,
,,,0.022484,-0.024,
,,,0.022512,-0.032,
,,,0.022540001,-0.024,
,,,0.022568,-0.024,
,,,0.022596,-0.016,
,,,0.022624,-0.040000003,
,,,0.022652,-0.024,
,,,0.02268,-0.024,
,,,0.022708,0.0,
,,,0.022736,-0.024,
,,,0.022764001,-0.024,
,,,0.022792,-0.024,
,,,0.02282,-0.024,
,,,0.022848,-0.024,
,,,0.022876,-0.024,
,,,0.022904001,-0.016,
,,,0.022932,-0.032,
,,,0.02296,-0.024,
,,,0.022988,-0.032,
,,,0.023016,-0.024,
,,,0.023044,-0.024,
,,,0.023072,-0.024,
,,,0.0231,-0.024,
,,,0.023128001,-0.024,
,,,0.023156,-0.024,
,,,0.023184,-0.024,
,,,0.023212,-0.024,
,,,0.02324,-0.024,
,,,0.023268001,-0.024,
,,,0.023296,-0.024,
,,,0.023324,-0.024,
,,,0.023352,-0.016,
,,,0.02338,-0.024,
,,,0.023408,-0.064,
,,,0.023436,-0.024,
,,,0.023464,-0.024,
,,,0.023492001,-0.016,
,,,0.02352,-0.016,
,,,0.023548,-0.024,
,,,0.023576,-0.024,
,,,0.023604,-0.024,
,,,0.023632001,-0.024,
,,,0.02366,-0.016,
,,,0.023688,-0.024,
,,,0.023716,-0.024,
,,,0.023744,-0.024,
,,,0.023772,-0.016,
,,,0.0238,-0.024,
,,,0.023828,-0.016,
,,,0.023856001,-0.024,
,,,0.023884,-0.024,
,,,0.023912,-0.024,
,,,0.02394,-0.024,
,,,0.023968,-0.024,
,,,0.023996001,-0.024,
,,,0.024024,-0.032,
,,,0.024052,-0.024,
,,,0.02408,-0.024,
,,,0.024108,-0.024,
,,,0.024136001,-0.024,
,,,0.024164,-0.024,
,,,0.024192,-0.024,
,,,0.024220001,-0.024,
,,,0.024248,-0.024,
,,,0.024276,-0.024,
,,,0.024304,0.024,
,,,0.024332,-0.024,
,,,0.024360001,-0.016,
,,,0.024388,-0.024,
,,,0.024416,-0.024,
,,,0.024444,-0.024,
,,,0.024472,-0.024,
,,,0.024500001,-0.024,
,,,0.024528,-0.024,
,,,0.024556,-0.024,
,,,0.024584,-0.024,
,,,0.024612,-0.024,
,,,0.02464,-0.024,
,,,0.024668,-0.016,
,,,0.024696,-0.024,
,,,0.024724001,0.024,
,,,0.024752,-0.024,
,,,0.02478,0.008,
,,,0.024808,-0.024,
,,,0.024836,-0.024,
,,,0.024864001,-0.024,
,,,0.024892,-0.024,
,,,0.02492,-0.024,
,,,0.024948,-0.024,
,,,0.024976,-0.024,
,,,0.025004,-0.024,
,,,0.025032,-0.016,
,,,0.02506,-0.016,
,,,0.025088001,-0.024,
,,,0.025116,-0.024,
,,,0.025144,-0.024,
,,,0.025172,-0.024,
,,,0.0252,-0.016,
,,,0.025228001,-0.024,
,,,0.025256,-0.024,
,,,0.025284,-0.024,
,,,0.025312,-0.024,
,,,0.02534,-0.024,
,,,0.025368,-0.024,
,,,0.025396,-0.024,
,,,0.025424,-0.024,
,,,0.025452001,-0.024,
,,,0.02548,-0.024,
,,,0.025508,-0.024,
,,,0.025536,-0.024,
,,,0.025564,-0.024,
,,,0.025592001,-0.024,
,,,0.02562,-0.016,
,,,0.025648,-0.024,
,,,0.025676,-0.024,
,,,0.025704,-0.024,
,,,0.025732,-0.024,
,,,0.02576,-0.024,
,,,0.025788,-0.024,
,,,0.025816001,-0.024,
,,,0.025844,-0.024,
,,,0.025872,-0.024,
,,,0.0259,-0.024,
,,,0.025928,-0.024,
,,,0.025956001,-0.024,
,,,0.025984,-0.024,
,,,0.026012,-0.024,
,,,0.02604,-0.024,
,,,0.026068,-0.024,
,,,0.026096001,0.044000003,
,,,0.026124,-0.024,
,,,0.026152,-0.024,
,,,0.026180001,-0.024,
,,,0.026208,-0.024,
,,,0.026236,-0.024,
,,,0.026264,-0.024,
,,,0.026292,-0.024,
,,,0.026320001,-0.024,
,,,0.026348,-0.024,
,,,0.026376,-0.024,
,,,0.026404,-0.024,
,,,0.026432,-0.024,
,,,0.026460001,-0.024,
,,,0.026488,-0.024,
,,,0.026516,0.032,
,,,0.026544001,-0.024,
,,,0.026572,-0.024,
,,,0.0266,-0.024,
,,,0.026628,-0.024,
,,,0.026656,-0.024,
,,,0.026684001,-0.024,
,,,0.026712,-0.024,
,,,0.02674,-0.024,
,,,0.026768,-0.024,
,,,0.026796,-0.024,
,,,0.026824001,-0.024,
,,,0.026852,-0.024,
,,,0.02688,-0.024,
,,,0.026908,-0.024,
,,,0.026936,-0.040000003,
,,,0.026964,-0.024,
,,,0.026992,-0.016,
,,,0.02702,-0.024,
,,,0.027048001,-0.016,
