measurements/Scope P14Pro_Stop_PWM_input.csv

ProID,Info,,time,Value,
GenTime,2009-09-01 06:29:22,,0.0,-0.64000005,
Record Length,100000 Points,,7.0E-7,-0.528,
Sample Interval,7.0E-7 s,,1.4E-6,-0.41200003,
Trigger Time,0.0 s,,2.1E-6,-0.32000002,
Source,CH1,,2.8E-6,-0.24800001,
Vertical Units,(V)/grid,,3.4999998E-6,-0.19600001,
Vertical Scale,0.2,,4.2E-6,-0.156,
Vertical Offset,61,,4.9E-6,-0.116000004,
Horizontal Units,s/grid,,5.6E-6,-0.096,
Horizontal Scale,0.005,,6.2999998E-6,-0.080000006,
Probe Atten,10.0,,6.9999996E-6,-0.072000004,
,,,7.6999995E-6,-0.056,
,,,8.4E-6,-0.048,
,,,9.1E-6,-0.048,
,,,9.8E-6,-0.040000003,
,,,1.05E-5,-0.040000003,
,,,1.12E-5,-0.032,
,,,1.19E-5,-0.032,
,,,1.25999995E-5,-0.108,
,,,1.3299999E-5,-0.22000001,
,,,1.3999999E-5,-0.33600003,
,,,1.47E-5,-0.42800003,
,,,1.5399999E-5,-0.492,
,,,1.6099999E-5,-0.55200005,
,,,1.68E-5,-0.592,
,,,1.75E-5,-0.624,
,,,1.82E-5,-0.648,
,,,1.89E-5,-0.66400003,
,,,1.96E-5,-0.684,
,,,2.03E-5,-0.66400003,
,,,2.1E-5,-0.56,
,,,2.17E-5,-0.43600002,
,,,2.24E-5,-0.33600003,
,,,2.31E-5,-0.264,
,,,2.38E-5,-0.20400001,
,,,2.45E-5,-0.164,
,,,2.5199999E-5,-0.132,
,,,2.5899999E-5,-0.096,
,,,2.6599999E-5,-0.080000006,
,,,2.7299999E-5,-0.072000004,
,,,2.7999999E-5,-0.056,
,,,2.87E-5,-0.056,
,,,2.94E-5,-0.008,
,,,3.01E-5,-0.040000003,
,,,3.0799998E-5,-0.040000003,
,,,3.15E-5,-0.040000003,
,,,3.2199998E-5,-0.116000004,
,,,3.29E-5,-0.23600002,
,,,3.36E-5,-0.344,
,,,3.43E-5,-0.43600002,
,,,3.5E-5,-0.508,
,,,3.57E-5,-0.56,
,,,3.64E-5,-0.592,
,,,3.71E-5,-0.624,
,,,3.78E-5,-0.656,
,,,3.85E-5,-0.67600006,
,,,3.92E-5,-0.69200003,
,,,3.99E-5,-0.67600006,
,,,4.06E-5,-0.56,
,,,4.1299998E-5,-0.43600002,
,,,4.2E-5,-0.33600003,
,,,4.2699998E-5,-0.264,
,,,4.34E-5,-0.20400001,
,,,4.4099997E-5,-0.164,
,,,4.48E-5,-0.132,
,,,4.55E-5,-0.048,
,,,4.62E-5,-0.08800001,
,,,4.69E-5,-0.072000004,
,,,4.76E-5,-0.064,
,,,4.83E-5,-0.056,
,,,4.9E-5,-0.048,
,,,4.97E-5,-0.040000003,
,,,5.0399998E-5,-0.040000003,
,,,5.11E-5,-0.040000003,
,,,5.1799998E-5,-0.116000004,
,,,5.25E-5,-0.23600002,
,,,5.3199998E-5,-0.33600003,
,,,5.39E-5,-0.43600002,
,,,5.4599997E-5,-0.508,
,,,5.53E-5,-0.56,
,,,5.5999997E-5,-0.60800004,
,,,5.67E-5,-0.632,
,,,5.74E-5,-0.656,
,,,5.81E-5,-0.684,
,,,5.88E-5,-0.70000005,
,,,5.95E-5,-0.67600006,
,,,6.02E-5,-0.56,
,,,6.0899998E-5,-0.44400004,
,,,6.1599996E-5,-0.33600003,
,,,6.23E-5,-0.264,
,,,6.3E-5,-0.20400001,
,,,6.37E-5,-0.164,
,,,6.4399996E-5,-0.132,
,,,6.51E-5,-0.108,
,,,6.58E-5,-0.08800001,
,,,6.65E-5,-0.072000004,
,,,6.72E-5,-0.064,
,,,6.79E-5,-0.048,
,,,6.86E-5,-0.048,
,,,6.93E-5,-0.048,
,,,7.0E-5,-0.040000003,
,,,7.07E-5,-0.040000003,
,,,7.14E-5,-0.124000005,
,,,7.2099996E-5,-0.24800001,
,,,7.28E-5,-0.35200003,
,,,7.35E-5,-0.44400004,
,,,7.42E-5,-0.51600003,
,,,7.4899996E-5,-0.568,
,,,7.56E-5,-0.60800004,
,,,7.63E-5,-0.64000005,
,,,7.7E-5,-0.66400003,
,,,7.7699995E-5,-0.716,
,,,7.84E-5,-0.708,
,,,7.91E-5,-0.684,
,,,7.98E-5,-0.56,
,,,8.05E-5,-0.44400004,
,,,8.12E-5,-0.33600003,
,,,8.19E-5,-0.264,
,,,8.2599996E-5,-0.20400001,
,,,8.33E-5,-0.164,
,,,8.4E-5,-0.132,
,,,8.47E-5,-0.108,
,,,8.5399995E-5,-0.08800001,
,,,8.61E-5,-0.064,
,,,8.68E-5,-0.064,
,,,8.75E-5,-0.056,
,,,8.8199995E-5,-0.056,
,,,8.89E-5,-0.040000003,
,,,8.96E-5,-0.040000003,
,,,9.03E-5,-0.040000003,
,,,9.1E-5,-0.124000005,
,,,9.17E-5,-0.24800001,
,,,9.24E-5,-0.36,
,,,9.3099996E-5,-0.45200002,
,,,9.38E-5,-0.508,
,,,9.45E-5,-0.57600003,
,,,9.52E-5,-0.61600006,
,,,9.5899995E-5,-0.648,
,,,9.66E-5,-0.67600006,
,,,9.73E-5,-0.69200003,
,,,9.8E-5,-0.708,
,,,9.8699995E-5,-0.684,
,,,9.94E-5,-0.56,
,,,1.001E-4,-0.43600002,
,,,1.00799996E-4,-0.33600003,
,,,1.015E-4,-0.264,
,,,1.022E-4,-0.22000001,
,,,1.029E-4,-0.164,
,,,1.03599996E-4,-0.132,
,,,1.043E-4,-0.108,
,,,1.05E-4,-0.080000006,
,,,1.057E-4,-0.072000004,
,,,1.06399995E-4,-0.064,
,,,1.071E-4,-0.056,
,,,1.078E-4,-0.040000003,
,,,1.085E-4,-0.040000003,
,,,1.09199995E-4,-0.040000003,
,,,1.099E-4,-0.024,
,,,1.106E-4,-0.124000005,
,,,1.11299996E-4,-0.256,
,,,1.11999994E-4,-0.36,
,,,1.127E-4,-0.45200002,
,,,1.134E-4,-0.528,
,,,1.14099996E-4,-0.57600003,
,,,1.148E-4,-0.61600006,
,,,1.155E-4,-0.648,
,,,1.162E-4,-0.67600006,
,,,1.16899995E-4,-0.70000005,
,,,1.176E-4,-0.708,
,,,1.183E-4,-0.74,
,,,1.19E-4,-0.716,
,,,1.19699995E-4,-0.6,
,,,1.204E-4,-0.476,
,,,1.211E-4,-0.36800003,
,,,1.21799996E-4,-0.28800002,
,,,1.225E-4,-0.22000001,
,,,1.2319999E-4,-0.18,
,,,1.239E-4,-0.14,
,,,1.246E-4,-0.116000004,
,,,1.253E-4,-0.08800001,
,,,1.26E-4,-0.072000004,
,,,1.267E-4,-0.080000006,
,,,1.274E-4,-0.056,
,,,1.281E-4,-0.048,
,,,1.2879999E-4,-0.040000003,
,,,1.295E-4,-0.048,
,,,1.302E-4,-0.14,
,,,1.3089999E-4,-0.264,
,,,1.316E-4,-0.36800003,
,,,1.323E-4,-0.46,
,,,1.33E-4,-0.528,
,,,1.337E-4,-0.58400005,
,,,1.344E-4,-0.61600006,
,,,1.351E-4,-0.656,
,,,1.358E-4,-0.684,
,,,1.3649999E-4,-0.70000005,
,,,1.372E-4,-0.708,
,,,1.379E-4,-0.73200005,
,,,1.386E-4,-0.716,
,,,1.393E-4,-0.6,
,,,1.4E-4,-0.476,
,,,1.407E-4,-0.36800003,
,,,1.414E-4,-0.28800002,
,,,1.4209999E-4,-0.19600001,
,,,1.428E-4,-0.148,
,,,1.435E-4,-0.132,
,,,1.4419999E-4,-0.116000004,
,,,1.449E-4,-0.08800001,
,,,1.456E-4,-0.072000004,
,,,1.463E-4,-0.064,
,,,1.47E-4,-0.056,
,,,1.477E-4,-0.048,
,,,1.484E-4,-0.048,
,,,1.491E-4,-0.048,
,,,1.4979999E-4,-0.14,
,,,1.505E-4,-0.28800002,
,,,1.512E-4,-0.37600002,
,,,1.5189999E-4,-0.46800002,
,,,1.526E-4,-0.536,
,,,1.533E-4,-0.58400005,
,,,1.54E-4,-0.624,
,,,1.547E-4,-0.656,
,,,1.5539999E-4,-0.684,
,,,1.561E-4,-0.70000005,
,,,1.568E-4,-0.72400004,
,,,1.5749999E-4,-0.73200005,
,,,1.582E-4,-0.716,
,,,1.589E-4,-0.6,
,,,1.596E-4,-0.46800002,
,,,1.603E-4,-0.36800003,
,,,1.61E-4,-0.296,
,,,1.617E-4,-0.22000001,
,,,1.624E-4,-0.18,
,,,1.6309999E-4,-0.14,
,,,1.638E-4,-0.116000004,
,,,1.645E-4,-0.08800001,
,,,1.6519999E-4,-0.080000006,
,,,1.659E-4,-0.064,
,,,1.666E-4,-0.08800001,
,,,1.673E-4,-0.056,
,,,1.68E-4,-0.040000003,
,,,1.687E-4,-0.048,
,,,1.694E-4,-0.148,
,,,1.701E-4,-0.28,
,,,1.7079999E-4,-0.388,
,,,1.715E-4,-0.46,
,,,1.722E-4,-0.544,
,,,1.7289999E-4,-0.592,
,,,1.736E-4,-0.632,
,,,1.743E-4,-0.66400003,
,,,1.75E-4,-0.70000005,
,,,1.757E-4,-0.716,
,,,1.7639999E-4,-0.72400004,
,,,1.771E-4,-0.73200005,
,,,1.778E-4,-0.72400004,
,,,1.7849999E-4,-0.6,
,,,1.792E-4,-0.476,
,,,1.799E-4,-0.36800003,
,,,1.806E-4,-0.28800002,
,,,1.813E-4,-0.22000001,
,,,1.82E-4,-0.18,
,,,1.827E-4,-0.156,
,,,1.834E-4,-0.108,
,,,1.8409999E-4,-0.096,
,,,1.848E-4,-0.080000006,
,,,1.855E-4,-0.064,
,,,1.8619999E-4,-0.056,
,,,1.869E-4,-0.048,
,,,1.876E-4,-0.048,
,,,1.883E-4,-0.048,
,,,1.89E-4,-0.148,
,,,1.8969999E-4,-0.28,
,,,1.904E-4,-0.388,
,,,1.911E-4,-0.492,
,,,1.9179999E-4,-0.536,
,,,1.925E-4,-0.6,
,,,1.932E-4,-0.632,
,,,1.9389999E-4,-0.66400003,
,,,1.946E-4,-0.69200003,
,,,1.953E-4,-0.716,
,,,1.96E-4,-0.72400004,
,,,1.967E-4,-0.74,
,,,1.9739999E-4,-0.748,
,,,1.981E-4,-0.73200005,
,,,1.988E-4,-0.60800004,
,,,1.9949999E-4,-0.48400003,
,,,2.002E-4,-0.37600002,
,,,2.009E-4,-0.28800002,
,,,2.0159999E-4,-0.22800002,
,,,2.023E-4,-0.18,
,,,2.03E-4,-0.14,
,,,2.037E-4,-0.116000004,
,,,2.044E-4,-0.096,
,,,2.0509999E-4,-0.080000006,
,,,2.058E-4,-0.064,
,,,2.065E-4,-0.056,
,,,2.0719999E-4,-0.064,
,,,2.079E-4,-0.064,
,,,2.086E-4,-0.164,
,,,2.093E-4,-0.28800002,
,,,2.1E-4,-0.39600003,
,,,2.1069999E-4,-0.48400003,
,,,2.114E-4,-0.55200005,
,,,2.121E-4,-0.60800004,
,,,2.1279999E-4,-0.648,
,,,2.135E-4,-0.67600006,
,,,2.142E-4,-0.70000005,
,,,2.1489999E-4,-0.708,
,,,2.156E-4,-0.73200005,
,,,2.163E-4,-0.748,
,,,2.17E-4,-0.748,
,,,2.177E-4,-0.73200005,
,,,2.1839999E-4,-0.61600006,
,,,2.191E-4,-0.48400003,
,,,2.198E-4,-0.37600002,
,,,2.2049999E-4,-0.28800002,
,,,2.212E-4,-0.22800002,
,,,2.219E-4,-0.18,
,,,2.2259999E-4,-0.148,
,,,2.233E-4,-0.148,
,,,2.2399999E-4,-0.08800001,
,,,2.247E-4,-0.080000006,
,,,2.254E-4,-0.064,
,,,2.2609999E-4,-0.056,
,,,2.268E-4,-0.048,
,,,2.275E-4,-0.056,
,,,2.2819999E-4,-0.164,
,,,2.289E-4,-0.28800002,
,,,2.296E-4,-0.404,
,,,2.303E-4,-0.48400003,
,,,2.31E-4,-0.56,
,,,2.3169999E-4,-0.61600006,
,,,2.324E-4,-0.64000005,
,,,2.331E-4,-0.684,
,,,2.3379999E-4,-0.70000005,
,,,2.345E-4,-0.72400004,
,,,2.352E-4,-0.73200005,
,,,2.3589999E-4,-0.748,
,,,2.366E-4,-0.75600004,
,,,2.373E-4,-0.74,
,,,2.38E-4,-0.60800004,
,,,2.387E-4,-0.48400003,
,,,2.3939999E-4,-0.42000002,
,,,2.401E-4,-0.30400002,
,,,2.408E-4,-0.22800002,
,,,2.4149999E-4,-0.18,
,,,2.422E-4,-0.14,
,,,2.429E-4,-0.116000004,
,,,2.4359999E-4,-0.096,
,,,2.443E-4,-0.080000006,
,,,2.45E-4,-0.064,
,,,2.457E-4,-0.056,
,,,2.4639998E-4,-0.048,
,,,2.471E-4,-0.056,
,,,2.478E-4,-0.156,
,,,2.485E-4,-0.296,
,,,2.492E-4,-0.404,
,,,2.4989998E-4,-0.492,
,,,2.506E-4,-0.56,
,,,2.513E-4,-0.60800004,
,,,2.52E-4,-0.648,
,,,2.527E-4,-0.684,
,,,2.534E-4,-0.708,
,,,2.5409998E-4,-0.72400004,
,,,2.548E-4,-0.74,
,,,2.555E-4,-0.73200005,
,,,2.562E-4,-0.78000003,
,,,2.569E-4,-0.748,
,,,2.5759998E-4,-0.60800004,
,,,2.583E-4,-0.476,
,,,2.59E-4,-0.37600002,
,,,2.597E-4,-0.296,
,,,2.604E-4,-0.22800002,
,,,2.611E-4,-0.18,
,,,2.6179999E-4,-0.14,
,,,2.625E-4,-0.116000004,
,,,2.632E-4,-0.096,
,,,2.639E-4,-0.072000004,
,,,2.646E-4,-0.064,
,,,2.6529998E-4,-0.056,
,,,2.66E-4,-0.048,
,,,2.667E-4,-0.056,
,,,2.674E-4,-0.172,
,,,2.681E-4,-0.296,
,,,2.688E-4,-0.41200003,
,,,2.695E-4,-0.492,
,,,2.702E-4,-0.568,
,,,2.709E-4,-0.60800004,
,,,2.716E-4,-0.64000005,
,,,2.723E-4,-0.66400003,
,,,2.7299998E-4,-0.708,
,,,2.737E-4,-0.73200005,
,,,2.744E-4,-0.74,
,,,2.751E-4,-0.75600004,
,,,2.758E-4,-0.76400006,
,,,2.7649998E-4,-0.74,
,,,2.772E-4,-0.60800004,
,,,2.779E-4,-0.48400003,
,,,2.786E-4,-0.37600002,
,,,2.793E-4,-0.28800002,
,,,2.8E-4,-0.24800001,
,,,2.8069998E-4,-0.18,
,,,2.814E-4,-0.14,
,,,2.821E-4,-0.116000004,
,,,2.828E-4,-0.096,
,,,2.835E-4,-0.080000006,
,,,2.8419998E-4,-0.064,
,,,2.849E-4,-0.056,
,,,2.856E-4,-0.048,
,,,2.863E-4,-0.064,
,,,2.87E-4,-0.18,
,,,2.877E-4,-0.32000002,
,,,2.8839998E-4,-0.43600002,
,,,2.891E-4,-0.5,
,,,2.898E-4,-0.568,
,,,2.905E-4,-0.61600006,
,,,2.912E-4,-0.656,
,,,2.9189998E-4,-0.69200003,
,,,2.926E-4,-0.716,
,,,2.933E-4,-0.73200005,
,,,2.94E-4,-0.74,
,,,2.947E-4,-0.772,
,,,2.954E-4,-0.76400006,
,,,2.9609998E-4,-0.78800005,
,,,2.968E-4,-0.75600004,
,,,2.975E-4,-0.64000005,
,,,2.982E-4,-0.5,
,,,2.989E-4,-0.39600003,
,,,2.9959998E-4,-0.30400002,
,,,3.003E-4,-0.23600002,
,,,3.01E-4,-0.18800001,
,,,3.017E-4,-0.148,
,,,3.024E-4,-0.124000005,
,,,3.031E-4,-0.096,
,,,3.0379998E-4,-0.08800001,
,,,3.045E-4,-0.048,
,,,3.052E-4,-0.048,
,,,3.059E-4,-0.064,
,,,3.066E-4,-0.18800001,
,,,3.0729998E-4,-0.312,
,,,3.08E-4,-0.42000002,
,,,3.087E-4,-0.5,
,,,3.094E-4,-0.57600003,
,,,3.101E-4,-0.624,
,,,3.1079998E-4,-0.66400003,
,,,3.1149999E-4,-0.69200003,
,,,3.122E-4,-0.716,
,,,3.129E-4,-0.74,
,,,3.136E-4,-0.748,
,,,3.143E-4,-0.76400006,
,,,3.1499998E-4,-0.772,
,,,3.157E-4,-0.78000003,
,,,3.164E-4,-0.76400006,
,,,3.171E-4,-0.632,
,,,3.178E-4,-0.5,
,,,3.1849998E-4,-0.388,
,,,3.192E-4,-0.30400002,
,,,3.199E-4,-0.24800001,
,,,3.206E-4,-0.18800001,
,,,3.213E-4,-0.148,
,,,3.22E-4,-0.124000005,
,,,3.2269998E-4,-0.096,
,,,3.234E-4,-0.080000006,
,,,3.241E-4,-0.072000004,
,,,3.248E-4,-0.056,
,,,3.255E-4,-0.072000004,
,,,3.2619998E-4,-0.18800001,
,,,3.269E-4,-0.32000002,
,,,3.276E-4,-0.42800003,
,,,3.283E-4,-0.44400004,
,,,3.29E-4,-0.57600003,
,,,3.297E-4,-0.624,
,,,3.3039998E-4,-0.66400003,
,,,3.311E-4,-0.70000005,
,,,3.318E-4,-0.72400004,
,,,3.325E-4,-0.74,
,,,3.332E-4,-0.75600004,
,,,3.3389998E-4,-0.76400006,
,,,3.346E-4,-0.772,
,,,3.353E-4,-0.78000003,
,,,3.36E-4,-0.76400006,
,,,3.367E-4,-0.656,
,,,3.374E-4,-0.5,
,,,3.3809998E-4,-0.39600003,
,,,3.388E-4,-0.30400002,
,,,3.395E-4,-0.23600002,
,,,3.402E-4,-0.18800001,
,,,3.409E-4,-0.148,
,,,3.4159998E-4,-0.116000004,
,,,3.423E-4,-0.096,
,,,3.43E-4,-0.080000006,
,,,3.437E-4,-0.064,
,,,3.444E-4,-0.064,
,,,3.4509998E-4,-0.064,
,,,3.4579998E-4,-0.18800001,
,,,3.465E-4,-0.32000002,
,,,3.472E-4,-0.42800003,
,,,3.479E-4,-0.508,
,,,3.486E-4,-0.58400005,
,,,3.4929998E-4,-0.632,
,,,3.5E-4,-0.66400003,
,,,3.507E-4,-0.70000005,
,,,3.514E-4,-0.72400004,
,,,3.521E-4,-0.74,
,,,3.5279998E-4,-0.72400004,
,,,3.5349999E-4,-0.75600004,
,,,3.542E-4,-0.772,
,,,3.549E-4,-0.78800005,
,,,3.556E-4,-0.76400006,
,,,3.563E-4,-0.632,
,,,3.5699998E-4,-0.492,
,,,3.577E-4,-0.388,
,,,3.584E-4,-0.312,
,,,3.591E-4,-0.23600002,
,,,3.598E-4,-0.18,
,,,3.6049998E-4,-0.156,
,,,3.612E-4,-0.132,
,,,3.619E-4,-0.096,
,,,3.626E-4,-0.080000006,
,,,3.633E-4,-0.072000004,
,,,3.64E-4,-0.056,
,,,3.6469998E-4,-0.080000006,
,,,3.654E-4,-0.19600001,
,,,3.661E-4,-0.328,
,,,3.668E-4,-0.43600002,
,,,3.675E-4,-0.528,
,,,3.6819998E-4,-0.58400005,
,,,3.689E-4,-0.684,
,,,3.696E-4,-0.67600006,
,,,3.703E-4,-0.70000005,
,,,3.71E-4,-0.72400004,
,,,3.717E-4,-0.748,
,,,3.7239998E-4,-0.75600004,
,,,3.731E-4,-0.772,
,,,3.738E-4,-0.78000003,
,,,3.745E-4,-0.78800005,
,,,3.752E-4,-0.76400006,
,,,3.7589998E-4,-0.632,
,,,3.766E-4,-0.492,
,,,3.773E-4,-0.388,
,,,3.78E-4,-0.296,
,,,3.787E-4,-0.23600002,
,,,3.7939998E-4,-0.18800001,
,,,3.8009998E-4,-0.148,
,,,3.808E-4,-0.124000005,
,,,3.815E-4,-0.096,
,,,3.822E-4,-0.080000006,
,,,3.829E-4,-0.072000004,
,,,3.8359998E-4,-0.056,
,,,3.843E-4,-0.080000006,
,,,3.85E-4,-0.20400001,
,,,3.857E-4,-0.328,
,,,3.864E-4,-0.43600002,
,,,3.8709998E-4,-0.528,
,,,3.8779998E-4,-0.58400005,
,,,3.885E-4,-0.632,
,,,3.892E-4,-0.67600006,
,,,3.899E-4,-0.708,
,,,3.906E-4,-0.73200005,
,,,3.9129998E-4,-0.748,
,,,3.92E-4,-0.76400006,
,,,3.927E-4,-0.772,
,,,3.934E-4,-0.772,
,,,3.941E-4,-0.78800005,
,,,3.9479998E-4,-0.79600006,
,,,3.9549998E-4,-0.76400006,
,,,3.962E-4,-0.632,
,,,3.969E-4,-0.492,
,,,3.976E-4,-0.388,
,,,3.983E-4,-0.30400002,
,,,3.9899998E-4,-0.23600002,
,,,3.997E-4,-0.18800001,
,,,4.004E-4,-0.148,
,,,4.011E-4,-0.108,
,,,4.018E-4,-0.108,
,,,4.0249998E-4,-0.080000006,
,,,4.0319999E-4,-0.072000004,
,,,4.039E-4,-0.08800001,
,,,4.046E-4,-0.21200001,
,,,4.053E-4,-0.33600003,
,,,4.06E-4,-0.44400004,
,,,4.0669998E-4,-0.528,
,,,4.074E-4,-0.592,
,,,4.081E-4,-0.64000005,
,,,4.088E-4,-0.684,
,,,4.095E-4,-0.716,
,,,4.1019998E-4,-0.74,
,,,4.109E-4,-0.748,
,,,4.116E-4,-0.76400006,
,,,4.123E-4,-0.78000003,
,,,4.13E-4,-0.78000003,
,,,4.1369998E-4,-0.79600006,
,,,4.1439998E-4,-0.79600006,
,,,4.151E-4,-0.76400006,
,,,4.158E-4,-0.632,
,,,4.165E-4,-0.492,
,,,4.172E-4,-0.33600003,
,,,4.1789998E-4,-0.296,
,,,4.186E-4,-0.22800002,
,,,4.193E-4,-0.18,
,,,4.2E-4,-0.148,
,,,4.207E-4,-0.124000005,
,,,4.2139998E-4,-0.096,
,,,4.2209998E-4,-0.080000006,
,,,4.228E-4,-0.064,
,,,4.235E-4,-0.096,
,,,4.242E-4,-0.21200001,
,,,4.249E-4,-0.344,
,,,4.2559998E-4,-0.43600002,
,,,4.263E-4,-0.536,
,,,4.27E-4,-0.592,
,,,4.277E-4,-0.64000005,
,,,4.284E-4,-0.684,
,,,4.2909998E-4,-0.716,
,,,4.2979998E-4,-0.72400004,
,,,4.305E-4,-0.748,
,,,4.312E-4,-0.75600004,
,,,4.319E-4,-0.78000003,
,,,4.326E-4,-0.78000003,
,,,4.3329998E-4,-0.78000003,
,,,4.34E-4,-0.78800005,
,,,4.347E-4,-0.75600004,
,,,4.354E-4,-0.624,
,,,4.361E-4,-0.492,
,,,4.3679998E-4,-0.388,
,,,4.3749998E-4,-0.30400002,
,,,4.382E-4,-0.22800002,
,,,4.389E-4,-0.18800001,
,,,4.396E-4,-0.148,
,,,4.403E-4,-0.116000004,
,,,4.4099998E-4,-0.096,
,,,4.417E-4,-0.08800001,
,,,4.424E-4,-0.072000004,
,,,4.431E-4,-0.08800001,
,,,4.438E-4,-0.22000001,
,,,4.4449998E-4,-0.344,
,,,4.4519998E-4,-0.45200002,
,,,4.459E-4,-0.536,
,,,4.466E-4,-0.6,
,,,4.473E-4,-0.648,
,,,4.4799998E-4,-0.684,
,,,4.4869998E-4,-0.716,
,,,4.494E-4,-0.748,
,,,4.501E-4,-0.748,
,,,4.508E-4,-0.76400006,
,,,4.515E-4,-0.78000003,
,,,4.5219998E-4,-0.78800005,
,,,4.5289999E-4,-0.79600006,
,,,4.536E-4,-0.79600006,
,,,4.543E-4,-0.76400006,
,,,4.55E-4,-0.624,
,,,4.5569998E-4,-0.492,
,,,4.5639998E-4,-0.388,
,,,4.571E-4,-0.296,
,,,4.578E-4,-0.23600002,
,,,4.585E-4,-0.18,
,,,4.592E-4,-0.148,
,,,4.5989998E-4,-0.116000004,
,,,4.606E-4,-0.096,
,,,4.613E-4,-0.080000006,
,,,4.62E-4,-0.072000004,
,,,4.627E-4,-0.096,
,,,4.6339998E-4,-0.22000001,
,,,4.6409998E-4,-0.35200003,
,,,4.648E-4,-0.45200002,
,,,4.655E-4,-0.55200005,
,,,4.662E-4,-0.624,
,,,4.669E-4,-0.656,
,,,4.6759998E-4,-0.684,
,,,4.683E-4,-0.716,
,,,4.69E-4,-0.74,
,,,4.697E-4,-0.75600004,
,,,4.704E-4,-0.76400006,
,,,4.7109998E-4,-0.78000003,
,,,4.7179998E-4,-0.78800005,
,,,4.725E-4,-0.79600006,
,,,4.732E-4,-0.804,
,,,4.739E-4,-0.78000003,
,,,4.746E-4,-0.624,
,,,4.7529998E-4,-0.48400003,
,,,4.76E-4,-0.37600002,
,,,4.767E-4,-0.296,
,,,4.774E-4,-0.22800002,
,,,4.781E-4,-0.18,
,,,4.7879998E-4,-0.148,
,,,4.7949998E-4,-0.116000004,
,,,4.802E-4,-0.096,
,,,4.809E-4,-0.080000006,
,,,4.816E-4,-0.048,
,,,4.823E-4,-0.08800001,
,,,4.8299998E-4,-0.23600002,
,,,4.837E-4,-0.35200003,
,,,4.844E-4,-0.46,
,,,4.851E-4,-0.544,
,,,4.858E-4,-0.6,
,,,4.8649998E-4,-0.648,
,,,4.8719998E-4,-0.69200003,
,,,4.879E-4,-0.72400004,
,,,4.886E-4,-0.73200005,
,,,4.893E-4,-0.75600004,
,,,4.9E-4,-0.804,
,,,4.907E-4,-0.78000003,
,,,4.914E-4,-0.78800005,
,,,4.9209996E-4,-0.81600004,
,,,4.9279997E-4,-0.804,
,,,4.935E-4,-0.82400006,
,,,4.942E-4,-0.78000003,
,,,4.949E-4,-0.648,
,,,4.956E-4,-0.508,
,,,4.963E-4,-0.39600003,
,,,4.97E-4,-0.30400002,
,,,4.977E-4,-0.23600002,
,,,4.984E-4,-0.21200001,
,,,4.991E-4,-0.156,
,,,4.9979996E-4,-0.124000005,
,,,5.0049997E-4,-0.096,
,,,5.012E-4,-0.080000006,
,,,5.019E-4,-0.116000004,
,,,5.026E-4,-0.23600002,
,,,5.033E-4,-0.36800003,
,,,5.04E-4,-0.46800002,
,,,5.047E-4,-0.55200005,
,,,5.054E-4,-0.60800004,
,,,5.061E-4,-0.632,
,,,5.068E-4,-0.70000005,
,,,5.0749996E-4,-0.72400004,
,,,5.0819997E-4,-0.74,
,,,5.089E-4,-0.76400006,
,,,5.096E-4,-0.772,
,,,5.103E-4,-0.78800005,
,,,5.11E-4,-0.79600006,
,,,5.117E-4,-0.79600006,
,,,5.124E-4,-0.804,
,,,5.131E-4,-0.804,
,,,5.138E-4,-0.78000003,
,,,5.145E-4,-0.60800004,
,,,5.1519996E-4,-0.5,
,,,5.1589997E-4,-0.39600003,
,,,5.166E-4,-0.30400002,
,,,5.173E-4,-0.23600002,
,,,5.18E-4,-0.18800001,
,,,5.187E-4,-0.148,
,,,5.194E-4,-0.124000005,
,,,5.201E-4,-0.096,
,,,5.208E-4,-0.080000006,
,,,5.215E-4,-0.116000004,
,,,5.222E-4,-0.22800002,
,,,5.2289997E-4,-0.36,
,,,5.2359997E-4,-0.46800002,
,,,5.243E-4,-0.55200005,
,,,5.25E-4,-0.61600006,
,,,5.257E-4,-0.656,
,,,5.264E-4,-0.70000005,
,,,5.271E-4,-0.72400004,
,,,5.278E-4,-0.748,
,,,5.285E-4,-0.76400006,
,,,5.292E-4,-0.772,
,,,5.299E-4,-0.78800005,
,,,5.3059997E-4,-0.804,
,,,5.313E-4,-0.804,
,,,5.32E-4,-0.804,
,,,5.327E-4,-0.81600004,
,,,5.334E-4,-0.772,
,,,5.341E-4,-0.64000005,
,,,5.348E-4,-0.508,
,,,5.355E-4,-0.39600003,
,,,5.362E-4,-0.30400002,
,,,5.369E-4,-0.23600002,
,,,5.376E-4,-0.18800001,
,,,5.3829997E-4,-0.148,
,,,5.39E-4,-0.116000004,
,,,5.397E-4,-0.096,
,,,5.404E-4,-0.080000006,
,,,5.411E-4,-0.124000005,
,,,5.418E-4,-0.24800001,
,,,5.425E-4,-0.36800003,
,,,5.432E-4,-0.476,
,,,5.439E-4,-0.56,
,,,5.446E-4,-0.61600006,
,,,5.4529996E-4,-0.648,
,,,5.4599997E-4,-0.70000005,
,,,5.467E-4,-0.75600004,
,,,5.474E-4,-0.75600004,
,,,5.481E-4,-0.76400006,
,,,5.488E-4,-0.78000003,
,,,5.495E-4,-0.78800005,
,,,5.502E-4,-0.79600006,
,,,5.509E-4,-0.804,
,,,5.516E-4,-0.804,
,,,5.523E-4,-0.81600004,
,,,5.5299996E-4,-0.772,
,,,5.5369997E-4,-0.64000005,
,,,5.544E-4,-0.476,
,,,5.551E-4,-0.39600003,
,,,5.558E-4,-0.296,
,,,5.565E-4,-0.23600002,
,,,5.572E-4,-0.18800001,
,,,5.579E-4,-0.148,
,,,5.586E-4,-0.124000005,
,,,5.593E-4,-0.096,
,,,5.6E-4,-0.080000006,
,,,5.6069996E-4,-0.124000005,
,,,5.6139997E-4,-0.256,
,,,5.621E-4,-0.37600002,
,,,5.628E-4,-0.492,
,,,5.635E-4,-0.544,
,,,5.642E-4,-0.61600006,
,,,5.649E-4,-0.66400003,
,,,5.656E-4,-0.70000005,
,,,5.663E-4,-0.716,
,,,5.67E-4,-0.748,
,,,5.677E-4,-0.76400006,
,,,5.6839996E-4,-0.772,
,,,5.6909997E-4,-0.78800005,
,,,5.698E-4,-0.79600006,
,,,5.705E-4,-0.81600004,
,,,5.712E-4,-0.82400006,
,,,5.719E-4,-0.82400006,
,,,5.726E-4,-0.772,
,,,5.733E-4,-0.632,
,,,5.74E-4,-0.5,
,,,5.747E-4,-0.388,
,,,5.754E-4,-0.30400002,
,,,5.7609996E-4,-0.23600002,
,,,5.7679997E-4,-0.18,
,,,5.775E-4,-0.148,
,,,5.782E-4,-0.116000004,
,,,5.789E-4,-0.096,
,,,5.796E-4,-0.08800001,
,,,5.803E-4,-0.124000005,
,,,5.81E-4,-0.256,
,,,5.817E-4,-0.37600002,
,,,5.824E-4,-0.476,
,,,5.831E-4,-0.56,
,,,5.8379996E-4,-0.61600006,
,,,5.8449997E-4,-0.66400003,
,,,5.852E-4,-0.70000005,
,,,5.859E-4,-0.73200005,
,,,5.866E-4,-0.748,
,,,5.873E-4,-0.76400006,
,,,5.88E-4,-0.78000003,
,,,5.887E-4,-0.79600006,
,,,5.894E-4,-0.79600006,
,,,5.901E-4,-0.804,
,,,5.908E-4,-0.81600004,
,,,5.9149996E-4,-0.81600004,
