measurements/slices/0908310029.csv

ProID,Info,,time,Value,
GenTime,2009-08-31 22:12:54,,0.0,-0.624,
Record Length,87500 Points,,8.0E-6,-0.124000005,
Sample Interval,8.0E-6 s,,1.6E-5,-0.544,
Trigger Time,8.209 s,,2.4E-5,-0.42800003,
Source,CH1,,3.2E-5,-0.20400001,
Vertical Units,(V)/grid,,4.0E-5,-0.632,
Vertical Scale,0.2,,4.8E-5,-0.096,
Vertical Offset,61,,5.6E-5,-0.57600003,
Horizontal Units,s/grid,,6.4E-5,-0.328,
Horizontal Scale,0.05,,7.2E-5,-0.32000002,
Probe Atten,10.0,,8.0E-5,-0.64000005,
,,,8.8E-5,-0.080000006,
,,,9.6E-5,-0.592,
,,,1.04E-4,-0.24800001,
,,,1.12E-4,-0.404,
,,,1.2E-4,-0.648,
,,,1.28E-4,-0.072000004,
,,,1.36E-4,-0.61600006,
,,,1.44E-4,-0.18800001,
,,,1.52E-4,-0.46800002,
,,,1.6E-4,-0.64000005,
,,,1.68E-4,-0.064,
,,,1.76E-4,-0.632,
,,,1.84E-4,-0.148,
,,,1.92E-4,-0.528,
,,,2.0E-4,-0.528,
,,,2.08E-4,-0.132,
,,,2.16E-4,-0.64000005,
,,,2.24E-4,-0.124000005,
,,,2.32E-4,-0.56,
,,,2.4E-4,-0.42000002,
,,,2.48E-4,-0.24800001,
,,,2.56E-4,-0.648,
,,,2.64E-4,-0.096,
,,,2.72E-4,-0.592,
,,,2.8E-4,-0.312,
,,,2.88E-4,-0.35200003,
,,,2.96E-4,-0.656,
,,,3.04E-4,-0.080000006,
,,,3.12E-4,-0.60800004,
,,,3.2E-4,-0.23600002,
,,,3.28E-4,-0.43600002,
,,,3.36E-4,-0.66400003,
,,,3.44E-4,-0.064,
,,,3.52E-4,-0.624,
,,,3.6E-4,-0.18800001,
,,,3.68E-4,-0.492,
,,,3.76E-4,-0.632,
,,,3.84E-4,-0.064,
,,,3.92E-4,-0.64000005,
,,,4.0E-4,-0.148,
,,,4.08E-4,-0.544,
,,,4.16E-4,-0.5,
,,,4.24E-4,-0.164,
,,,4.32E-4,-0.648,
,,,4.4E-4,-0.116000004,
,,,4.48E-4,-0.57600003,
,,,4.56E-4,-0.39600003,
,,,4.64E-4,-0.28800002,
,,,4.7199999E-4,-0.656,
,,,4.8E-4,-0.096,
,,,4.88E-4,-0.6,
,,,4.96E-4,-0.296,
,,,5.04E-4,-0.388,
,,,5.12E-4,-0.66400003,
,,,5.2E-4,-0.080000006,
,,,5.28E-4,-0.624,
,,,5.36E-4,-0.22000001,
,,,5.44E-4,-0.46,
,,,5.52E-4,-0.67600006,
,,,5.6E-4,-0.064,
,,,5.68E-4,-0.64000005,
,,,5.76E-4,-0.18,
,,,5.84E-4,-0.51600003,
,,,5.92E-4,-0.624,
,,,5.9999997E-4,-0.08800001,
,,,6.08E-4,-0.648,
,,,6.16E-4,-0.14,
,,,6.24E-4,-0.56,
,,,6.32E-4,-0.492,
,,,6.4E-4,-0.20400001,
,,,6.48E-4,-0.656,
,,,6.56E-4,-0.116000004,
,,,6.64E-4,-0.592,
,,,6.72E-4,-0.36800003,
,,,6.8E-4,-0.32000002,
,,,6.88E-4,-0.67600006,
,,,6.96E-4,-0.096,
,,,7.04E-4,-0.624,
,,,7.12E-4,-0.28800002,
,,,7.2E-4,-0.42800003,
,,,7.28E-4,-0.66400003,
,,,7.36E-4,-0.080000006,
,,,7.44E-4,-0.632,
,,,7.52E-4,-0.19600001,
,,,7.6E-4,-0.48400003,
,,,7.68E-4,-0.684,
,,,7.76E-4,-0.032,
,,,7.84E-4,-0.632,
,,,7.92E-4,-0.156,
,,,8.0E-4,-0.51600003,
,,,8.08E-4,-0.58400005,
,,,8.16E-4,-0.124000005,
,,,8.24E-4,-0.656,
,,,8.32E-4,-0.132,
,,,8.4E-4,-0.57600003,
,,,8.48E-4,-0.43600002,
,,,8.56E-4,-0.24800001,
,,,8.64E-4,-0.66400003,
,,,8.72E-4,-0.108,
,,,8.8E-4,-0.6,
,,,8.88E-4,-0.33600003,
,,,8.96E-4,-0.35200003,
,,,9.04E-4,-0.67600006,
,,,9.12E-4,-0.08800001,
,,,9.2E-4,-0.624,
,,,9.28E-4,-0.256,
,,,9.36E-4,-0.44400004,
,,,9.4399997E-4,-0.684,
,,,9.52E-4,-0.072000004,
,,,9.6E-4,-0.64000005,
,,,9.68E-4,-0.18800001,
,,,9.76E-4,-0.5,
,,,9.84E-4,-0.656,
,,,9.92E-4,-0.064,
,,,0.001,-0.656,
,,,0.001008,-0.148,
,,,0.001016,-0.55200005,
,,,0.001024,-0.536,
,,,0.001032,-0.156,
,,,0.00104,-0.66400003,
,,,0.001048,-0.116000004,
,,,0.001056,-0.58400005,
,,,0.001064,-0.404,
,,,0.001072,-0.28,
,,,0.00108,-0.66400003,
,,,0.001088,-0.096,
,,,0.001096,-0.61600006,
,,,0.001104,-0.296,
,,,0.001112,-0.388,
,,,0.00112,-0.67600006,
,,,0.001128,-0.080000006,
,,,0.001136,-0.632,
,,,0.001144,-0.22000001,
,,,0.001152,-0.46,
,,,0.00116,-0.684,
,,,0.001168,-0.064,
,,,0.001176,-0.648,
,,,0.001184,-0.172,
,,,0.001192,-0.51600003,
,,,0.0011999999,-0.60800004,
,,,0.001208,-0.080000006,
,,,0.001216,-0.632,
,,,0.001224,-0.14,
,,,0.001232,-0.568,
,,,0.00124,-0.476,
,,,0.001248,-0.19600001,
,,,0.001256,-0.66400003,
,,,0.001264,-0.108,
,,,0.001272,-0.592,
,,,0.00128,-0.35200003,
,,,0.001288,-0.312,
,,,0.001296,-0.67600006,
,,,0.001304,-0.08800001,
,,,0.001312,-0.61600006,
,,,0.00132,-0.264,
,,,0.001328,-0.41200003,
,,,0.001336,-0.684,
,,,0.001344,-0.072000004,
,,,0.001352,-0.632,
,,,0.00136,-0.21200001,
,,,0.0013679999,-0.476,
,,,0.001376,-0.67600006,
,,,0.001384,-0.064,
,,,0.001392,-0.648,
,,,0.0014,-0.156,
,,,0.001408,-0.536,
,,,0.001416,-0.56,
,,,0.001424,-0.116000004,
,,,0.001432,-0.656,
,,,0.00144,-0.124000005,
,,,0.001448,-0.568,
,,,0.001456,-0.42800003,
,,,0.001464,-0.22800002,
,,,0.001472,-0.66400003,
,,,0.00148,-0.08800001,
,,,0.001488,-0.6,
,,,0.001496,-0.30400002,
,,,0.001504,-0.344,
,,,0.001512,-0.66400003,
,,,0.00152,-0.080000006,
,,,0.001528,-0.61600006,
,,,0.001536,-0.22800002,
,,,0.001544,-0.42800003,
,,,0.001552,-0.67600006,
,,,0.00156,-0.064,
,,,0.001568,-0.632,
,,,0.001576,-0.172,
,,,0.001584,-0.5,
,,,0.001592,-0.61600006,
,,,0.0016,-0.048,
,,,0.001608,-0.656,
,,,0.001616,-0.132,
,,,0.001624,-0.536,
,,,0.001632,-0.46800002,
,,,0.00164,-0.20400001,
,,,0.001648,-0.648,
,,,0.001656,-0.048,
,,,0.001664,-0.5,
,,,0.001672,-0.35200003,
,,,0.00168,-0.264,
,,,0.001688,-0.656,
,,,0.001696,-0.096,
,,,0.001704,-0.6,
,,,0.001712,-0.264,
,,,0.00172,-0.36800003,
,,,0.001728,-0.66400003,
,,,0.001736,-0.072000004,
,,,0.001744,-0.60800004,
,,,0.001752,-0.19600001,
,,,0.00176,-0.45200002,
,,,0.001768,-0.66400003,
,,,0.001776,-0.064,
,,,0.001784,-0.632,
,,,0.001792,-0.156,
,,,0.0018,-0.5,
,,,0.001808,-0.55200005,
,,,0.001816,-0.072000004,
,,,0.001824,-0.64000005,
,,,0.001832,-0.116000004,
,,,0.00184,-0.544,
,,,0.001848,-0.37600002,
,,,0.001856,-0.18,
,,,0.001864,-0.648,
,,,0.001872,-0.08800001,
,,,0.00188,-0.544,
,,,0.0018879999,-0.28800002,
,,,0.001896,-0.296,
,,,0.001904,-0.648,
,,,0.001912,-0.080000006,
,,,0.00192,-0.592,
,,,0.001928,-0.22000001,
,,,0.001936,-0.39600003,
,,,0.001944,-0.656,
,,,0.001952,-0.064,
,,,0.00196,-0.61600006,
,,,0.001968,-0.172,
,,,0.001976,-0.46,
,,,0.001984,-0.592,
,,,0.001992,-0.056,
,,,0.002,-0.624,
,,,0.002008,-0.124000005,
,,,0.002016,-0.508,
,,,0.002024,-0.45200002,
,,,0.002032,-0.096,
,,,0.00204,-0.632,
,,,0.002048,-0.108,
,,,0.002056,-0.544,
,,,0.002064,-0.328,
,,,0.002072,-0.21200001,
,,,0.00208,-0.632,
,,,0.002088,-0.08800001,
,,,0.002096,-0.568,
,,,0.002104,-0.24800001,
,,,0.002112,-0.32000002,
,,,0.00212,-0.632,
,,,0.002128,-0.064,
,,,0.002136,-0.592,
,,,0.002144,-0.18800001,
,,,0.002152,-0.404,
,,,0.00216,-0.632,
,,,0.002168,-0.056,
,,,0.002176,-0.6,
,,,0.002184,-0.132,
,,,0.002192,-0.46,
,,,0.0022,-0.46800002,
,,,0.002208,-0.048,
,,,0.002216,-0.61600006,
,,,0.002224,-0.108,
,,,0.002232,-0.508,
,,,0.00224,-0.35200003,
,,,0.002248,-0.132,
,,,0.002256,-0.61600006,
,,,0.002264,-0.080000006,
,,,0.002272,-0.544,
,,,0.00228,-0.264,
,,,0.002288,-0.24800001,
,,,0.002296,-0.624,
,,,0.002304,-0.072000004,
,,,0.002312,-0.56,
,,,0.00232,-0.20400001,
,,,0.002328,-0.344,
,,,0.002336,-0.624,
,,,0.002344,-0.064,
,,,0.002352,-0.57600003,
,,,0.00236,-0.148,
,,,0.002368,-0.41200003,
,,,0.002376,-0.508,
,,,0.002384,-0.048,
,,,0.002392,-0.592,
,,,0.0023999999,-0.116000004,
,,,0.002408,-0.46,
,,,0.002416,-0.388,
,,,0.002424,-0.064,
,,,0.002432,-0.6,
,,,0.00244,-0.08800001,
,,,0.002448,-0.5,
,,,0.002456,-0.296,
,,,0.002464,-0.164,
,,,0.002472,-0.6,
,,,0.00248,-0.080000006,
,,,0.002488,-0.536,
,,,0.002496,-0.22800002,
,,,0.002504,-0.272,
,,,0.002512,-0.592,
,,,0.00252,-0.072000004,
,,,0.002528,-0.55200005,
,,,0.002536,-0.14,
,,,0.002544,-0.328,
,,,0.002552,-0.528,
,,,0.00256,-0.072000004,
,,,0.002568,-0.592,
,,,0.002576,-0.14,
,,,0.002584,-0.42800003,
,,,0.002592,-0.41200003,
,,,0.0026,-0.048,
,,,0.002608,-0.57600003,
,,,0.002616,-0.096,
,,,0.002624,-0.46,
,,,0.002632,-0.30400002,
,,,0.00264,-0.080000006,
,,,0.002648,-0.58400005,
,,,0.002656,-0.080000006,
,,,0.002664,-0.492,
,,,0.002672,-0.22800002,
,,,0.00268,-0.18,
,,,0.002688,-0.592,
,,,0.002696,-0.064,
,,,0.002704,-0.51600003,
,,,0.002712,-0.18,
,,,0.00272,-0.28,
,,,0.002728,-0.55200005,
,,,0.0027359999,-0.056,
,,,0.002744,-0.536,
,,,0.002752,-0.132,
,,,0.00276,-0.35200003,
,,,0.002768,-0.43600002,
,,,0.002776,-0.048,
,,,0.002784,-0.544,
,,,0.002792,-0.096,
,,,0.0028,-0.41200003,
,,,0.002808,-0.328,
,,,0.002816,-0.048,
,,,0.002824,-0.55200005,
,,,0.002832,-0.080000006,
,,,0.00284,-0.45200002,
,,,0.002848,-0.24800001,
,,,0.002856,-0.108,
,,,0.002864,-0.56,
,,,0.002872,-0.064,
,,,0.00288,-0.48400003,
,,,0.002888,-0.18800001,
,,,0.002896,-0.20400001,
,,,0.002904,-0.544,
,,,0.002912,-0.056,
,,,0.0029199999,-0.5,
,,,0.002928,-0.108,
,,,0.002936,-0.296,
,,,0.002944,-0.43600002,
,,,0.002952,-0.048,
,,,0.00296,-0.51600003,
,,,0.002968,-0.096,
,,,0.002976,-0.36,
,,,0.002984,-0.328,
,,,0.002992,-0.048,
,,,0.003,-0.51600003,
,,,0.003008,-0.080000006,
,,,0.003016,-0.41200003,
,,,0.003024,-0.24800001,
,,,0.003032,-0.056,
,,,0.00304,-0.528,
,,,0.003048,-0.064,
,,,0.003056,-0.44400004,
,,,0.003064,-0.18800001,
,,,0.003072,-0.148,
,,,0.00308,-0.528,
,,,0.003088,-0.056,
,,,0.003096,-0.46,
,,,0.003104,-0.132,
,,,0.003112,-0.22000001,
,,,0.00312,-0.44400004,
,,,0.003128,-0.048,
,,,0.003136,-0.476,
,,,0.003144,-0.108,
,,,0.003152,-0.30400002,
,,,0.00316,-0.33600003,
,,,0.003168,-0.040000003,
,,,0.003176,-0.492,
,,,0.003184,-0.080000006,
,,,0.003192,-0.35200003,
,,,0.0032,-0.24800001,
,,,0.003208,-0.040000003,
,,,0.003216,-0.492,
,,,0.003224,-0.072000004,
,,,0.003232,-0.39600003,
,,,0.00324,-0.18800001,
,,,0.003248,-0.064,
,,,0.0032559999,-0.5,
,,,0.003264,-0.056,
,,,0.003272,-0.42800003,
,,,0.00328,-0.132,
,,,0.003288,-0.156,
,,,0.003296,-0.43600002,
,,,0.003304,-0.048,
,,,0.003312,-0.42800003,
,,,0.00332,-0.096,
,,,0.003328,-0.23600002,
,,,0.003336,-0.33600003,
,,,0.003344,-0.048,
,,,0.003352,-0.46,
,,,0.00336,-0.080000006,
,,,0.003368,-0.312,
,,,0.003376,-0.24800001,
,,,0.003384,-0.048,
,,,0.003392,-0.46,
,,,0.0034,-0.072000004,
,,,0.003408,-0.344,
,,,0.003416,-0.132,
,,,0.003424,-0.024,
,,,0.003432,-0.388,
,,,0.00344,-0.040000003,
,,,0.003448,-0.37600002,
,,,0.003456,-0.132,
,,,0.003464,-0.096,
,,,0.003472,-0.46,
,,,0.00348,-0.048,
,,,0.003488,-0.404,
,,,0.003496,-0.096,
,,,0.003504,-0.172,
,,,0.003512,-0.328,
,,,0.00352,-0.048,
,,,0.003528,-0.42000002,
,,,0.003536,-0.080000006,
,,,0.003544,-0.23600002,
,,,0.003552,-0.24800001,
,,,0.00356,-0.040000003,
,,,0.003568,-0.42800003,
,,,0.003576,-0.072000004,
,,,0.003584,-0.296,
,,,0.0035919999,-0.164,
,,,0.0036,-0.032,
,,,0.003608,-0.43600002,
,,,0.003616,-0.056,
,,,0.003624,-0.33600003,
,,,0.003632,-0.124000005,
,,,0.00364,-0.040000003,
,,,0.003648,-0.404,
,,,0.003656,-0.048,
,,,0.003664,-0.36,
,,,0.003672,-0.096,
,,,0.00368,-0.108,
,,,0.003688,-0.32000002,
,,,0.003696,-0.048,
,,,0.003704,-0.37600002,
,,,0.003712,-0.080000006,
,,,0.00372,-0.18,
,,,0.003728,-0.23600002,
,,,0.003736,-0.048,
,,,0.003744,-0.39600003,
,,,0.003752,-0.064,
,,,0.00376,-0.23600002,
,,,0.003768,-0.18,
,,,0.0037759999,-0.040000003,
,,,0.003784,-0.404,
,,,0.003792,-0.056,
,,,0.0038,-0.28800002,
,,,0.003808,-0.116000004,
,,,0.003816,-0.032,
,,,0.003824,-0.37600002,
,,,0.003832,-0.048,
,,,0.00384,-0.312,
,,,0.003848,-0.096,
,,,0.003856,-0.056,
,,,0.003864,-0.296,
,,,0.003872,-0.024,
,,,0.00388,-0.33600003,
,,,0.003888,-0.072000004,
,,,0.003896,-0.124000005,
,,,0.003904,-0.22000001,
,,,0.003912,-0.040000003,
,,,0.00392,-0.35200003,
,,,0.003928,-0.064,
,,,0.003936,-0.18,
,,,0.0039439998,-0.164,
,,,0.003952,-0.040000003,
,,,0.00396,-0.36,
,,,0.003968,-0.056,
,,,0.003976,-0.23600002,
,,,0.003984,-0.108,
,,,0.003992,-0.032,
,,,0.004,-0.344,
,,,0.004008,-0.048,
,,,0.004016,-0.28,
,,,0.004024,-0.08800001,
,,,0.004032,-0.040000003,
,,,0.00404,-0.28,
,,,0.004048,-0.040000003,
,,,0.004056,-0.296,
,,,0.004064,-0.072000004,
,,,0.004072,-0.064,
,,,0.00408,-0.20400001,
,,,0.004088,-0.040000003,
,,,0.004096,-0.312,
,,,0.004104,-0.056,
,,,0.004112,-0.132,
,,,0.00412,-0.156,
,,,0.004128,-0.040000003,
,,,0.004136,-0.32000002,
,,,0.004144,-0.048,
,,,0.004152,-0.18,
,,,0.00416,-0.096,
,,,0.004168,-0.032,
,,,0.004176,-0.32000002,
,,,0.004184,-0.040000003,
,,,0.004192,-0.22000001,
,,,0.0042,-0.080000006,
,,,0.004208,-0.032,
,,,0.004216,-0.256,
,,,0.004224,-0.040000003,
,,,0.004232,-0.24800001,
,,,0.00424,-0.064,
,,,0.004248,-0.032,
,,,0.004256,-0.20400001,
,,,0.004264,-0.032,
,,,0.004272,-0.272,
,,,0.00428,-0.056,
,,,0.004288,-0.080000006,
,,,0.004296,-0.14,
,,,0.004304,-0.080000006,
,,,0.004312,-0.28,
,,,0.00432,0.0,
,,,0.004328,-0.14,
,,,0.004336,-0.108,
,,,0.004344,-0.040000003,
,,,0.004352,-0.264,
,,,0.00436,-0.056,
,,,0.004368,-0.172,
,,,0.004376,-0.072000004,
,,,0.004384,-0.032,
,,,0.004392,-0.22000001,
,,,0.0044,-0.040000003,
,,,0.004408,-0.20400001,
,,,0.004416,-0.064,
,,,0.004424,-0.032,
,,,0.004432,-0.172,
,,,0.00444,-0.032,
,,,0.004448,-0.22000001,
,,,0.004456,-0.048,
,,,0.004464,-0.040000003,
,,,0.004472,-0.124000005,
,,,0.00448,-0.032,
,,,0.004488,-0.23600002,
,,,0.004496,-0.048,
,,,0.004504,-0.08800001,
,,,0.004512,-0.080000006,
,,,0.00452,-0.032,
,,,0.004528,-0.23600002,
,,,0.004536,-0.048,
,,,0.004544,-0.124000005,
,,,0.004552,-0.072000004,
,,,0.00456,-0.032,
,,,0.004568,-0.19600001,
,,,0.004576,-0.032,
,,,0.004584,-0.156,
,,,0.004592,-0.056,
,,,0.0046,-0.032,
,,,0.004608,-0.148,
,,,0.0046159998,-0.032,
,,,0.004624,-0.18,
,,,0.004632,-0.048,
,,,0.00464,-0.032,
,,,0.004648,-0.116000004,
,,,0.004656,-0.032,
,,,0.004664,-0.19600001,
,,,0.004672,-0.040000003,
,,,0.00468,-0.040000003,
,,,0.004688,-0.072000004,
,,,0.004696,-0.024,
,,,0.004704,-0.19600001,
,,,0.004712,-0.040000003,
,,,0.00472,-0.080000006,
,,,0.004728,-0.064,
,,,0.004736,-0.032,
,,,0.004744,-0.164,
,,,0.004752,-0.032,
,,,0.00476,-0.116000004,
,,,0.004768,-0.048,
,,,0.004776,-0.032,
,,,0.004784,-0.124000005,
,,,0.004792,-0.032,
,,,0.0047999998,-0.132,
,,,0.004808,-0.048,
,,,0.004816,-0.024,
,,,0.004824,-0.08800001,
,,,0.004832,-0.032,
,,,0.00484,-0.148,
,,,0.004848,-0.040000003,
,,,0.004856,-0.032,
,,,0.004864,-0.064,
,,,0.004872,-0.032,
,,,0.00488,-0.156,
,,,0.004888,-0.032,
,,,0.004896,-0.048,
,,,0.004904,-0.056,
,,,0.004912,-0.024,
,,,0.00492,-0.132,
,,,0.004928,-0.032,
,,,0.004936,-0.072000004,
,,,0.004944,-0.048,
,,,0.004952,-0.024,
,,,0.00496,-0.096,
,,,0.004968,-0.032,
,,,0.004976,-0.096,
,,,0.0049839998,-0.040000003,
,,,0.004992,-0.024,
,,,0.005,-0.080000006,
,,,0.005008,-0.032,
,,,0.005016,-0.108,
,,,0.005024,-0.040000003,
,,,0.005032,-0.024,
,,,0.00504,-0.064,
,,,0.005048,-0.032,
,,,0.005056,-0.116000004,
,,,0.005064,-0.032,
,,,0.005072,-0.032,
,,,0.00508,-0.048,
,,,0.005088,-0.024,
,,,0.005096,-0.096,
,,,0.005104,-0.032,
,,,0.005112,-0.048,
,,,0.00512,-0.040000003,
,,,0.005128,-0.024,
,,,0.005136,-0.072000004,
,,,0.005144,-0.032,
,,,0.005152,-0.064,
,,,0.00516,-0.040000003,
,,,0.005168,-0.024,
,,,0.005176,-0.072000004,
,,,0.005184,-0.024,
,,,0.005192,-0.008,
,,,0.0052,-0.016,
,,,0.005208,-0.024,
,,,0.005216,-0.096,
,,,0.005224,-0.008,
,,,0.005232,-0.080000006,
,,,0.00524,-0.016,
,,,0.005248,-0.024,
,,,0.005256,-0.040000003,
,,,0.005264,-0.024,
,,,0.005272,-0.064,
,,,0.00528,-0.032,
,,,0.005288,-0.032,
,,,0.005296,-0.032,
,,,0.005304,-0.024,
,,,0.005312,-0.056,
,,,0.00532,-0.024,
,,,0.005328,-0.040000003,
,,,0.005336,-0.032,
,,,0.005344,-0.016,
,,,0.005352,-0.048,
,,,0.00536,-0.024,
,,,0.005368,-0.048,
,,,0.005376,-0.032,
,,,0.005384,-0.024,
,,,0.005392,-0.040000003,
,,,0.0054,-0.024,
,,,0.005408,-0.048,
,,,0.005416,-0.024,
,,,0.005424,-0.024,
,,,0.005432,-0.032,
,,,0.00544,-0.024,
,,,0.005448,-0.040000003,
,,,0.005456,-0.024,
,,,0.005464,-0.024,
,,,0.0054719998,-0.032,
,,,0.00548,-0.024,
,,,0.005488,-0.032,
,,,0.005496,-0.024,
,,,0.005504,-0.024,
,,,0.005512,-0.024,
,,,0.00552,-0.024,
,,,0.005528,-0.032,
,,,0.005536,-0.024,
,,,0.005544,-0.032,
,,,0.005552,-0.024,
,,,0.00556,-0.024,
,,,0.005568,-0.024,
,,,0.005576,-0.024,
,,,0.005584,-0.032,
,,,0.005592,-0.024,
,,,0.0056,-0.024,
,,,0.005608,-0.024,
,,,0.005616,-0.024,
,,,0.005624,-0.024,
,,,0.005632,-0.024,
,,,0.00564,-0.024,
,,,0.005648,-0.024,
,,,0.0056559998,-0.024,
,,,0.005664,-0.024,
,,,0.005672,-0.024,
,,,0.00568,-0.024,
,,,0.005688,-0.016,
,,,0.005696,-0.024,
,,,0.005704,-0.024,
,,,0.005712,-0.024,
,,,0.00572,-0.024,
,,,0.005728,-0.024,
,,,0.005736,-0.024,
,,,0.005744,-0.024,
,,,0.005752,-0.024,
,,,0.00576,-0.016,
,,,0.005768,-0.024,
,,,0.005776,-0.016,
,,,0.005784,-0.024,
,,,0.005792,-0.024,
,,,0.0058,-0.016,
,,,0.005808,-0.024,
,,,0.005816,-0.024,
,,,0.005824,-0.016,
,,,0.005832,-0.024,
,,,0.0058399998,-0.016,
,,,0.005848,-0.016,
,,,0.005856,-0.016,
,,,0.005864,-0.016,
,,,0.005872,-0.024,
,,,0.00588,-0.016,
,,,0.005888,-0.024,
,,,0.005896,-0.016,
,,,0.005904,-0.016,
,,,0.005912,-0.024,
,,,0.00592,-0.016,
,,,0.005928,-0.024,
,,,0.005936,-0.016,
,,,0.005944,-0.024,
,,,0.005952,-0.024,
,,,0.00596,-0.016,
,,,0.005968,-0.024,
,,,0.005976,-0.016,
,,,0.005984,-0.024,
,,,0.005992,-0.016,
,,,0.006,-0.016,
,,,0.006008,-0.008,
,,,0.006016,-0.016,
,,,0.006024,-0.016,
,,,0.006032,-0.024,
,,,0.00604,-0.016,
,,,0.006048,-0.024,
,,,0.006056,-0.024,
,,,0.006064,-0.024,
,,,0.006072,-0.024,
,,,0.00608,0.044000003,
,,,0.006088,-0.008,
,,,0.006096,-0.064,
,,,0.006104,-0.016,
,,,0.006112,-0.024,
,,,0.00612,-0.016,
,,,0.006128,-0.024,
,,,0.006136,-0.016,
,,,0.006144,-0.024,
,,,0.006152,-0.024,
,,,0.00616,-0.024,
,,,0.006168,-0.024,
,,,0.006176,-0.024,
,,,0.006184,-0.016,
,,,0.006192,-0.024,
,,,0.0062,-0.024,
,,,0.006208,-0.024,
,,,0.006216,-0.016,
,,,0.006224,-0.024,
,,,0.006232,-0.024,
,,,0.00624,-0.024,
,,,0.006248,-0.016,
,,,0.006256,-0.024,
,,,0.006264,-0.024,
,,,0.006272,-0.024,
,,,0.00628,-0.024,
,,,0.006288,-0.024,
,,,0.006296,-0.024,
,,,0.006304,-0.024,
,,,0.006312,-0.024,
,,,0.00632,-0.016,
,,,0.0063279998,-0.024,
,,,0.006336,-0.024,
,,,0.006344,-0.024,
,,,0.006352,-0.016,
,,,0.00636,-0.024,
,,,0.006368,-0.024,
,,,0.006376,-0.016,
,,,0.006384,-0.024,
,,,0.006392,-0.016,
,,,0.0064,-0.024,
,,,0.006408,-0.024,
,,,0.006416,-0.024,
,,,0.006424,-0.016,
,,,0.006432,-0.024,
,,,0.00644,-0.024,
,,,0.006448,-0.024,
,,,0.006456,-0.024,
,,,0.006464,-0.024,
,,,0.006472,-0.024,
,,,0.00648,-0.024,
,,,0.006488,-0.024,
,,,0.006496,-0.024,
,,,0.006504,-0.024,
,,,0.0065119998,-0.024,
,,,0.00652,-0.024,
,,,0.006528,-0.040000003,
,,,0.006536,-0.024,
,,,0.006544,-0.024,
,,,0.006552,-0.024,
,,,0.00656,-0.024,
,,,0.006568,-0.016,
,,,0.006576,-0.024,
,,,0.006584,-0.024,
,,,0.006592,-0.024,
,,,0.0066,-0.024,
,,,0.006608,-0.024,
,,,0.006616,-0.024,
,,,0.006624,-0.024,
,,,0.006632,-0.040000003,
,,,0.00664,-0.024,
,,,0.006648,-0.024,
,,,0.006656,-0.024,
,,,0.006664,-0.024,
,,,0.006672,-0.016,
,,,0.00668,-0.024,
,,,0.006688,-0.016,
,,,0.0066959998,-0.024,
,,,0.006704,-0.024,
,,,0.006712,-0.024,
,,,0.00672,-0.024,
,,,0.006728,-0.024,
,,,0.006736,-0.024,
,,,0.006744,-0.032,
,,,0.006752,-0.024,
,,,0.00676,-0.056,
,,,0.006768,-0.024,
,,,0.006776,-0.024,
,,,0.006784,-0.032,
,,,0.006792,-0.024,
,,,0.0068,-0.048,
,,,0.006808,-0.032,
,,,0.006816,-0.024,
,,,0.006824,-0.032,
,,,0.006832,-0.024,
,,,0.00684,-0.048,
,,,0.006848,-0.024,
,,,0.006856,-0.024,
,,,0.006864,-0.032,
,,,0.006872,-0.024,
,,,0.00688,-0.040000003,
,,,0.006888,-0.024,
,,,0.006896,-0.048,
,,,0.006904,-0.024,
,,,0.006912,-0.032,
,,,0.00692,-0.048,
,,,0.006928,-0.024,
,,,0.006936,-0.08800001,
,,,0.006944,-0.032,
,,,0.006952,-0.024,
,,,0.00696,-0.040000003,
,,,0.006968,-0.096,
,,,0.006976,-0.072000004,
,,,0.006984,0.008,
,,,0.006992,0.0,
,,,0.0069999998,-0.048,
,,,0.007008,-0.008,
,,,0.007016,-0.08800001,
,,,0.007024,-0.032,
,,,0.007032,-0.024,
,,,0.00704,-0.032,
,,,0.007048,-0.024,
,,,0.007056,-0.064,
,,,0.007064,-0.024,
,,,0.007072,-0.040000003,
,,,0.00708,-0.032,
,,,0.007088,-0.024,
,,,0.007096,-0.072000004,
,,,0.007104,-0.032,
,,,0.007112,-0.072000004,
,,,0.00712,-0.032,
,,,0.007128,-0.024,
,,,0.007136,-0.056,
,,,0.007144,-0.032,
,,,0.007152,-0.116000004,
,,,0.00716,-0.032,
,,,0.007168,-0.024,
,,,0.007176,-0.056,
,,,0.0071839998,-0.024,
,,,0.007192,-0.116000004,
,,,0.0072,-0.032,
,,,0.007208,-0.024,
,,,0.007216,-0.048,
,,,0.007224,-0.024,
,,,0.007232,-0.108,
,,,0.00724,-0.032,
,,,0.007248,-0.032,
,,,0.007256,-0.040000003,
,,,0.007264,-0.024,
,,,0.007272,-0.116000004,
,,,0.00728,-0.032,
,,,0.007288,-0.056,
,,,0.007296,-0.048,
,,,0.007304,-0.024,
,,,0.007312,-0.08800001,
,,,0.00732,-0.032,
,,,0.007328,-0.096,
,,,0.007336,-0.016,
,,,0.007344,-0.024,
,,,0.007352,-0.072000004,
,,,0.00736,-0.032,
,,,0.0073679998,-0.148,
,,,0.007376,-0.040000003,
,,,0.007384,-0.024,
